# Blender v2.78 (sub 0) OBJ File: ''
# www.blender.org
v -0.217294 -0.090006 0.075000
v -0.230678 -0.045885 0.075000
v -0.289474 -0.289474 0.075000
v 0.289474 0.289474 0.075000
v 0.217294 0.090006 0.075000
v 0.230678 0.045885 0.075000
v 0.000000 -0.235198 0.075000
v -0.090006 -0.217294 0.075000
v -0.130669 -0.195560 0.075000
v -0.166310 -0.166310 0.075000
v -0.230678 0.045885 0.075000
v -0.289474 0.289474 0.075000
v -0.235198 -0.000000 0.075000
v -0.195560 -0.130669 0.075000
v -0.195560 0.130669 0.075000
v -0.166310 0.166310 0.075000
v -0.130669 0.195560 0.075000
v 0.289474 -0.289474 0.075000
v 0.045885 -0.230679 0.075000
v -0.090006 0.217294 0.075000
v -0.045885 0.230678 0.075000
v 0.090006 -0.217294 0.075000
v 0.130669 -0.195560 0.075000
v 0.000000 0.235198 0.075000
v 0.166310 -0.166310 0.075000
v 0.195560 -0.130669 0.075000
v 0.045885 0.230678 0.075000
v 0.090006 0.217294 0.075000
v 0.217294 -0.090006 0.075000
v 0.230679 -0.045885 0.075000
v 0.130669 0.195560 0.075000
v 0.166310 0.166310 0.075000
v 0.235198 -0.000000 0.075000
v 0.195560 0.130669 0.075000
v 0.046505 -0.233794 1.420226
v 0.087362 -0.210910 1.423777
v -0.044537 -0.223901 1.423777
v 0.246379 -0.000000 1.414695
v 0.251519 -0.000000 1.407726
v 0.241645 0.048066 1.414695
v 0.193365 0.129202 1.385305
v 0.129202 0.193365 1.385305
v 0.175346 0.175346 1.392274
v -0.236162 -0.046975 0.076224
v -0.235198 -0.000000 0.075000
v -0.230678 -0.045885 0.075000
v 0.234009 -0.096930 1.400000
v 0.248423 -0.049414 1.400000
v 0.246686 -0.049069 1.407726
v 0.147462 -0.147462 1.379774
v 0.045370 -0.228090 1.385305
v 0.000000 -0.208543 1.379774
v 0.136881 -0.204857 1.414695
v 0.094285 -0.227625 1.414695
v -0.094285 0.227625 1.414695
v -0.096252 0.232373 1.407726
v -0.139736 0.209130 1.407726
v 0.140720 -0.210603 1.400000
v 0.129202 -0.193365 1.385305
v 0.175346 -0.175346 1.392274
v 0.228090 0.045370 1.385305
v 0.248423 0.049414 1.400000
v 0.247977 -0.000000 1.392274
v 0.248423 0.049414 1.400000
v 0.173397 0.115860 1.379774
v 0.174856 0.034781 1.376224
v 0.068225 0.164711 1.376224
v 0.223901 0.044537 1.423777
v 0.220229 0.091222 1.420226
v -0.168556 0.168556 1.420226
v -0.153517 0.153517 1.425000
v -0.087362 0.210910 1.423777
v 0.198201 0.132434 1.420226
v 0.091222 0.220229 1.420226
v 0.094285 0.227625 1.414695
v 0.048066 0.241645 1.414695
v 0.204857 0.136881 1.414695
v 0.179103 0.179103 1.400000
v 0.140720 0.210603 1.400000
v 0.139736 0.209130 1.407726
v 0.209130 -0.139736 1.407726
v 0.210603 -0.140720 1.400000
v -0.220229 -0.091222 1.420226
v -0.227625 -0.094285 1.414695
v -0.204857 -0.136881 1.414695
v 0.209130 0.139736 1.407726
v 0.174217 0.174217 1.414695
v 0.132434 0.198201 1.420226
v 0.161423 0.161423 1.423777
v 0.229101 0.094897 1.392274
v 0.210603 0.140720 1.400000
v 0.096252 0.232373 1.407726
v -0.217294 -0.090006 0.075000
v -0.227119 -0.094076 0.079775
v -0.177851 0.177851 1.407726
v -0.174217 0.174216 1.414695
v 0.140720 0.210603 1.400000
v 0.094897 0.229101 1.392274
v 0.000000 0.251519 1.407726
v 0.000000 0.238374 1.420226
v -0.083083 0.200579 1.425000
v -0.042355 0.212934 1.425000
v 0.044537 0.223901 1.423777
v 0.000000 0.217106 1.425000
v 0.083083 0.200580 1.425000
v -0.174216 -0.174217 1.414695
v -0.177851 -0.177851 1.407726
v -0.139736 -0.209130 1.407726
v -0.048066 0.241645 1.414695
v -0.049414 0.248423 1.400000
v 0.049414 0.248423 1.400000
v -0.140720 0.210603 1.400000
v -0.129202 0.193365 1.385305
v -0.175346 0.175346 1.392274
v 0.210603 0.140720 1.400000
v 0.232373 0.096252 1.407726
v -0.193365 0.129202 1.385305
v 0.180517 0.120617 1.425000
v 0.200580 0.083083 1.425000
v 0.000000 0.247977 1.392274
v 0.049414 0.248423 1.400000
v -0.210910 0.087362 1.423777
v -0.233794 -0.046505 1.420226
v -0.189814 -0.126830 1.423777
v 0.000000 0.232558 1.385305
v 0.000000 0.208543 1.379774
v -0.088996 0.214856 1.385305
v -0.204857 0.136881 1.414695
v -0.220229 0.091222 1.420226
v -0.094897 0.229101 1.392274
v -0.049414 0.248423 1.400000
v -0.210603 0.140720 1.400000
v -0.192668 0.079806 1.379774
v -0.208543 -0.000000 1.379774
v -0.232558 -0.000000 1.385305
v -0.115860 0.173397 1.379774
v -0.096930 0.234009 1.400000
v -0.210603 -0.140720 1.400000
v -0.179103 -0.179103 1.400000
v -0.132434 0.198201 1.420226
v -0.140720 0.210603 1.400000
v -0.214856 -0.088996 1.385305
v -0.129202 -0.193365 1.385305
v -0.175346 -0.175346 1.392274
v -0.174856 -0.034781 1.376224
v -0.227625 0.094285 1.414695
v -0.232373 0.096252 1.407726
v -0.246686 0.049069 1.407726
v 0.088996 0.214856 1.385305
v -0.238374 -0.000000 1.420226
v -0.233794 0.046504 1.420226
v -0.246379 -0.000000 1.414695
v -0.210603 0.140720 1.400000
v -0.234009 0.096930 1.400000
v -0.229101 0.094897 1.392274
v -0.248423 0.049414 1.400000
v 0.090006 0.217294 0.075000
v 0.133775 0.200208 0.076224
v 0.166310 0.166310 0.075000
v -0.091222 0.220229 1.420226
v -0.251519 -0.000000 1.407726
v -0.253290 -0.000000 1.400000
v -0.247977 -0.000000 1.392274
v -0.243212 -0.048378 1.392274
v -0.248423 -0.049414 1.400000
v -0.048378 0.243212 1.392274
v -0.147462 -0.147462 1.379774
v 0.034781 -0.174856 1.376224
v -0.246686 -0.049069 1.407726
v -0.236162 0.046976 0.076224
v -0.217294 0.090006 0.075000
v -0.206185 -0.137769 1.392274
v -0.179103 -0.179103 1.400000
v -0.217106 -0.000000 1.425000
v 0.139736 -0.209130 1.407726
v 0.140720 -0.210603 1.400000
v 0.177851 -0.177851 1.407726
v -0.234009 -0.096930 1.400000
v -0.094897 -0.229101 1.392274
v -0.049414 -0.248423 1.400000
v -0.140720 -0.210603 1.400000
v -0.234009 -0.096930 1.400000
v -0.096252 -0.232373 1.407726
v -0.094285 -0.227625 1.414695
v 0.289474 0.289474 1.425000
v 0.042355 0.212934 1.425000
v -0.289474 0.289474 1.425000
v -0.232373 -0.096252 1.407726
v 0.289474 -0.289474 1.425000
v -0.049414 -0.248423 1.400000
v 0.000000 -0.253290 1.400000
v 0.000000 -0.251519 1.407726
v -0.200208 0.133775 0.076224
v -0.166310 0.166310 0.075000
v -0.132434 -0.198201 1.420226
v -0.091222 -0.220229 1.420226
v -0.096930 -0.234009 1.400000
v 0.198201 -0.132434 1.420226
v 0.168556 -0.168556 1.420226
v 0.204857 -0.136881 1.414695
v -0.048066 -0.241645 1.414695
v 0.227625 -0.094285 1.414695
v 0.000000 -0.247977 1.392274
v 0.049414 -0.248423 1.400000
v 0.248423 -0.049414 1.400000
v 0.042355 -0.212934 1.425000
v 0.120617 -0.180517 1.425000
v -0.045370 -0.228090 1.385305
v -0.164958 -0.053377 0.125000
v -0.167150 -0.069236 0.125000
v -0.133720 -0.055388 1.375000
v 0.210910 -0.087362 1.423777
v 0.153517 -0.153517 1.425000
v 0.000000 -0.246379 1.414695
v 0.229101 -0.094897 1.392274
v 0.210603 -0.140720 1.400000
v 0.096930 -0.234009 1.400000
v 0.049069 -0.246686 1.407726
v 0.094897 -0.229101 1.392274
v -0.083083 -0.200579 1.425000
v -0.120617 -0.180517 1.425000
v 0.214856 -0.088996 1.385305
v -0.042355 0.212934 1.425000
v 0.166310 -0.166310 0.075000
v 0.133775 -0.200208 0.076224
v 0.090006 -0.217294 0.075000
v 0.204536 -0.040685 1.379774
v 0.238374 -0.000000 1.420226
v 0.233794 -0.046504 1.420226
v 0.031475 0.131114 1.375000
v 0.070450 0.114965 1.375000
v 0.212934 -0.042355 1.425000
v 0.167150 -0.069236 0.125000
v 0.164958 -0.053377 0.125000
v 0.133720 -0.055388 1.375000
v -0.289474 -0.289474 1.425000
v -0.042355 -0.212934 1.425000
v 0.000000 -0.217106 1.425000
v 0.053377 -0.164958 0.125000
v 0.069236 -0.167150 0.125000
v 0.055388 -0.133720 1.375000
v 0.236162 -0.046976 0.076224
v 0.217294 -0.090006 0.075000
v 0.235198 -0.000000 0.075000
v -0.289474 0.289474 1.500000
v 0.289474 -0.289474 1.500000
v 0.289474 0.289474 1.500000
v 0.289474 0.289474 1.500000
v 0.289474 -0.289474 1.425000
v 0.289474 0.289474 1.425000
v 0.289474 -0.289474 1.500000
v -0.289474 -0.289474 1.425000
v 0.289474 -0.289474 1.425000
v -0.289474 -0.289474 1.425000
v -0.289474 0.289474 1.500000
v -0.289474 0.289474 1.425000
v 0.289474 0.289474 1.425000
v -0.289474 0.289474 1.500000
v 0.289474 0.289474 1.500000
v 0.289474 0.289474 0.075000
v 0.289474 -0.289474 -0.000000
v 0.289474 0.289474 0.000000
v 0.289474 -0.289474 0.075000
v -0.289474 -0.289474 -0.000000
v 0.289474 -0.289474 -0.000000
v -0.289474 -0.289474 -0.000000
v -0.289474 0.289474 0.075000
v -0.289474 0.289474 0.000000
v 0.289474 0.289474 0.000000
v -0.289474 0.289474 0.075000
v 0.289474 0.289474 0.075000
v 0.111444 -0.131063 0.125000
v 0.102336 -0.102336 1.375000
v 0.078828 -0.108903 1.375000
v 0.233191 -0.096591 0.092275
v 0.227119 -0.094076 0.079775
v 0.245034 -0.048740 0.085305
v 0.230737 -0.095574 0.107725
v 0.248423 -0.049414 0.100000
v 0.000000 -0.144737 1.375000
v -0.021265 -0.132755 1.375000
v -0.013872 -0.171492 0.125000
v 0.234868 -0.046718 0.114695
v 0.206449 -0.085514 0.120225
v 0.199111 -0.133042 0.114695
v -0.199111 -0.133042 0.114695
v -0.169025 -0.112939 0.123776
v -0.206449 -0.085514 0.120225
v 0.219165 0.043595 0.120225
v 0.234867 0.046718 0.114695
v 0.199111 0.133042 0.114695
v 0.140720 0.210603 0.100000
v 0.138801 0.207730 0.085305
v 0.096591 0.233191 0.092275
v 0.252404 -0.000000 0.092275
v 0.245832 -0.000000 0.079775
v 0.236162 0.046975 0.076224
v -0.102336 0.102336 1.375000
v -0.078828 0.108903 1.375000
v -0.111444 0.131063 0.125000
v 0.131114 -0.031475 1.375000
v 0.178477 -0.178477 0.092275
v 0.173830 -0.173830 0.079775
v 0.207730 -0.138801 0.085305
v 0.200208 -0.133775 0.076224
v 0.210603 -0.140720 0.100000
v 0.176599 -0.176599 0.107725
v -0.167150 -0.069236 0.125000
v -0.167150 0.069236 0.125000
v -0.127931 -0.127931 0.125000
v -0.140720 0.210603 0.100000
v -0.138801 0.207730 0.085305
v -0.178477 0.178477 0.092275
v 0.124147 -0.185799 0.120225
v 0.140720 -0.210603 0.100000
v 0.138801 -0.207730 0.085305
v 0.112939 -0.169025 0.123776
v 0.096591 -0.233191 0.092275
v 0.094076 -0.227119 0.079775
v 0.195560 -0.130669 0.075000
v 0.133042 -0.199111 0.114695
v 0.095574 -0.230737 0.107725
v 0.230737 0.095574 0.107725
v 0.046718 -0.234867 0.114695
v 0.049414 -0.248423 0.100000
v 0.048740 -0.245034 0.085305
v -0.077794 -0.187810 0.123776
v 0.000000 -0.223459 0.120225
v 0.000000 -0.252404 0.092275
v 0.000000 -0.245832 0.079775
v 0.046976 -0.236162 0.076224
v 0.000000 -0.235198 0.075000
v -0.046976 -0.236162 0.076224
v 0.000000 -0.249748 0.107725
v -0.046718 -0.234867 0.114695
v -0.049414 -0.248423 0.100000
v -0.095574 -0.230737 0.107725
v -0.048740 -0.245034 0.085305
v -0.094076 -0.227119 0.079775
v 0.167150 -0.069236 0.125000
v 0.133720 -0.055388 1.375000
v 0.154385 -0.078893 0.125000
v -0.124147 -0.185799 0.120225
v -0.133042 -0.199111 0.114695
v -0.091641 -0.221240 0.114695
v -0.096591 -0.233191 0.092275
v -0.210603 -0.140720 0.100000
v -0.207730 -0.138801 0.085305
v -0.178477 -0.178477 0.092275
v -0.133775 -0.200208 0.076224
v -0.138801 -0.207730 0.085305
v -0.173830 -0.173829 0.079775
v -0.094076 0.227119 0.079775
v -0.090006 0.217294 0.075000
v -0.133775 0.200208 0.076224
v -0.045885 -0.230679 0.075000
v -0.230737 -0.095574 0.107725
v -0.140720 -0.210603 0.100000
v -0.176599 -0.176599 0.107725
v -0.169330 -0.169330 0.114695
v 0.039344 -0.163893 0.125000
v 0.088062 -0.143706 0.125000
v -0.233191 -0.096591 0.092275
v -0.200208 -0.133775 0.076224
v -0.248423 -0.049414 0.100000
v -0.245034 -0.048740 0.085305
v -0.248423 0.049414 0.100000
v -0.245034 0.048740 0.085305
v -0.252404 -0.000000 0.092275
v -0.234867 -0.046718 0.114695
v -0.249748 -0.000000 0.107725
v -0.245832 -0.000000 0.079775
v -0.166310 -0.166310 0.075000
v 0.210603 0.140720 0.100000
v 0.207730 0.138801 0.085305
v 0.178477 0.178477 0.092275
v -0.102345 -0.102345 1.375000
v -0.112939 0.169025 0.123776
v -0.219165 0.043595 0.120225
v -0.239469 -0.000000 0.114695
v -0.233191 0.096591 0.092275
v -0.227119 0.094076 0.079775
v -0.210603 0.140720 0.100000
v -0.207730 0.138801 0.085305
v -0.244949 0.048723 0.107725
v -0.046718 0.234867 0.114695
v 0.000000 0.223459 0.120225
v 0.046718 0.234867 0.114695
v 0.143706 0.088062 0.125000
v 0.167149 0.069236 0.125000
v 0.169025 0.112939 0.123776
v -0.230737 0.095574 0.107725
v -0.199111 0.133042 0.114695
v -0.176598 0.176598 0.107725
v -0.173829 0.173830 0.079775
v -0.130669 0.195560 0.075000
v -0.124147 0.185799 0.120225
v 0.000000 0.249748 0.107725
v -0.169330 0.169330 0.114695
v -0.049414 0.248423 0.100000
v -0.048740 0.245034 0.085305
v -0.096591 0.233191 0.092275
v -0.138752 0.207658 0.107725
v -0.095574 0.230737 0.107725
v 0.000000 0.252404 0.092275
v 0.000000 0.245832 0.079775
v -0.046975 0.236162 0.076224
v 0.000000 0.235198 0.075000
v 0.046976 0.236162 0.076224
v 0.045885 0.230678 0.075000
v 0.112939 0.169025 0.123776
v 0.049414 0.248423 0.100000
v 0.048740 0.245034 0.085305
v 0.094076 0.227119 0.079775
v 0.131063 0.111444 0.125000
v 0.102336 0.102336 1.375000
v 0.108903 0.078828 1.375000
v -0.045885 0.230678 0.075000
v 0.095574 0.230737 0.107725
v 0.124147 0.185799 0.120225
v 0.091641 0.221240 0.114695
v 0.026581 0.165944 0.125000
v 0.000000 0.180921 0.125000
v 0.011098 0.137194 1.375000
v 0.133042 0.199111 0.114695
v 0.173829 0.173829 0.079775
v 0.200208 0.133775 0.076224
v 0.176598 0.176598 0.107725
v 0.165944 -0.026581 0.125000
v 0.180921 -0.000000 0.125000
v 0.137194 -0.011098 1.375000
v -0.053377 0.164958 0.125000
v -0.055388 0.133720 1.375000
v -0.031475 0.131114 1.375000
v 0.233191 0.096591 0.092275
v 0.227119 0.094076 0.079775
v 0.230678 0.045885 0.075000
v -0.108903 -0.078828 1.375000
v -0.123508 -0.063115 1.375000
v -0.143706 -0.088062 0.125000
v 0.199378 0.039659 0.123776
v 0.248423 0.049414 0.100000
v 0.245034 0.048740 0.085305
v 0.031475 -0.131114 1.375000
v 0.078893 0.154385 0.125000
v 0.055388 0.133720 1.375000
v 0.070450 0.114965 1.375000
v -0.144737 -0.000000 1.375000
v -0.132755 0.021265 1.375000
v -0.171492 0.013872 0.125000
v 0.102336 -0.102336 1.375000
v 0.133720 -0.055388 1.375000
v 0.249748 -0.000000 0.107725
v -0.131063 -0.111444 0.125000
v -0.131114 -0.031475 1.375000
v -0.055388 -0.133720 1.375000
v -0.070450 -0.114965 1.375000
v -0.078893 -0.154385 0.125000
v -0.154385 0.078893 0.125000
v -0.133720 0.055388 1.375000
v -0.114965 0.070450 1.375000
v 0.102336 -0.102336 1.375000
v 0.127920 -0.127920 0.125000
v 0.104851 -0.089155 1.375000
v 0.000000 -0.144737 1.375000
v 0.000000 -0.180921 0.125000
v 0.011098 -0.137194 1.375000
v -0.133720 0.055388 1.375000
v -0.167150 0.069236 0.125000
v -0.131966 0.042702 1.375000
v -0.102336 0.102336 1.375000
v -0.127920 0.127920 0.125000
v -0.104851 0.089155 1.375000
v 0.127920 0.127920 0.125000
v 0.000000 0.144737 1.375000
v 0.000000 0.180921 0.125000
v -0.011098 0.137194 1.375000
v 0.026581 -0.165944 0.125000
v 0.031475 0.131114 1.375000
v 0.055388 0.133720 1.375000
v 0.053377 0.164958 0.125000
v -0.167150 0.069236 0.125000
v 0.069236 0.167149 0.125000
v -0.055388 -0.133720 1.375000
v -0.069236 -0.167150 0.125000
v -0.042702 -0.131966 1.375000
v 0.167149 0.069236 0.125000
v 0.143706 0.088062 0.125000
v 0.123508 0.063115 1.375000
v -0.069236 -0.167150 0.125000
v 0.102336 0.102336 1.375000
v 0.127920 0.127920 0.125000
v 0.089155 0.104851 1.375000
v -0.133720 -0.055388 1.375000
v -0.167150 -0.069236 0.125000
v -0.102345 -0.102345 1.375000
v -0.127931 -0.127931 0.125000
v -0.089155 -0.104851 1.375000
v -0.098535 -0.136129 0.125000
v -0.180921 -0.000000 0.125000
v -0.055388 0.133720 1.375000
v -0.069236 0.167149 0.125000
v -0.063115 0.123508 1.375000
v -0.127920 0.127920 0.125000
v -0.039344 -0.163893 0.125000
v -0.127931 -0.127931 0.125000
v -0.102345 -0.102345 1.375000
v -0.136129 0.098535 0.125000
v -0.137194 -0.011098 1.375000
v -0.165944 -0.026581 0.125000
v -0.144737 -0.000000 1.375000
v -0.180921 -0.000000 0.125000
v 0.055388 -0.133720 1.375000
v 0.069236 -0.167150 0.125000
v 0.063115 -0.123508 1.375000
v 0.098535 0.136129 0.125000
v -0.088062 0.143706 0.125000
v 0.000000 -0.180921 0.125000
v -0.163893 0.039344 0.125000
v 0.144737 -0.000000 1.375000
v 0.180921 -0.000000 0.125000
v 0.137194 0.011098 1.375000
v 0.114965 -0.070450 1.375000
v 0.136129 -0.098535 0.125000
v -0.026581 0.165944 0.125000
v -0.069236 0.167149 0.125000
v 0.165944 0.026581 0.125000
v 0.131114 0.031475 1.375000
v 0.127920 -0.127920 0.125000
v 0.133720 0.055388 1.375000
v 0.069236 0.167149 0.125000
v 0.088062 -0.143706 0.125000
v 0.000000 0.144737 1.375000
v 0.144737 -0.000000 1.375000
v 0.164958 0.053377 0.125000
v 0.167149 0.069236 0.125000
v 0.133720 0.055388 1.375000
v -0.090006 -0.217294 0.075000
v 0.217294 0.090006 0.075000
v -0.153517 -0.153517 1.425000
v -0.200579 -0.083083 1.425000
v 0.045885 -0.230679 0.075000
v -0.131063 0.111444 0.125000
v -0.111444 0.131063 0.125000
v 0.120617 0.180517 1.425000
v 0.153517 0.153517 1.425000
v -0.083083 0.200579 1.425000
v -0.120617 0.180517 1.425000
v 0.180517 0.120617 1.425000
v 0.200580 0.083083 1.425000
v -0.153517 0.153517 1.425000
v -0.180517 0.120617 1.425000
v 0.212934 0.042355 1.425000
v 0.217106 -0.000000 1.425000
v -0.200579 0.083083 1.425000
v -0.212934 0.042355 1.425000
v 0.212934 -0.042355 1.425000
v -0.217106 -0.000000 1.425000
v 0.200579 -0.083083 1.425000
v 0.180517 -0.120617 1.425000
v -0.212934 -0.042355 1.425000
v -0.200579 -0.083083 1.425000
v 0.153517 -0.153517 1.425000
v 0.120617 -0.180517 1.425000
v -0.180517 -0.120617 1.425000
v -0.153517 -0.153517 1.425000
v 0.083083 -0.200579 1.425000
v 0.042355 -0.212934 1.425000
v -0.120617 -0.180517 1.425000
v -0.083083 -0.200579 1.425000
v -0.120617 0.180517 1.425000
v 0.120617 0.180517 1.425000
v 0.217106 -0.000000 1.425000
v 0.212934 0.042355 1.425000
v 0.153517 0.153517 1.425000
v -0.212934 -0.042355 1.425000
v -0.212934 0.042355 1.425000
v -0.200579 0.083083 1.425000
v -0.180517 0.120617 1.425000
v 0.200579 -0.083083 1.425000
v 0.180517 -0.120617 1.425000
v 0.000000 -0.217106 1.425000
v -0.042355 -0.212934 1.425000
v -0.289474 -0.289474 1.500000
v 0.289474 -0.289474 1.500000
v -0.289474 -0.289474 1.500000
v -0.289474 -0.289474 1.500000
v -0.289474 0.289474 1.425000
v 0.289474 -0.289474 0.075000
v -0.289474 -0.289474 0.075000
v -0.289474 -0.289474 0.075000
v -0.289474 0.289474 0.000000
v 0.000000 -0.180921 0.125000
v -0.013872 -0.171492 0.125000
v -0.026581 -0.165944 0.125000
v -0.039344 -0.163893 0.125000
v -0.069236 -0.167150 0.125000
v -0.088062 -0.143706 0.125000
v -0.098535 -0.136129 0.125000
v -0.111444 -0.131063 0.125000
v -0.131063 -0.111444 0.125000
v -0.143706 -0.088062 0.125000
v -0.136129 -0.098535 0.125000
v -0.171492 -0.013872 0.125000
v -0.180921 -0.000000 0.125000
v -0.165944 -0.026581 0.125000
v -0.163893 -0.039344 0.125000
v -0.171492 0.013872 0.125000
v -0.163893 0.039344 0.125000
v -0.165944 0.026581 0.125000
v -0.143706 0.088062 0.125000
v -0.136129 0.098535 0.125000
v 0.026581 -0.165944 0.125000
v 0.013872 -0.171492 0.125000
v -0.130669 -0.195560 0.075000
v -0.195560 -0.130669 0.075000
v -0.098535 0.136129 0.125000
v -0.088062 0.143706 0.125000
v -0.069236 0.167149 0.125000
v -0.039344 0.163893 0.125000
v 0.000000 0.180921 0.125000
v -0.026581 0.165944 0.125000
v -0.013872 0.171492 0.125000
v 0.013872 0.171492 0.125000
v 0.039344 0.163893 0.125000
v 0.026581 0.165944 0.125000
v 0.069236 0.167149 0.125000
v 0.088062 0.143706 0.125000
v 0.098535 0.136129 0.125000
v 0.111444 0.131063 0.125000
v 0.127920 0.127920 0.125000
v 0.131063 0.111444 0.125000
v 0.136129 0.098535 0.125000
v 0.163893 0.039344 0.125000
v 0.165944 0.026581 0.125000
v 0.171492 0.013872 0.125000
v 0.180921 -0.000000 0.125000
v 0.171492 -0.013872 0.125000
v 0.163893 -0.039344 0.125000
v 0.165944 -0.026581 0.125000
v 0.167150 -0.069236 0.125000
v 0.143706 -0.088062 0.125000
v 0.127920 -0.127920 0.125000
v 0.136129 -0.098535 0.125000
v 0.131063 -0.111444 0.125000
v 0.111444 -0.131063 0.125000
v 0.098535 -0.136129 0.125000
v 0.104851 -0.089155 1.375000
v 0.114965 -0.070450 1.375000
v 0.108903 -0.078828 1.375000
v 0.131114 -0.031475 1.375000
v 0.144737 -0.000000 1.375000
v 0.132755 -0.021265 1.375000
v 0.137194 -0.011098 1.375000
v 0.137194 0.011098 1.375000
v 0.132755 0.021265 1.375000
v 0.131114 0.031475 1.375000
v 0.133720 0.055388 1.375000
v 0.114965 0.070450 1.375000
v 0.102336 0.102336 1.375000
v 0.108903 0.078828 1.375000
v 0.104851 0.089155 1.375000
v 0.089155 0.104851 1.375000
v 0.078828 0.108903 1.375000
v -0.089155 -0.104851 1.375000
v -0.078828 -0.108903 1.375000
v -0.070450 -0.114965 1.375000
v -0.055388 -0.133720 1.375000
v -0.031475 -0.131114 1.375000
v 0.000000 -0.144737 1.375000
v 0.078828 -0.108903 1.375000
v 0.089155 -0.104851 1.375000
v 0.070450 -0.114965 1.375000
v 0.055388 -0.133720 1.375000
v 0.021265 -0.132755 1.375000
v 0.031475 -0.131114 1.375000
v 0.011098 -0.137194 1.375000
v -0.021265 -0.132755 1.375000
v -0.011098 -0.137194 1.375000
v 0.011098 0.137194 1.375000
v 0.000000 0.144737 1.375000
v -0.011098 0.137194 1.375000
v 0.021265 0.132755 1.375000
v -0.021265 0.132755 1.375000
v -0.031475 0.131114 1.375000
v -0.055388 0.133720 1.375000
v -0.070450 0.114965 1.375000
v -0.078828 0.108903 1.375000
v -0.108903 -0.078828 1.375000
v -0.089155 0.104851 1.375000
v -0.102336 0.102336 1.375000
v -0.104851 0.089155 1.375000
v -0.108903 0.078828 1.375000
v -0.114965 0.070450 1.375000
v -0.133720 0.055388 1.375000
v -0.131114 0.031475 1.375000
v -0.132755 0.021265 1.375000
v -0.137194 0.011098 1.375000
v -0.144737 -0.000000 1.375000
v -0.137194 -0.011098 1.375000
v -0.132755 -0.021265 1.375000
v -0.131114 -0.031475 1.375000
v -0.133720 -0.055388 1.375000
v -0.114965 -0.070450 1.375000
v -0.104851 -0.089155 1.375000
vt 0.2708 0.1383
vt 0.2338 0.1277
vt 0.4215 0.0789
vt 0.0004 0.5017
vt 0.1561 0.4402
vt 0.1946 0.4529
vt 0.3873 0.3014
vt 0.3748 0.2352
vt 0.3522 0.1986
vt 0.3296 0.1741
vt 0.1632 0.1230
vt 0.0031 0.0760
vt 0.1872 0.1210
vt 0.3022 0.1534
vt 0.0947 0.1461
vt 0.0749 0.1623
vt 0.0587 0.1825
vt 0.4215 0.4996
vt 0.3807 0.3447
vt 0.0471 0.2061
vt 0.0392 0.2351
vt 0.3720 0.3749
vt 0.3596 0.3997
vt 0.0330 0.2784
vt 0.3426 0.4210
vt 0.3219 0.4381
vt 0.0400 0.3194
vt 0.0520 0.3514
vt 0.2985 0.4504
vt 0.2738 0.4583
vt 0.0691 0.3785
vt 0.0928 0.4026
vt 0.2399 0.4606
vt 0.1224 0.4237
vt 0.5000 0.4482
vt 0.5313 0.4628
vt 0.4375 0.4628
vt 0.7188 0.4325
vt 0.7188 0.4166
vt 0.7500 0.4325
vt 0.8125 0.3609
vt 0.8750 0.3609
vt 0.8437 0.3814
vt 0.2812 0.6680
vt 0.2500 0.6565
vt 0.2812 0.6565
vt 0.6563 0.3999
vt 0.6875 0.3999
vt 0.6875 0.4166
vt 0.5938 0.3388
vt 0.5000 0.3609
vt 0.4688 0.3388
vt 0.5625 0.4325
vt 0.5313 0.4325
vt 0.0313 0.4325
vt 0.0313 0.4166
vt 0.0625 0.4166
vt 0.5625 0.3999
vt 0.5625 0.3609
vt 0.5938 0.3814
vt 0.7500 0.3609
vt 0.7500 0.3999
vt 0.7188 0.3814
vt 0.7500 0.3999
vt 0.8125 0.3388
vt 0.7500 0.3126
vt 0.9062 0.3126
vt 0.7500 0.4628
vt 0.7812 0.4482
vt 0.0938 0.4482
vt 0.0938 0.4751
vt 0.0313 0.4628
vt 0.8125 0.4482
vt 0.9062 0.4482
vt 0.9062 0.4325
vt 0.9375 0.4325
vt 0.8125 0.4325
vt 0.8437 0.3999
vt 0.8750 0.3999
vt 0.8750 0.4166
vt 0.6250 0.4166
vt 0.6250 0.3999
vt 0.2813 0.4482
vt 0.2813 0.4325
vt 0.3125 0.4325
vt 0.8125 0.4166
vt 0.8437 0.4325
vt 0.8750 0.4482
vt 0.8437 0.4628
vt 0.7812 0.3814
vt 0.8125 0.3999
vt 0.9062 0.4166
vt 0.3125 0.6565
vt 0.3125 0.6808
vt 0.0938 0.4166
vt 0.0938 0.4325
vt 0.8750 0.3999
vt 0.9062 0.3814
vt 0.9688 0.4166
vt 0.9688 0.4482
vt 0.0313 0.4751
vt 1.0000 0.4751
vt 0.9375 0.4628
vt 0.9688 0.4751
vt 0.9062 0.4751
vt 0.3438 0.4325
vt 0.3438 0.4166
vt 0.3750 0.4166
vt 1.0000 0.4325
vt 0.0000 0.3999
vt 0.9375 0.3999
vt 1.0000 0.3999
vt 0.0625 0.3999
vt 0.0625 0.3609
vt 0.0938 0.3814
vt 0.8125 0.3999
vt 0.7812 0.4166
vt 0.1250 0.3609
vt 0.8125 0.4751
vt 0.7812 0.4751
vt 0.9688 0.3814
vt 0.9375 0.3999
vt 0.1563 0.4628
vt 0.2500 0.4482
vt 0.3125 0.4628
vt 0.9688 0.3609
vt 0.9688 0.3388
vt 0.0313 0.3609
vt 0.1250 0.4325
vt 0.1563 0.4482
vt 0.0000 0.4325
vt 0.0313 0.3814
vt 0.0000 0.3999
vt 0.1250 0.3999
vt 0.1563 0.3388
vt 0.2188 0.3388
vt 0.2188 0.3609
vt 0.0625 0.3388
vt 0.0313 0.3999
vt 0.3125 0.3999
vt 0.3438 0.3999
vt 0.0625 0.4482
vt 0.0625 0.3999
vt 0.2813 0.3609
vt 0.3750 0.3609
vt 0.3438 0.3814
vt 0.2500 0.3126
vt 0.1563 0.4325
vt 0.1563 0.4166
vt 0.1875 0.4166
vt 0.9062 0.3609
vt 0.2188 0.4482
vt 0.1875 0.4482
vt 0.2188 0.4325
vt 0.1250 0.3999
vt 0.1563 0.3999
vt 0.1563 0.3814
vt 0.1875 0.3999
vt 0.9375 0.6565
vt 0.9062 0.6680
vt 0.8750 0.6565
vt 0.0313 0.4482
vt 0.2188 0.4166
vt 0.2188 0.3999
vt 0.2188 0.3814
vt 0.2500 0.3814
vt 0.2500 0.3999
vt 1.0000 0.3814
vt 0.3438 0.3388
vt 0.5000 0.3126
vt 0.2500 0.4166
vt 0.2188 0.6680
vt 0.1875 0.6565
vt 0.3125 0.3814
vt 0.3438 0.3999
vt 0.2188 0.4751
vt 0.5625 0.4166
vt 0.5625 0.3999
vt 0.5938 0.4166
vt 0.2813 0.3999
vt 0.4063 0.3814
vt 0.4375 0.3999
vt 0.3750 0.3999
vt 0.2813 0.3999
vt 0.4063 0.4166
vt 0.4063 0.4325
vt 0.4871 0.0013
vt 0.3530 0.0783
vt 0.0732 0.0000
vt 0.2813 0.4166
vt 0.4863 0.4369
vt 0.3816 0.0902
vt 0.4375 0.3999
vt 0.4688 0.3999
vt 0.4688 0.4166
vt 0.1562 0.6680
vt 0.1250 0.6565
vt 0.3750 0.4482
vt 0.4063 0.4482
vt 0.4063 0.3999
vt 0.6250 0.4482
vt 0.5938 0.4482
vt 0.6250 0.4325
vt 0.4375 0.4325
vt 0.6563 0.4325
vt 0.4688 0.3814
vt 0.5000 0.3999
vt 0.6875 0.3999
vt 0.5000 0.4751
vt 0.5625 0.4751
vt 0.4375 0.3609
vt 0.2870 0.0000
vt 0.2997 0.0000
vt 0.2997 1.0000
vt 0.6563 0.4628
vt 0.5938 0.4751
vt 0.4688 0.4325
vt 0.6563 0.3814
vt 0.6250 0.3999
vt 0.5313 0.3999
vt 0.5000 0.4166
vt 0.5313 0.3814
vt 0.4063 0.4751
vt 0.3750 0.4751
vt 0.6563 0.3609
vt 0.2718 0.0696
vt 0.6250 0.6565
vt 0.5938 0.6680
vt 0.5625 0.6565
vt 0.6875 0.3388
vt 0.7188 0.4482
vt 0.6875 0.4482
vt 0.9313 0.2710
vt 0.8813 0.2710
vt 1.0000 0.3999
vt 0.6875 0.4751
vt 0.6747 0.0000
vt 0.6873 0.0000
vt 0.6747 1.0000
vt 0.0768 0.4369
vt 0.2528 0.3872
vt 0.2911 0.3938
vt 0.5370 0.0000
vt 0.5497 0.0000
vt 0.5497 1.0000
vt 0.7188 0.6680
vt 0.6875 0.6565
vt 0.7500 0.6565
vt 0.0768 0.9232
vt 0.4863 0.5137
vt 0.4863 0.9232
vt 0.4863 0.9232
vt 0.5631 0.5137
vt 0.5631 0.9232
vt 0.4863 0.5137
vt 0.0768 0.4369
vt 0.4863 0.4369
vt 0.0000 0.5137
vt 0.0768 0.9232
vt 0.0000 0.9232
vt 0.4863 1.0000
vt 0.0768 0.9232
vt 0.4863 0.9232
vt 0.9211 0.5785
vt 0.5004 0.4996
vt 0.9211 0.4996
vt 0.4215 0.4996
vt 0.5004 0.0789
vt 0.5004 0.4996
vt 0.5004 0.0789
vt 0.9211 0.0000
vt 0.9211 0.0789
vt 0.9211 0.4996
vt 1.0000 0.0789
vt 1.0000 0.4996
vt 0.5993 0.0000
vt 0.6122 1.0000
vt 0.5869 1.0000
vt 0.6875 0.7054
vt 0.6875 0.6808
vt 0.7188 0.6931
vt 0.6875 0.7311
vt 0.7188 0.7187
vt 0.4872 1.0000
vt 0.4619 1.0000
vt 0.4743 0.0000
vt 0.7188 0.7448
vt 0.6875 0.7586
vt 0.6562 0.7448
vt 0.3438 0.7448
vt 0.3438 0.7733
vt 0.3125 0.7586
vt 0.7812 0.7586
vt 0.7812 0.7448
vt 0.8437 0.7448
vt 0.9062 0.7187
vt 0.9062 0.6931
vt 0.9375 0.7054
vt 0.7500 0.7054
vt 0.7500 0.6808
vt 0.7812 0.6680
vt 0.1122 1.0000
vt 0.0869 1.0000
vt 0.0993 0.0000
vt 0.6997 1.0000
vt 0.6250 0.7054
vt 0.6250 0.6808
vt 0.6562 0.6931
vt 0.6562 0.6680
vt 0.6562 0.7187
vt 0.6250 0.7311
vt 0.3125 0.7893
vt 0.1875 0.7893
vt 0.3750 0.7893
vt 0.0938 0.7187
vt 0.0938 0.6931
vt 0.1250 0.7054
vt 0.5938 0.7586
vt 0.5938 0.7187
vt 0.5938 0.6931
vt 0.5938 0.7733
vt 0.5625 0.7054
vt 0.5625 0.6808
vt 0.6562 0.6565
vt 0.5938 0.7448
vt 0.5625 0.7311
vt 0.8125 0.7311
vt 0.5312 0.7448
vt 0.5312 0.7187
vt 0.5312 0.6931
vt 0.4375 0.7733
vt 0.5000 0.7586
vt 0.5000 0.7054
vt 0.5000 0.6808
vt 0.5312 0.6680
vt 0.5000 0.6565
vt 0.4688 0.6680
vt 0.5000 0.7311
vt 0.4688 0.7448
vt 0.4688 0.7187
vt 0.4375 0.7311
vt 0.4688 0.6931
vt 0.4375 0.6808
vt 0.6747 0.0000
vt 0.6747 1.0000
vt 0.6620 0.0000
vt 0.4062 0.7586
vt 0.4062 0.7448
vt 0.4375 0.7448
vt 0.4375 0.7054
vt 0.3438 0.7187
vt 0.3438 0.6931
vt 0.3750 0.7054
vt 0.4062 0.6680
vt 0.4062 0.6931
vt 0.3750 0.6808
vt 0.0625 0.6808
vt 0.0625 0.6565
vt 0.0937 0.6680
vt 0.4688 0.6565
vt 0.3125 0.7311
vt 0.4062 0.7187
vt 0.3750 0.7311
vt 0.3750 0.7448
vt 0.5375 0.7973
vt 0.5875 0.7973
vt 0.3125 0.7054
vt 0.3438 0.6680
vt 0.2812 0.7187
vt 0.2812 0.6931
vt 0.2188 0.7187
vt 0.2188 0.6931
vt 0.2500 0.7054
vt 0.2812 0.7448
vt 0.2500 0.7311
vt 0.2500 0.6808
vt 0.3750 0.6565
vt 0.8437 0.7187
vt 0.8437 0.6931
vt 0.8750 0.7054
vt 0.3438 0.2819
vt 0.0938 0.7733
vt 0.2188 0.7586
vt 0.2500 0.7448
vt 0.1875 0.7054
vt 0.1875 0.6808
vt 0.1562 0.7187
vt 0.1562 0.6931
vt 0.2188 0.7311
vt 1.0312 0.7448
vt 1.0000 0.7586
vt 0.9687 0.7448
vt 0.8375 0.7973
vt 0.8125 0.7893
vt 0.8437 0.7733
vt 0.1875 0.7311
vt 0.1562 0.7448
vt 0.1250 0.7311
vt 0.1250 0.6808
vt 0.0937 0.6565
vt 0.0938 0.7586
vt 1.0000 0.7311
vt 0.1250 0.7448
vt 1.0312 0.7187
vt 0.0312 0.6931
vt 0.0625 0.7054
vt 0.0312 0.7187
vt 0.0938 0.7311
vt 0.0625 0.7311
vt 0.0000 0.7586
vt 1.0000 0.7054
vt 1.0000 0.6808
vt 1.0312 0.6931
vt 0.0312 0.6680
vt 1.0000 0.6565
vt 1.0312 0.6680
vt 0.9687 0.6680
vt 0.9687 0.6565
vt 0.0312 0.7448
vt 0.9062 0.7733
vt 0.9687 0.7187
vt 0.9687 0.6931
vt 0.9375 0.6808
vt 0.8493 0.0000
vt 0.8622 1.0000
vt 0.8369 1.0000
vt 0.0312 0.6565
vt 0.9375 0.7311
vt 0.9062 0.7586
vt 0.9375 0.7448
vt 0.9619 0.0000
vt 0.9872 0.0000
vt 0.9743 1.0000
vt 0.9062 0.7448
vt 0.8750 0.6808
vt 0.8437 0.6680
vt 0.8750 0.7311
vt 0.7119 0.0000
vt 0.7372 0.0000
vt 0.7243 1.0000
vt 0.0370 0.0000
vt 0.0497 1.0000
vt 0.0247 1.0000
vt 0.8125 0.7054
vt 0.8125 0.6808
vt 0.7812 0.6565
vt 0.3369 1.0000
vt 0.3123 1.0000
vt 0.3247 0.0000
vt 0.7812 0.7733
vt 0.7812 0.7187
vt 0.7812 0.6931
vt 0.5247 1.0000
vt 0.9120 0.0000
vt 0.9247 1.0000
vt 0.8997 1.0000
vt 0.2372 1.0000
vt 0.2119 1.0000
vt 0.2243 0.0000
vt 0.5938 0.2819
vt 0.6563 0.2819
vt 0.7500 0.7311
vt 0.3493 0.0000
vt 0.2747 1.0000
vt 0.4247 1.0000
vt 0.3997 1.0000
vt 0.4120 0.0000
vt 0.1620 0.0000
vt 0.1747 1.0000
vt 0.1497 1.0000
vt 0.6122 1.0000
vt 0.6122 0.0000
vt 0.6250 1.0000
vt 0.4872 1.0000
vt 0.4872 0.0000
vt 0.5000 1.0000
vt 0.1747 1.0000
vt 0.1747 0.0000
vt 0.1873 1.0000
vt 0.1122 1.0000
vt 0.1122 0.0000
vt 0.1250 1.0000
vt 0.8622 0.0000
vt 0.9872 1.0000
vt 0.9872 0.0000
vt 1.0000 1.0000
vt 0.5124 0.0000
vt 0.9497 1.0000
vt 0.9247 1.0000
vt 0.9373 0.0000
vt 0.1747 0.0000
vt 0.9247 0.0000
vt 0.4247 1.0000
vt 0.4247 0.0000
vt 0.4373 1.0000
vt 0.7997 0.0000
vt 0.8247 0.0000
vt 0.8123 1.0000
vt 0.4247 0.0000
vt 0.8622 1.0000
vt 0.8622 0.0000
vt 0.8750 1.0000
vt 0.2997 1.0000
vt 0.2997 0.0000
vt 0.3622 1.0000
vt 0.3622 0.0000
vt 0.3750 1.0000
vt 0.3874 0.0000
vt 0.2372 0.0000
vt 0.0497 1.0000
vt 0.0497 0.0000
vt 0.0623 1.0000
vt 0.1122 0.0000
vt 0.4497 0.0000
vt 0.3622 0.0000
vt 0.3622 1.0000
vt 0.1374 0.0000
vt 0.2500 1.0000
vt 0.2624 0.0000
vt 0.2372 1.0000
vt 0.2372 0.0000
vt 0.5497 1.0000
vt 0.5497 0.0000
vt 0.5623 1.0000
vt 0.8874 0.0000
vt 0.0747 0.0000
vt 0.4872 0.0000
vt 0.1997 0.0000
vt 0.7372 1.0000
vt 0.7372 0.0000
vt 0.7500 1.0000
vt 0.6497 1.0000
vt 0.6374 0.0000
vt 0.0124 0.0000
vt 0.0497 0.0000
vt 0.7624 0.0000
vt 0.7747 1.0000
vt 0.6122 0.0000
vt -0.0000 1.0000
vt 0.7997 1.0000
vt 0.9247 0.0000
vt 0.5747 0.0000
vt 0.9872 1.0000
vt 0.7372 1.0000
vt 0.7870 0.0000
vt 0.7997 0.0000
vt 0.7997 1.0000
vt 0.4375 0.6565
vt 0.8125 0.6565
vt 0.0000 0.3814
vt 0.3438 0.4751
vt 0.2813 0.4751
vt 0.5312 0.6565
vt 0.1378 0.7945
vt 0.1122 0.7945
vt 0.4042 0.1047
vt 0.4230 0.1231
vt 0.2406 0.0767
vt 0.2146 0.0881
vt 0.4376 0.1447
vt 0.4475 0.1685
vt 0.1912 0.1045
vt 0.1715 0.1254
vt 0.4534 0.1944
vt 0.4528 0.2298
vt 0.1562 0.1500
vt 0.1441 0.1802
vt 0.4430 0.2774
vt 0.1345 0.2197
vt 0.4349 0.3074
vt 0.4227 0.3292
vt 0.1398 0.2608
vt 0.1485 0.2926
vt 0.4058 0.3498
vt 0.3854 0.3664
vt 0.1608 0.3192
vt 0.1778 0.3426
vt 0.3620 0.3783
vt 0.3332 0.3869
vt 0.1988 0.3619
vt 0.2230 0.3764
vt 0.0625 0.4751
vt 0.8750 0.4751
vt 0.7188 0.4751
vt 0.7500 0.4751
vt 0.8437 0.4751
vt 0.2500 0.4751
vt 0.1875 0.4751
vt 0.1563 0.4751
vt 0.1250 0.4751
vt 0.6563 0.4751
vt 0.6250 0.4751
vt 0.4688 0.4751
vt 0.4375 0.4751
vt 0.0768 0.5137
vt 0.4863 0.5137
vt 0.0768 0.5137
vt 0.0768 0.5137
vt 0.0768 1.0000
vt 0.5004 0.5785
vt 0.4215 0.0789
vt 0.5004 0.0000
vt 0.9211 0.0789
vt 0.5000 0.7893
vt 0.4872 0.7945
vt 0.4747 0.7973
vt 0.4625 0.7973
vt 0.4375 0.7893
vt 0.4125 0.7973
vt 0.4003 0.7973
vt 0.3878 0.7945
vt 0.3622 0.7945
vt 0.3375 0.7973
vt 0.3497 0.7973
vt 0.2628 0.7945
vt 0.2500 0.7893
vt 0.2753 0.7973
vt 0.2875 0.7973
vt 0.2372 0.7945
vt 0.2125 0.7973
vt 0.2247 0.7973
vt 0.1625 0.7973
vt 0.1503 0.7973
vt 0.5253 0.7973
vt 0.5128 0.7945
vt 0.4062 0.6565
vt 0.3437 0.6565
vt 0.0997 0.7973
vt 0.0875 0.7973
vt 0.0625 0.7893
vt 0.0375 0.7973
vt 1.0000 0.7893
vt 0.0253 0.7973
vt 1.0128 0.7945
vt 0.9872 0.7945
vt 0.9625 0.7973
vt 0.9747 0.7973
vt 0.9375 0.7893
vt 0.9125 0.7973
vt 0.9003 0.7973
vt 0.8878 0.7945
vt 0.8750 0.7893
vt 0.8622 0.7945
vt 0.8497 0.7973
vt 0.7875 0.7973
vt 0.7753 0.7973
vt 0.7628 0.7945
vt 0.7500 0.7893
vt 0.7372 0.7945
vt 0.7125 0.7973
vt 0.7247 0.7973
vt 0.6875 0.7893
vt 0.6625 0.7973
vt 0.6250 0.7893
vt 0.6503 0.7973
vt 0.6378 0.7945
vt 0.6122 0.7945
vt 0.5997 0.7973
vt 0.6066 0.2747
vt 0.6313 0.2710
vt 0.6190 0.2710
vt 0.6813 0.2710
vt 0.7187 0.2819
vt 0.6935 0.2710
vt 0.7059 0.2747
vt 0.7316 0.2747
vt 0.7440 0.2710
vt 0.7562 0.2710
vt 0.7812 0.2819
vt 0.8062 0.2710
vt 0.8437 0.2819
vt 0.8185 0.2710
vt 0.8309 0.2747
vt 0.8566 0.2747
vt 0.8690 0.2710
vt 0.3566 0.2747
vt 0.3690 0.2710
vt 0.3813 0.2710
vt 0.4063 0.2819
vt 0.4313 0.2710
vt 0.4688 0.2819
vt 0.5685 0.2710
vt 0.5809 0.2747
vt 0.5562 0.2710
vt 0.5313 0.2819
vt 0.4940 0.2710
vt 0.5062 0.2710
vt 0.4816 0.2747
vt 0.4435 0.2710
vt 0.4559 0.2747
vt 0.9559 0.2747
vt 0.9687 0.2819
vt -0.0184 0.2747
vt 0.9435 0.2710
vt -0.0060 0.2710
vt 0.0062 0.2710
vt 0.0312 0.2819
vt 0.0562 0.2710
vt 0.0685 0.2710
vt 0.3185 0.2710
vt 0.0809 0.2747
vt 0.0938 0.2819
vt 0.1066 0.2747
vt 0.1190 0.2710
vt 0.1313 0.2710
vt 0.1563 0.2819
vt 0.1813 0.2710
vt 0.1935 0.2710
vt 0.2059 0.2747
vt 0.2188 0.2819
vt 0.2316 0.2747
vt 0.2440 0.2710
vt 0.2562 0.2710
vt 0.2813 0.2819
vt 0.3062 0.2710
vt 0.3309 0.2747
vn 0.0000 -0.0000 1.0000
vn 0.0831 -0.4579 0.8851
vn 0.1141 -0.2526 0.9608
vn -0.0494 -0.2838 0.9576
vn 0.7012 -0.0019 0.7129
vn 0.9885 0.0021 0.1511
vn 0.7102 0.1433 0.6893
vn 0.3274 0.2187 -0.9192
vn 0.1967 0.2952 -0.9350
vn 0.5639 0.5639 -0.6033
vn -0.4785 -0.0945 -0.8730
vn -0.7407 0.0008 -0.6718
vn -0.2097 -0.0417 -0.9769
vn 0.8445 -0.3498 0.4055
vn 0.9632 -0.1866 0.1932
vn 0.8605 -0.1731 0.4792
vn 0.1306 -0.1172 -0.9845
vn 0.0800 -0.3622 -0.9287
vn -0.0051 -0.1714 -0.9852
vn 0.3520 -0.5294 0.7719
vn 0.2797 -0.6650 0.6925
vn -0.2701 0.6472 0.7129
vn -0.3469 0.8423 0.4125
vn -0.4877 0.7298 0.4791
vn 0.3582 -0.5361 -0.7643
vn 0.2009 -0.3114 -0.9288
vn 0.5621 -0.5501 -0.6176
vn 0.3581 0.0679 -0.9312
vn 0.6324 0.1258 -0.7643
vn 0.7799 -0.0089 -0.6259
vn 0.9185 0.1827 0.3507
vn 0.1317 0.0898 -0.9872
vn 0.1303 0.0231 -0.9912
vn 0.0375 0.0900 -0.9952
vn 0.2783 0.0556 0.9589
vn 0.4282 0.1828 0.8850
vn -0.2907 0.2872 0.9127
vn -0.1587 0.1570 0.9748
vn -0.0815 0.2184 0.9724
vn 0.3361 0.2187 0.9161
vn 0.1569 0.3689 0.9161
vn 0.2701 0.6472 0.7129
vn 0.1366 0.6966 0.7043
vn 0.5841 0.3880 0.7129
vn 0.6464 0.6464 0.4055
vn 0.5410 0.8185 0.1933
vn 0.4892 0.7288 0.4792
vn 0.7584 -0.5046 0.4126
vn 0.8131 -0.5492 0.1933
vn -0.3723 -0.1489 0.9161
vn -0.6486 -0.2666 0.7129
vn -0.5966 -0.4058 0.6924
vn 0.7564 0.5076 0.4126
vn 0.5109 0.5137 0.6893
vn 0.2545 0.3899 0.8850
vn 0.2006 0.2006 0.9589
vn 0.7368 0.3052 -0.6033
vn 0.5361 0.3582 -0.7643
vn 0.3764 0.9141 0.1511
vn -0.3657 -0.1515 -0.9183
vn -0.6434 -0.2665 -0.7177
vn -0.7004 0.6975 0.1511
vn -0.4945 0.4972 0.7129
vn 0.3582 0.5361 -0.7643
vn 0.3050 0.7537 -0.5822
vn 0.0000 0.9745 0.2243
vn -0.0064 0.4653 0.8852
vn -0.0416 0.1004 0.9941
vn -0.0438 0.4280 0.9027
vn 0.0623 0.3134 0.9476
vn -0.0387 0.4173 0.9080
vn 0.1955 0.3707 0.9079
vn -0.4506 -0.4485 0.7719
vn -0.6454 -0.6428 0.4125
vn -0.5414 -0.8103 0.2242
vn -0.1366 0.6966 0.7043
vn -0.1757 0.9087 0.3786
vn 0.1827 0.9185 0.3507
vn -0.3582 0.5361 -0.7643
vn -0.2263 0.3261 -0.9178
vn -0.5639 0.5639 -0.6033
vn 0.8185 0.5410 0.1933
vn 0.9012 0.3710 0.2243
vn -0.3143 0.2125 -0.9253
vn 0.3787 0.2043 0.9027
vn 0.3803 0.2015 0.9026
vn 0.0130 0.8133 -0.5817
vn 0.1309 0.6580 -0.7415
vn -0.1864 0.0838 0.9789
vn -0.4190 -0.0795 0.9045
vn -0.2260 -0.1592 0.9610
vn 0.0099 0.3246 -0.9458
vn -0.0038 0.1529 -0.9882
vn -0.1092 0.2845 -0.9524
vn -0.5903 0.3944 0.7042
vn -0.4180 0.1827 0.8899
vn -0.3184 0.7521 -0.5771
vn -0.1665 0.8371 -0.5212
vn -0.5361 0.3582 -0.7643
vn -0.1642 0.0632 -0.9844
vn -0.1679 0.0011 -0.9858
vn -0.3243 0.0114 -0.9459
vn -0.0798 0.1113 -0.9906
vn -0.3730 0.9005 0.2234
vn -0.7600 -0.5078 0.4055
vn -0.6903 -0.6973 0.1932
vn -0.2646 0.3834 0.8849
vn -0.5492 0.8131 0.1933
vn -0.3404 -0.1453 -0.9290
vn -0.1944 -0.2977 -0.9346
vn -0.4300 -0.4232 -0.7975
vn -0.0820 -0.0193 -0.9964
vn -0.6486 0.2666 0.7129
vn -0.8409 0.3503 0.4125
vn -0.9558 0.1901 0.2242
vn 0.1067 0.2821 -0.9534
vn -0.3606 -0.0037 0.9327
vn -0.4582 0.0840 0.8849
vn -0.7011 0.0000 0.7130
vn -0.7668 0.5183 0.3786
vn -0.9083 0.3709 0.1932
vn -0.7298 0.2932 -0.6176
vn -0.6580 0.1309 -0.7415
vn 0.2841 0.6838 -0.6720
vn 0.2508 0.3754 -0.8923
vn 0.5135 0.5135 -0.6875
vn -0.1664 0.4247 0.8899
vn -0.9110 -0.0000 0.4125
vn -0.9867 -0.0000 0.1625
vn -0.8133 0.0130 -0.5817
vn -0.6130 -0.1278 -0.7797
vn -0.8236 -0.1587 -0.5445
vn -0.1223 0.6147 -0.7792
vn -0.1504 -0.1397 -0.9787
vn 0.0329 -0.1044 -0.9940
vn -0.9558 -0.1901 0.2242
vn -0.4428 0.0881 -0.8923
vn -0.6707 0.2778 -0.6878
vn -0.6461 -0.4371 -0.6257
vn -0.5967 -0.5895 -0.5445
vn -0.0550 -0.0082 -0.9985
vn 0.5046 -0.7584 0.4126
vn 0.5492 -0.8131 0.1933
vn 0.6891 -0.6891 0.2242
vn -0.5788 -0.2454 -0.7777
vn -0.3044 -0.7373 -0.6032
vn -0.1258 -0.6324 -0.7643
vn -0.3594 -0.5471 -0.7560
vn -0.9083 -0.3709 0.1932
vn -0.3469 -0.8423 0.4125
vn -0.2701 -0.6472 0.7129
vn -0.0319 0.0039 -0.9995
vn 0.0000 0.0000 -1.0000
vn -0.8409 -0.3503 0.4125
vn -0.1783 -0.8965 0.4055
vn 0.0049 -0.9811 0.1932
vn -0.0018 -0.9109 0.4126
vn -0.3754 0.2508 -0.8923
vn -0.5243 0.5233 -0.6718
vn -0.2468 -0.3642 0.8980
vn -0.1580 -0.3686 0.9161
vn -0.3800 -0.9046 0.1932
vn 0.3307 -0.2268 0.9161
vn 0.3090 -0.3131 0.8980
vn 0.5820 -0.3912 0.7129
vn -0.1349 -0.7088 0.6924
vn 0.6701 -0.2754 0.6893
vn 0.0000 -0.7975 -0.6033
vn 0.1258 -0.6324 -0.7643
vn 0.6580 -0.1309 -0.7415
vn 0.0434 -0.4167 0.9080
vn 0.2639 -0.3253 0.9080
vn -0.0800 -0.3622 -0.9287
vn -0.9983 0.0511 0.0264
vn -0.9903 0.1369 0.0250
vn -0.9938 0.1085 0.0250
vn 0.2614 -0.1104 0.9589
vn 0.1458 -0.1458 -0.9785
vn -0.0015 -0.6357 0.7719
vn 0.7480 -0.3098 -0.5869
vn 0.5578 -0.3727 -0.7415
vn 0.3496 -0.8570 0.3786
vn 0.1922 -0.9554 0.2243
vn 0.3052 -0.7368 -0.6033
vn -0.3008 -0.4556 -0.8378
vn -0.0424 -0.0773 -0.9961
vn 0.2902 -0.1230 -0.9490
vn 0.5231 -0.5242 -0.6720
vn 0.2508 -0.3754 -0.8923
vn 0.2841 -0.6838 -0.6720
vn 0.1961 -0.0304 -0.9801
vn 0.4010 -0.0049 0.9161
vn 0.4696 -0.0884 0.8784
vn -0.0639 0.0487 0.9968
vn 0.0157 0.0253 -0.9996
vn 0.2122 -0.0251 0.9769
vn 0.9903 0.1369 0.0250
vn 0.9983 0.0511 0.0264
vn 0.9938 0.1085 0.0250
vn -0.0511 -0.9983 0.0264
vn -0.1369 -0.9903 0.0250
vn -0.1085 -0.9938 0.0250
vn 0.4428 -0.0881 -0.8923
vn 0.6844 -0.2827 -0.6720
vn 0.7407 -0.0008 -0.6718
vn 1.0000 0.0000 0.0000
vn 0.0000 -1.0000 0.0000
vn -1.0000 0.0000 0.0000
vn 0.0000 1.0000 0.0000
vn 0.3341 -0.9422 0.0262
vn 0.2683 -0.9630 0.0241
vn 0.4889 -0.8719 0.0255
vn 0.9119 -0.3777 -0.1607
vn 0.6230 -0.2581 -0.7384
vn 0.8616 -0.1714 -0.4777
vn 0.7432 -0.3078 0.5941
vn 0.9519 -0.1893 0.2409
vn -0.4914 -0.8706 0.0241
vn -0.2710 -0.9622 0.0255
vn -0.4301 -0.9024 0.0262
vn 0.4907 -0.0909 0.8666
vn 0.2353 -0.0975 0.9670
vn 0.4113 -0.2827 0.8666
vn -0.4200 -0.2844 0.8618
vn -0.1122 -0.0748 0.9909
vn -0.2504 -0.0937 0.9636
vn 0.2526 0.0472 0.9664
vn 0.5202 0.1035 0.8478
vn 0.4174 0.2789 0.8649
vn 0.5392 0.8070 0.2409
vn 0.4881 0.7305 -0.4777
vn 0.3777 0.9119 -0.1607
vn 0.9870 0.0000 -0.1607
vn 0.6743 0.0000 -0.7384
vn 0.4783 0.0951 -0.8730
vn -0.2683 0.9630 0.0241
vn -0.4889 0.8719 0.0255
vn -0.3341 0.9422 0.0262
vn 0.9955 -0.0907 0.0258
vn 0.6979 -0.6979 -0.1607
vn 0.4768 -0.4768 -0.7384
vn 0.7305 -0.4881 -0.4777
vn 0.4055 -0.2709 -0.8730
vn 0.8070 -0.5392 0.2409
vn 0.5688 -0.5688 0.5941
vn -0.0228 -0.0005 -0.9997
vn -0.0421 -0.0417 0.9982
vn -0.5526 0.8270 0.1031
vn -0.4881 0.7305 -0.4777
vn -0.6979 0.6979 -0.1607
vn 0.1413 -0.2115 0.9671
vn 0.5392 -0.8070 0.2409
vn 0.4881 -0.7305 -0.4777
vn 0.0655 -0.0987 0.9930
vn 0.3777 -0.9119 -0.1607
vn 0.2581 -0.6230 -0.7384
vn 0.1775 -0.1188 -0.9769
vn 0.2947 -0.4410 0.8478
vn 0.3078 -0.7432 0.5941
vn 0.7432 0.3078 0.5941
vn 0.1040 -0.4881 0.8666
vn 0.1893 -0.9519 0.2409
vn 0.1714 -0.8616 -0.4777
vn -0.0523 -0.1598 0.9858
vn 0.0023 -0.2596 0.9657
vn 0.0000 -0.9870 -0.1607
vn 0.0000 -0.6964 -0.7176
vn 0.0958 -0.4783 -0.8730
vn -0.0000 -0.3959 -0.9183
vn -0.0952 -0.4784 -0.8729
vn 0.0000 -0.8057 0.5923
vn -0.1008 -0.4890 0.8664
vn -0.1893 -0.9519 0.2409
vn -0.3214 -0.7759 0.5429
vn -0.1714 -0.8616 -0.4777
vn -0.2665 -0.6434 -0.7177
vn 0.6031 -0.7972 0.0250
vn 0.6258 -0.7796 0.0250
vn 0.6696 -0.7423 0.0264
vn -0.1327 -0.1947 0.9719
vn -0.2995 -0.4482 0.8423
vn -0.1512 -0.3841 0.9108
vn -0.3777 -0.9119 -0.1607
vn -0.8070 -0.5392 0.2409
vn -0.7305 -0.4881 -0.4777
vn -0.6979 -0.6979 -0.1607
vn -0.2715 -0.4052 -0.8730
vn -0.4881 -0.7305 -0.4777
vn -0.4768 -0.4768 -0.7384
vn -0.2665 0.6434 -0.7177
vn -0.1515 0.3657 -0.9183
vn -0.2715 0.4052 -0.8730
vn -0.0417 -0.2098 -0.9769
vn -0.7444 -0.3083 0.5923
vn -0.5392 -0.8070 0.2409
vn -0.5938 -0.5938 0.5429
vn -0.2969 -0.2867 0.9109
vn 0.0114 -0.0912 0.9958
vn 0.0168 -0.0318 0.9994
vn -0.9119 -0.3777 -0.1607
vn -0.4052 -0.2715 -0.8730
vn -0.9519 -0.1893 0.2409
vn -0.8616 -0.1714 -0.4777
vn -0.9756 0.1941 0.1030
vn -0.8616 0.1714 -0.4777
vn -0.9870 0.0000 -0.1607
vn -0.4904 -0.0940 0.8664
vn -0.8400 -0.0039 0.5426
vn -0.6743 -0.0000 -0.7384
vn -0.5343 -0.5343 -0.6551
vn 0.8070 0.5392 0.2409
vn 0.7305 0.4881 -0.4777
vn 0.6979 0.6979 -0.1607
vn -0.0380 -0.0468 -0.9982
vn -0.0736 0.0965 0.9926
vn -0.2408 0.0587 0.9688
vn -0.4123 -0.0034 0.9111
vn -0.9119 0.3777 -0.1607
vn -0.6230 0.2581 -0.7384
vn -0.8070 0.5392 0.2409
vn -0.7305 0.4881 -0.4777
vn -0.7109 0.1495 0.6872
vn -0.1048 0.4878 0.8666
vn 0.0000 0.2547 0.9670
vn 0.1006 0.4890 0.8665
vn 0.0249 0.0238 0.9994
vn 0.0462 0.0191 0.9987
vn 0.1255 0.0840 0.9885
vn -0.7345 0.3016 0.6078
vn -0.3977 0.2605 0.8797
vn -0.5967 0.5911 0.5427
vn -0.4768 0.4768 -0.7384
vn -0.1188 0.1774 -0.9769
vn -0.1580 0.2462 0.9562
vn -0.0000 0.8044 0.5941
vn -0.2939 0.2891 0.9111
vn -0.1893 0.9519 0.2409
vn -0.1714 0.8616 -0.4777
vn -0.3777 0.9119 -0.1607
vn -0.3970 0.6084 0.6872
vn -0.3061 0.7327 0.6078
vn -0.0000 0.9870 -0.1607
vn -0.0000 0.6964 -0.7176
vn -0.0952 0.4784 -0.8730
vn -0.0000 0.3959 -0.9183
vn 0.0958 0.4783 -0.8730
vn 0.0417 0.2097 -0.9769
vn 0.0587 0.1029 0.9930
vn 0.1893 0.9519 0.2409
vn 0.1714 0.8616 -0.4777
vn 0.2581 0.6230 -0.7384
vn 0.9422 0.3341 0.0262
vn 0.9630 0.2683 0.0241
vn 0.8719 0.4889 0.0255
vn -0.0417 0.2097 -0.9769
vn 0.3214 0.7759 0.5429
vn 0.1432 0.2074 0.9677
vn 0.1512 0.3841 0.9108
vn 0.2719 0.9619 0.0277
vn 0.4912 0.8706 0.0261
vn 0.4285 0.9032 0.0251
vn 0.3048 0.4394 0.8450
vn 0.4768 0.4768 -0.7384
vn 0.3754 0.2508 -0.8923
vn 0.5688 0.5688 0.5941
vn 0.9619 -0.2719 0.0277
vn 0.8706 -0.4912 0.0261
vn 0.9032 -0.4285 0.0251
vn 0.0511 0.9983 0.0264
vn 0.1085 0.9938 0.0250
vn -0.0907 0.9955 0.0258
vn 0.9119 0.3777 -0.1607
vn 0.6230 0.2581 -0.7384
vn 0.2097 0.0417 -0.9769
vn -0.8721 -0.4887 0.0255
vn -0.6704 -0.7416 0.0253
vn -0.7673 -0.6407 0.0274
vn 0.1175 0.0147 0.9930
vn 0.9519 0.1893 0.2409
vn 0.8616 0.1714 -0.4777
vn 0.0907 -0.9955 0.0258
vn 0.7423 0.6696 0.0264
vn 0.7796 0.6258 0.0250
vn 0.6400 0.7680 0.0258
vn -0.8706 0.4914 0.0241
vn -0.9622 0.2710 0.0255
vn -0.9024 0.4301 0.0262
vn 0.1010 -0.0704 0.9924
vn 0.0944 -0.0604 0.9937
vn 0.8044 0.0000 0.5941
vn -0.9423 -0.3338 0.0262
vn -0.9955 -0.0907 0.0258
vn -0.7796 -0.6258 0.0250
vn -0.6400 -0.7680 0.0258
vn -0.7423 -0.6696 0.0264
vn -0.6696 0.7423 0.0264
vn -0.6258 0.7796 0.0250
vn -0.7680 0.6400 0.0258
vn 0.9820 -0.1874 0.0239
vn 0.9630 -0.2684 0.0261
vn 0.9416 -0.3359 0.0251
vn 0.5620 -0.8268 0.0239
vn 0.4912 -0.8706 0.0261
vn 0.4285 -0.9032 0.0251
vn -0.9903 -0.1369 0.0250
vn -0.9938 -0.1085 0.0257
vn -0.9984 -0.0501 0.0253
vn -0.9820 0.1874 0.0239
vn -0.9630 0.2684 0.0261
vn -0.9416 0.3359 0.0251
vn 0.9820 0.1873 0.0239
vn -0.5620 0.8268 0.0239
vn -0.4912 0.8706 0.0261
vn -0.4285 0.9032 0.0251
vn 0.2719 -0.9619 0.0277
vn 0.0907 0.9955 0.0258
vn -0.1085 0.9938 0.0250
vn -0.0511 0.9983 0.0264
vn -0.6031 0.7972 0.0250
vn -0.1368 0.9903 0.0250
vn 0.1369 -0.9903 0.0250
vn 0.1085 -0.9938 0.0257
vn 0.0501 -0.9984 0.0253
vn 0.6258 0.7796 0.0257
vn 0.7673 0.6407 0.0274
vn 0.6704 0.7416 0.0253
vn -0.7972 -0.6031 0.0250
vn 0.1874 0.9820 0.0239
vn 0.2684 0.9630 0.0261
vn 0.3359 0.9416 0.0251
vn -0.6032 -0.7972 0.0250
vn -0.6258 -0.7796 0.0257
vn -0.1866 -0.9821 0.0239
vn -0.2680 -0.9631 0.0261
vn -0.3355 -0.9417 0.0251
vn -0.4879 -0.8725 0.0277
vn -0.8268 0.5620 0.0239
vn -0.7972 0.6032 0.0250
vn -0.7796 0.6258 0.0257
vn -0.7416 0.6704 0.0253
vn -0.1873 0.9820 0.0239
vn -0.0898 -0.9956 0.0274
vn -0.9821 -0.1866 0.0239
vn -0.9632 -0.2678 0.0241
vn -0.8724 0.4881 0.0277
vn -0.9032 -0.4285 0.0251
vn -0.9619 -0.2719 0.0277
vn -0.8268 -0.5620 0.0239
vn -0.8706 -0.4912 0.0261
vn 0.7972 -0.6032 0.0250
vn 0.7796 -0.6258 0.0257
vn 0.7416 -0.6704 0.0253
vn 0.4881 0.8724 0.0277
vn -0.6407 0.7673 0.0274
vn -0.5620 -0.8268 0.0239
vn -0.9956 0.0898 0.0274
vn 0.8268 0.5620 0.0239
vn 0.8706 0.4912 0.0261
vn 0.9032 0.4285 0.0251
vn 0.7680 -0.6400 0.0258
vn 0.8724 -0.4881 0.0277
vn -0.2719 0.9619 0.0277
vn 0.1368 0.9903 0.0250
vn 0.9619 0.2719 0.0277
vn 0.9955 0.0907 0.0258
vn 0.1873 -0.9820 0.0239
vn 0.6032 0.7972 0.0250
vn 0.7972 0.6032 0.0250
vn 0.6407 -0.7673 0.0274
vn 0.5620 0.8268 0.0239
vn 0.8268 -0.5620 0.0239
vn 0.9983 -0.0511 0.0264
vn 0.9903 -0.1368 0.0250
vn 0.9938 -0.1085 0.0250
vn -0.1515 -0.3657 -0.9183
vn 0.6839 0.2841 -0.6720
vn -0.2677 -0.3224 0.9080
vn -0.2035 -0.0249 -0.9788
vn 0.0417 -0.2098 -0.9769
vn -0.0345 0.0301 0.9990
vn -0.0245 0.0313 0.9992
vn -0.2717 0.3336 0.9027
vn 0.2043 0.3788 0.9027
vn 0.4284 -0.0406 0.9027
vn 0.1066 0.0212 0.9941
vn 0.0769 0.0769 0.9941
vn 0.1005 -0.0416 0.9941
vn 0.3336 -0.2717 0.9027
vn 0.0406 -0.4285 0.9027
vn -0.0212 -0.1066 0.9941
vn 0.0237 -0.0733 -0.9970
vn -0.0135 -0.0221 0.9997
vn -0.0110 -0.0302 0.9995
vn -0.0045 -0.0440 0.9990
vn -0.0209 -0.0505 0.9985
vn -0.0279 -0.0342 0.9990
vn -0.0136 -0.0291 0.9995
vn -0.0061 -0.0252 0.9997
vn -0.1188 -0.1778 -0.9769
vn -0.1775 -0.1188 -0.9769
vn -0.0162 0.0301 0.9994
vn -0.0238 0.0249 0.9994
vn -0.0066 0.4256 0.9049
vn -0.0092 0.0573 -0.9983
vn 0.0222 0.0855 0.9961
vn 0.0238 0.0249 0.9994
vn 0.0162 0.0301 0.9994
vn 0.0088 0.0319 0.9995
vn 0.0336 0.0336 0.9989
vn 0.0319 0.0088 0.9995
vn 0.0301 0.0162 0.9994
vn 0.0345 0.0008 0.9994
vn 0.0327 0.0098 0.9994
vn 0.0287 0.0164 0.9995
vn 0.0835 -0.0110 0.9964
vn 0.0450 -0.0277 -0.9986
vn 0.3718 -0.1616 0.9141
vn 0.0088 -0.0319 0.9995
vn 0.0162 -0.0301 0.9994
vn 0.0001 0.0000 -1.0000
vn 0.0388 -0.0017 -0.9992
vn 0.0241 0.0134 -0.9996
vn 0.0265 0.0078 -0.9996
vn 0.0279 0.0008 -0.9996
vn 0.0366 0.0180 -0.9992
vn 0.0497 0.0442 -0.9978
vn 0.0057 0.0224 -0.9997
vn 0.0117 0.0241 -0.9996
vn -0.0067 -0.0273 -0.9996
vn -0.0400 -0.0512 0.9979
vn -0.0017 -0.0388 -0.9992
vn 0.0180 -0.0366 -0.9992
vn 0.0078 -0.0265 -0.9996
vn 0.0008 -0.0279 -0.9996
vn 0.0134 -0.0241 -0.9996
vn 0.0001 0.0000 1.0000
vn -0.0001 0.0000 1.0000
s off
f 1/1/1 2/2/1 3/3/1
f 4/4/1 5/5/1 6/6/1
f 3/3/1 7/7/1 8/8/1
f 3/3/1 8/8/1 9/9/1
f 3/3/1 9/9/1 10/10/1
f 11/11/1 12/12/1 13/13/1
f 13/13/1 12/12/1 3/3/1
f 3/3/1 10/10/1 14/14/1
f 3/3/1 14/14/1 1/1/1
f 2/2/1 13/13/1 3/3/1
f 12/12/1 15/15/1 16/16/1
f 12/12/1 16/16/1 17/17/1
f 7/7/1 3/3/1 18/18/1
f 19/19/1 7/7/1 18/18/1
f 12/12/1 17/17/1 20/20/1
f 12/12/1 20/20/1 21/21/1
f 22/22/1 19/19/1 18/18/1
f 23/23/1 22/22/1 18/18/1
f 4/4/1 12/12/1 24/24/1
f 12/12/1 21/21/1 24/24/1
f 25/25/1 23/23/1 18/18/1
f 26/26/1 25/25/1 18/18/1
f 4/4/1 24/24/1 27/27/1
f 4/4/1 27/27/1 28/28/1
f 29/29/1 26/26/1 18/18/1
f 30/30/1 29/29/1 18/18/1
f 4/4/1 28/28/1 31/31/1
f 4/4/1 31/31/1 32/32/1
f 30/30/1 18/18/1 33/33/1
f 33/33/1 18/18/1 4/4/1
f 4/4/1 32/32/1 34/34/1
f 4/4/1 34/34/1 5/5/1
f 6/6/1 33/33/1 4/4/1
f 15/15/1 12/12/1 11/11/1
s 1
f 35/35/2 36/36/3 37/37/4
f 38/38/5 39/39/6 40/40/7
f 41/41/8 42/42/9 43/43/10
f 44/44/11 45/45/12 46/46/13
f 47/47/14 48/48/15 49/49/16
f 50/50/17 51/51/18 52/52/19
f 53/53/20 36/36/3 54/54/21
f 55/55/22 56/56/23 57/57/24
f 58/58/25 59/59/26 60/60/27
f 61/61/28 62/62/29 63/63/30
f 64/64/31 40/40/7 39/39/6
f 65/65/32 66/66/33 67/67/34
f 68/68/35 40/40/7 69/69/36
f 70/70/37 71/71/38 72/72/39
f 69/69/36 73/73/40 68/68/35
f 74/74/41 75/75/42 76/76/43
f 73/73/40 69/69/36 77/77/44
f 78/78/45 79/79/46 80/80/47
f 81/81/48 82/82/49 47/47/14
f 83/83/50 84/84/51 85/85/52
f 77/77/44 86/86/53 87/87/54
f 78/78/45 87/87/54 86/86/53
f 74/74/41 88/88/55 75/75/42
f 89/89/56 87/87/54 88/88/55
f 61/61/28 41/41/8 90/90/57
f 90/90/57 91/91/58 62/62/29
f 80/80/47 92/92/59 75/75/42
f 88/88/55 80/80/47 75/75/42
f 93/93/60 94/94/61 44/44/11
f 57/57/24 95/95/62 96/96/63
f 97/97/64 42/42/9 98/98/65
f 65/65/32 42/42/9 41/41/8
f 99/99/66 100/100/67 76/76/43
f 72/72/39 101/101/68 102/102/69
f 103/103/70 104/104/71 105/105/72
f 106/106/73 107/107/74 108/108/75
f 109/109/76 110/110/77 56/56/23
f 76/76/43 111/111/78 99/99/66
f 88/88/55 74/74/41 89/89/56
f 110/112/77 99/99/66 111/111/78
f 112/113/79 113/114/80 114/115/81
f 115/116/82 116/117/83 64/64/31
f 113/114/80 117/118/84 114/115/81
f 68/68/35 118/119/85 119/120/86
f 98/98/65 120/121/87 121/122/88
f 75/75/42 92/92/59 76/76/43
f 122/123/89 123/124/90 124/125/91
f 125/126/92 126/127/93 127/128/94
f 128/129/95 129/130/96 70/70/37
f 55/55/22 109/131/76 56/56/23
f 130/132/97 112/113/79 131/133/98
f 74/74/41 100/100/67 103/103/70
f 80/80/47 79/79/46 92/92/59
f 114/115/81 132/134/99 112/113/79
f 133/135/100 134/136/101 135/137/102
f 126/127/93 136/138/103 127/128/94
f 110/110/77 137/139/104 56/56/23
f 86/86/53 116/117/83 115/116/82
f 138/140/105 139/141/106 107/107/74
f 140/142/107 57/57/24 96/96/63
f 130/132/97 127/128/94 113/114/80
f 56/56/23 141/143/108 57/57/24
f 142/144/109 143/145/110 144/146/111
f 67/67/34 145/147/112 136/138/103
f 146/148/113 147/149/114 148/150/115
f 142/144/109 135/137/102 134/136/101
f 67/67/34 149/151/116 65/65/32
f 150/152/117 151/153/118 152/154/119
f 153/155/120 154/156/121 147/149/114
f 155/157/122 156/158/123 132/134/99
f 157/159/124 158/160/125 159/161/126
f 70/70/37 96/96/63 128/129/95
f 100/100/67 72/72/39 103/103/70
f 146/148/113 128/129/95 147/149/114
f 128/129/95 153/155/120 147/149/114
f 140/142/107 72/72/39 160/162/127
f 132/134/99 117/118/84 155/157/122
f 129/130/96 146/148/113 151/153/118
f 161/163/128 148/150/115 162/164/129
f 155/157/122 133/135/100 135/137/102
f 163/165/130 164/166/131 165/167/132
f 96/96/63 95/95/62 128/129/95
f 42/42/9 149/151/116 98/98/65
f 151/153/118 148/150/115 152/154/119
f 147/149/114 154/156/121 148/150/115
f 135/137/102 163/165/130 155/157/122
f 151/153/118 122/123/89 129/130/96
f 127/128/94 166/168/133 125/126/92
f 127/128/94 136/138/103 113/114/80
f 167/169/134 168/170/135 52/52/19
f 152/154/119 161/163/128 169/171/136
f 163/165/130 165/167/132 156/158/123
f 154/156/121 162/164/129 148/150/115
f 45/45/12 170/172/137 171/173/138
f 172/174/139 144/146/111 173/175/140
f 123/124/90 169/171/136 84/84/51
f 161/163/128 162/164/129 169/171/136
f 145/147/112 133/135/100 136/138/103
f 122/123/89 174/176/141 71/71/38
f 175/177/142 176/178/143 177/179/144
f 142/144/109 178/180/145 164/166/131
f 179/181/146 180/182/147 181/183/148
f 162/164/129 182/184/149 169/171/136
f 108/108/75 183/185/150 184/186/151
f 185/187/152 186/188/153 187/189/153
f 188/190/154 182/184/149 138/140/105
f 85/85/52 138/140/105 107/107/74
f 189/191/153 185/192/152 187/189/153
f 190/193/155 191/194/156 192/195/157
f 148/150/115 161/163/128 152/154/119
f 82/82/49 177/179/144 176/178/143
f 193/196/158 194/197/159 171/173/138
f 144/146/111 143/145/110 179/181/146
f 172/174/139 142/144/109 144/146/111
f 106/106/73 85/85/52 107/107/74
f 129/130/96 122/123/89 70/70/37
f 195/198/160 196/199/161 37/37/4
f 183/185/150 108/108/75 197/200/162
f 107/107/74 139/141/106 108/108/75
f 198/201/163 199/202/164 200/203/165
f 142/144/109 167/169/134 143/145/110
f 91/91/58 41/41/8 43/43/10
f 49/49/16 48/48/15 39/39/6
f 37/37/4 196/199/161 201/204/166
f 200/203/165 81/81/48 202/205/167
f 173/175/140 144/146/111 181/183/148
f 139/141/106 197/200/162 108/108/75
f 203/206/168 204/207/169 180/182/147
f 205/208/170 63/63/30 62/62/29
f 183/185/150 197/200/162 190/193/155
f 201/204/166 190/193/155 192/195/157
f 206/209/171 36/36/3 207/210/172
f 180/182/147 208/211/173 203/206/168
f 196/199/161 184/186/151 201/204/166
f 209/212/174 210/213/175 211/214/176
f 145/147/112 142/144/109 134/136/101
f 106/106/73 124/125/91 85/85/52
f 52/52/19 51/51/18 208/211/173
f 36/36/3 212/215/177 213/216/178
f 143/145/110 52/52/19 208/211/173
f 214/217/179 201/204/166 192/195/157
f 215/218/180 216/219/181 60/60/27
f 217/220/182 54/54/21 218/221/183
f 192/195/157 191/194/156 218/221/183
f 208/211/173 51/51/18 203/206/168
f 204/207/169 51/51/18 219/222/184
f 124/125/91 83/83/50 85/85/52
f 195/198/160 108/108/75 184/186/151
f 98/98/65 121/122/88 97/97/64
f 50/50/17 60/60/27 59/59/26
f 220/223/185 221/224/186 124/125/91
f 191/194/156 217/220/182 218/221/183
f 198/201/163 200/203/165 202/205/167
f 214/217/179 192/195/157 218/221/183
f 222/225/187 215/218/180 60/60/27
f 223/226/153 187/189/153 186/188/153
f 35/35/2 54/54/21 36/36/3
f 51/51/18 59/59/26 219/222/184
f 224/227/188 225/228/189 226/229/190
f 53/53/20 54/54/21 175/177/142
f 205/208/170 215/218/180 63/63/30
f 81/81/48 177/179/144 82/82/49
f 177/179/144 81/81/48 200/203/165
f 177/179/144 199/202/164 53/53/20
f 168/170/135 66/66/33 227/230/191
f 150/152/117 152/154/119 123/124/90
f 202/205/167 212/215/177 198/201/163
f 36/36/3 199/202/164 212/215/177
f 53/53/20 175/177/142 177/179/144
f 222/225/187 50/50/17 227/230/191
f 227/230/191 65/65/32 61/61/28
f 160/162/127 55/55/22 140/142/107
f 48/48/15 64/64/31 39/39/6
f 47/47/14 202/205/167 81/81/48
f 49/49/16 39/39/6 38/38/5
f 228/231/192 229/232/193 38/38/5
f 230/233/194 67/67/34 231/234/195
f 60/60/27 216/219/181 58/58/25
f 120/121/87 166/168/133 131/235/98
f 229/232/193 49/49/16 38/38/5
f 199/202/164 198/201/163 212/215/177
f 227/230/191 61/61/28 222/225/187
f 232/236/196 229/232/193 68/68/35
f 233/237/197 234/238/198 235/239/199
f 50/50/17 168/170/135 227/230/191
f 236/240/153 237/241/153 238/242/153
f 239/243/200 240/244/201 241/245/202
f 242/246/203 243/247/204 244/248/205
f 245/249/1 246/250/1 247/251/1
f 248/252/206 249/253/206 250/254/206
f 251/255/207 252/256/207 253/257/207
f 254/258/208 255/259/208 256/260/208
f 257/261/209 258/262/209 259/263/209
f 260/264/206 261/265/206 262/266/206
f 263/267/207 264/268/207 265/269/207
f 266/270/208 267/271/208 268/272/208
f 269/273/209 270/274/209 271/275/209
f 272/276/210 273/277/211 274/278/212
f 275/279/213 276/280/214 277/281/215
f 278/282/216 275/279/213 279/283/217
f 280/284/218 281/285/219 282/286/220
f 283/287/221 284/288/222 285/289/223
f 286/290/224 287/291/225 288/292/226
f 289/293/227 290/294/228 291/295/229
f 111/111/78 92/92/59 79/79/46
f 292/296/230 293/297/231 294/298/232
f 279/283/217 283/287/221 278/282/216
f 289/293/227 284/288/222 283/287/221
f 279/283/217 277/281/215 295/299/233
f 277/281/215 242/246/203 296/300/234
f 297/301/235 296/300/234 242/246/203
f 298/302/236 299/303/237 300/304/238
f 235/239/199 234/238/198 301/305/239
f 302/306/240 303/307/241 304/308/242
f 305/309/243 304/308/242 303/307/241
f 276/280/214 305/309/243 242/246/203
f 306/310/244 285/289/223 307/311/245
f 308/312/153 309/313/246 310/314/247
f 311/315/248 312/316/249 313/317/250
f 284/288/222 314/318/251 285/289/223
f 315/319/252 316/320/253 302/306/240
f 307/311/245 302/306/240 306/310/244
f 317/321/254 314/318/251 284/288/222
f 318/322/255 319/323/256 316/320/253
f 225/228/189 316/320/253 319/323/256
f 303/307/241 225/228/189 305/309/243
f 305/309/243 224/227/188 320/324/257
f 315/319/252 321/325/258 322/326/259
f 323/327/260 291/295/229 290/294/228
f 321/325/258 324/328/261 322/326/259
f 325/329/262 326/330/263 318/322/255
f 322/326/259 318/322/255 315/319/252
f 321/325/258 314/318/251 324/328/261
f 317/321/254 327/331/264 328/332/265
f 329/333/266 330/334/267 326/330/263
f 331/335/268 326/330/263 330/334/267
f 319/323/256 331/335/268 225/228/189
f 332/336/269 330/334/267 333/337/270
f 325/329/262 324/328/261 334/338/271
f 314/318/251 317/321/254 328/332/265
f 334/338/271 328/332/265 335/339/272
f 314/318/251 328/332/265 324/328/261
f 336/340/273 335/339/272 337/341/274
f 334/338/271 329/333/266 325/329/262
f 333/337/270 338/342/275 339/343/276
f 340/344/277 341/345/278 342/346/279
f 196/199/161 195/198/160 184/186/151
f 343/347/280 344/348/281 345/349/282
f 345/349/282 328/332/265 343/347/280
f 335/339/272 345/349/282 337/341/274
f 337/341/274 346/350/283 336/340/273
f 335/339/272 328/332/265 345/349/282
f 347/351/284 348/352/285 349/353/286
f 350/354/287 351/355/288 352/356/289
f 353/357/290 354/358/291 355/359/292
f 333/337/270 356/360/293 332/336/269
f 347/351/284 286/290/224 357/361/294
f 358/362/295 344/348/281 359/363/296
f 345/349/282 344/348/281 337/341/274
f 344/348/281 360/364/297 359/363/296
f 359/363/296 349/353/286 358/362/295
f 327/331/264 343/347/280 328/332/265
f 361/365/298 317/321/254 362/366/299
f 363/367/300 94/94/61 348/352/285
f 364/368/301 348/352/285 94/94/61
f 352/356/289 364/368/301 350/354/287
f 343/347/280 360/364/297 344/348/281
f 365/369/302 366/370/303 363/367/300
f 367/371/304 368/372/305 369/373/306
f 357/361/294 288/292/226 370/374/307
f 360/364/297 286/290/224 359/363/296
f 365/369/302 370/374/307 371/375/308
f 357/361/294 363/367/300 347/351/284
f 44/44/11 366/370/303 372/376/309
f 350/354/287 364/368/301 373/377/310
f 374/378/311 375/379/312 376/380/313
f 377/381/314 167/169/134 145/147/112
f 287/291/225 378/382/315 379/383/316
f 380/384/317 288/292/226 379/383/316
f 370/374/307 380/384/317 371/375/308
f 371/375/308 369/373/306 365/369/302
f 370/374/307 288/292/226 380/384/317
f 288/292/226 287/291/225 379/383/316
f 314/318/251 321/325/258 285/289/223
f 381/385/318 382/386/319 368/372/305
f 170/172/137 368/372/305 382/386/319
f 372/376/309 170/172/137 44/44/11
f 170/172/137 193/196/158 171/173/138
f 383/387/320 384/388/321 381/385/318
f 371/375/308 385/389/322 367/371/304
f 386/390/323 387/391/324 388/392/325
f 389/393/326 390/394/327 391/395/328
f 392/396/329 381/385/318 367/371/304
f 371/375/308 380/384/317 385/389/322
f 367/371/304 385/389/322 392/396/329
f 383/387/320 393/397/330 394/398/331
f 313/317/250 395/399/332 384/388/321
f 193/196/158 384/388/321 395/399/332
f 382/386/319 193/196/158 170/172/137
f 355/359/292 396/400/333 194/197/159
f 379/383/316 392/396/329 385/389/322
f 378/382/315 397/401/334 379/383/316
f 386/390/323 388/392/325 398/402/335
f 379/383/316 397/401/334 393/397/330
f 393/397/330 399/403/336 394/398/331
f 394/398/331 313/317/250 383/387/320
f 400/404/337 401/405/338 402/406/339
f 400/407/337 386/390/323 398/402/335
f 402/406/339 353/357/290 312/316/249
f 355/359/292 312/316/249 353/357/290
f 395/399/332 355/359/292 193/196/158
f 311/315/248 403/408/340 404/409/341
f 385/389/322 380/384/317 379/383/316
f 116/117/83 69/69/36 40/40/7
f 403/408/340 399/403/336 397/401/334
f 404/409/341 402/406/339 311/315/248
f 394/398/331 399/403/336 403/408/340
f 393/397/330 397/401/334 399/403/336
f 397/401/334 378/382/315 387/410/324
f 369/373/306 372/376/309 366/370/303
f 397/401/334 404/409/341 403/408/340
f 349/353/286 352/356/289 351/355/288
f 405/411/342 406/412/343 401/413/338
f 407/414/344 401/413/338 406/412/343
f 406/412/343 408/415/345 407/416/344
f 409/417/346 157/159/124 410/418/347
f 394/398/331 403/408/340 311/315/248
f 397/401/334 387/391/324 386/419/323
f 411/420/348 387/410/324 378/382/315
f 412/421/349 413/422/350 405/411/342
f 398/402/335 405/411/342 400/404/337
f 294/298/232 414/423/351 413/422/350
f 409/417/346 413/422/350 414/423/351
f 415/424/352 416/425/353 417/426/354
f 407/416/344 418/427/355 354/358/291
f 412/421/349 388/392/325 419/428/356
f 283/287/221 285/289/223 278/282/216
f 321/325/258 307/311/245 285/289/223
f 420/429/357 421/430/358 388/392/325
f 387/391/324 420/429/357 388/392/325
f 388/392/325 421/430/358 419/428/356
f 419/428/356 294/298/232 412/421/349
f 422/431/359 423/432/360 424/433/361
f 425/434/362 420/429/357 291/295/229
f 376/380/313 426/435/363 293/297/231
f 158/160/125 293/297/231 426/435/363
f 414/423/351 158/160/125 409/417/346
f 158/160/125 427/436/364 159/161/126
f 291/295/229 391/395/328 289/293/227
f 292/296/230 425/434/362 428/437/365
f 428/437/365 425/434/362 291/295/229
f 429/438/366 430/439/367 431/440/368
f 421/430/358 425/434/362 419/428/356
f 432/441/369 433/442/370 434/443/371
f 428/437/365 376/380/313 292/296/230
f 290/294/228 289/293/227 283/287/221
f 435/444/372 436/445/373 375/379/312
f 427/436/364 375/379/312 436/445/373
f 426/435/363 427/436/364 158/160/125
f 297/301/235 244/248/205 437/446/374
f 374/378/311 291/295/229 323/327/260
f 438/447/375 439/448/376 440/449/377
f 441/450/378 289/293/227 391/395/328
f 442/451/379 443/452/380 435/444/372
f 241/245/202 444/453/381 239/243/200
f 323/327/260 435/444/372 374/378/311
f 445/454/382 446/455/383 447/456/384
f 411/420/348 420/429/357 387/391/324
f 448/457/385 449/458/386 450/459/387
f 295/299/233 296/300/234 443/452/380
f 297/301/235 443/452/380 296/300/234
f 436/445/373 297/301/235 427/436/364
f 451/460/388 452/461/389 66/66/33
f 442/451/379 290/294/228 453/462/390
f 358/362/295 351/355/288 346/350/283
f 454/463/391 438/447/375 440/449/377
f 211/214/176 455/464/392 209/212/174
f 456/465/393 457/466/394 458/467/395
f 453/462/390 295/299/233 442/451/379
f 459/468/396 460/469/397 461/470/398
f 453/462/390 290/294/228 283/287/221
f 462/471/399 463/472/400 464/473/401
f 429/438/366 301/305/239 234/238/198
f 465/474/402 466/475/403 467/476/404
f 468/477/405 469/478/406 470/479/407
f 471/480/408 472/481/409 473/482/410
f 415/424/352 474/483/411 416/425/353
f 475/484/412 476/485/413 477/486/414
f 478/487/415 444/453/381 467/476/404
f 466/475/403 478/487/415 467/476/404
f 479/488/416 480/489/417 481/490/418
f 459/468/396 482/491/419 460/469/397
f 483/492/420 481/490/418 480/489/417
f 484/493/421 485/494/422 486/495/423
f 487/496/424 488/497/425 489/498/426
f 458/467/395 490/499/427 456/465/393
f 491/500/428 492/501/429 493/502/430
f 494/503/431 495/504/432 439/448/376
f 496/505/433 497/506/434 498/507/435
f 499/508/436 458/467/395 457/466/394
f 450/459/387 500/509/437 448/457/385
f 501/510/438 502/511/439 503/512/440
f 300/304/238 504/513/441 298/302/236
f 505/514/442 282/286/220 281/285/219
f 454/463/391 506/515/443 507/516/444
f 472/481/409 508/517/445 473/482/410
f 455/464/392 509/518/446 510/519/447
f 511/520/448 512/521/449 509/518/446
f 513/522/450 514/523/451 515/524/452
f 447/456/384 493/502/430 516/525/453
f 281/285/219 486/495/423 505/514/442
f 502/511/439 517/526/454 503/512/440
f 282/286/220 518/527/455 280/284/218
f 450/459/387 449/458/386 519/528/456
f 457/466/394 498/507/435 499/508/436
f 440/449/377 439/448/376 495/504/432
f 517/526/454 299/303/237 503/512/440
f 508/517/445 459/468/396 461/470/398
f 519/528/456 470/479/407 469/478/406
f 481/490/418 422/431/359 479/488/416
f 499/508/436 498/507/435 497/506/434
f 449/458/386 470/479/407 519/528/456
f 422/431/359 424/433/361 479/488/416
f 520/529/457 521/530/458 522/531/459
f 523/532/460 464/473/401 524/533/461
f 476/485/413 525/534/462 477/486/414
f 432/441/369 526/535/463 433/442/370
f 432/441/369 434/443/371 525/534/462
f 521/530/458 527/536/464 522/531/459
f 527/536/464 528/537/465 522/531/459
f 463/472/400 524/533/461 464/473/401
f 272/276/210 529/538/466 273/277/211
f 429/438/366 431/440/368 301/305/239
f 525/534/462 434/443/371 477/539/414
f 530/540/467 487/496/424 489/498/426
f 445/454/382 531/541/468 446/455/383
f 516/525/453 445/454/382 447/456/384
f 209/212/174 455/464/392 510/519/447
f 532/542/469 515/524/452 514/523/451
f 423/432/360 533/543/470 424/433/361
f 430/439/367 534/544/471 431/440/368
f 438/447/375 454/463/391 507/516/444
f 508/517/445 461/470/398 473/482/410
f 239/243/200 444/453/381 478/487/415
f 535/545/472 536/546/473 537/547/474
f 527/536/464 535/545/472 528/537/465
f 300/304/238 299/303/237 517/526/454
f 532/542/469 274/278/212 515/524/452
f 510/519/447 509/518/446 512/521/449
f 488/497/425 417/426/354 489/498/426
f 532/542/469 272/276/210 274/278/212
f 488/497/425 415/424/352 417/426/354
f 516/525/453 493/502/430 492/501/429
f 120/121/87 131/235/98 121/122/88
f 505/514/442 486/495/423 485/494/422
f 524/533/461 342/346/279 523/532/460
f 109/131/76 55/55/22 160/162/127
f 535/545/472 537/547/474 528/537/465
f 538/548/475 339/343/276 350/354/287
f 377/381/314 145/147/112 67/67/34
f 160/162/127 72/72/39 100/100/67
f 336/340/273 338/342/275 329/333/266
f 222/225/187 63/63/30 215/218/180
f 73/73/40 89/89/56 68/68/35
f 126/127/93 125/126/92 149/151/116
f 228/231/192 38/38/5 40/40/7
f 116/117/83 86/86/53 77/77/44
f 43/43/10 97/97/64 91/91/58
f 65/65/32 41/41/8 61/61/28
f 159/161/126 427/436/364 539/549/476
f 86/86/53 115/116/82 78/78/45
f 73/73/40 77/77/44 87/87/54
f 149/151/116 120/121/87 98/98/65
f 89/89/56 74/74/41 103/103/70
f 76/76/43 100/100/67 74/74/41
f 131/133/98 166/550/133 130/132/97
f 109/109/76 160/162/127 100/100/67
f 70/70/37 140/142/107 96/96/63
f 117/118/84 136/138/103 133/135/100
f 126/127/93 67/67/34 136/138/103
f 153/155/120 95/95/62 141/143/108
f 57/57/24 141/143/108 95/95/62
f 37/37/4 124/125/91 195/198/160
f 128/129/95 146/148/113 129/130/96
f 124/125/91 540/551/477 541/552/478
f 83/83/50 123/124/90 84/84/51
f 163/165/130 156/158/123 155/157/122
f 169/171/136 188/190/154 84/84/51
f 188/190/154 169/171/136 182/184/149
f 165/167/132 164/166/131 178/180/145
f 135/137/102 164/166/131 163/165/130
f 123/124/90 83/83/50 124/125/91
f 84/84/51 188/190/154 85/85/52
f 341/345/278 523/532/460 342/346/279
f 215/218/180 205/208/170 216/219/181
f 144/146/111 179/181/146 181/183/148
f 143/145/110 167/169/134 52/52/19
f 179/181/146 143/145/110 208/211/173
f 214/217/179 37/37/4 201/204/166
f 184/186/151 183/185/150 201/204/166
f 35/35/2 218/221/183 54/54/21
f 172/174/139 173/175/140 178/180/145
f 217/220/182 176/178/143 175/177/142
f 219/222/184 58/58/25 204/207/169
f 52/52/19 168/170/135 50/50/17
f 229/232/193 228/231/192 68/68/35
f 346/350/283 339/343/276 338/342/275
f 331/335/268 542/553/479 226/229/190
f 378/382/315 543/554/480 544/555/481
f 306/310/244 304/308/242 275/279/213
f 317/321/254 284/288/222 441/450/378
f 185/187/152 545/556/153 186/188/153
f 546/557/153 545/556/153 185/187/152
f 187/189/153 223/226/153 547/558/153
f 187/189/153 547/558/153 548/559/153
f 549/560/153 546/557/153 185/187/152
f 550/561/153 549/560/153 185/187/152
f 187/189/153 548/559/153 551/562/153
f 187/189/153 551/562/153 552/563/153
f 553/564/153 550/561/153 185/187/152
f 554/565/153 553/564/153 185/187/152
f 187/189/153 552/563/153 555/566/153
f 187/189/153 555/566/153 556/567/153
f 554/565/153 185/187/152 189/191/153
f 557/568/153 554/565/153 189/191/153
f 236/240/153 187/189/153 558/569/153
f 187/189/153 556/567/153 558/569/153
f 559/570/153 557/568/153 189/191/153
f 560/571/153 559/570/153 189/191/153
f 236/240/153 558/569/153 561/572/153
f 236/240/153 561/572/153 562/573/153
f 563/574/153 560/571/153 189/191/153
f 564/575/153 563/574/153 189/191/153
f 236/240/153 562/573/153 565/576/153
f 236/240/153 565/576/153 566/577/153
f 567/578/153 564/575/153 189/191/153
f 568/579/153 567/578/153 189/191/153
f 236/240/153 566/577/153 569/580/153
f 236/240/153 569/580/153 570/581/153
f 568/579/153 189/191/153 238/242/153
f 238/242/153 189/191/153 236/240/153
f 236/240/153 570/581/153 237/241/153
f 46/46/13 93/93/60 44/44/11
f 44/44/11 170/172/137 45/45/12
f 50/50/17 59/59/26 51/51/18
f 53/53/20 199/202/164 36/36/3
f 58/58/25 219/222/184 59/59/26
f 61/61/28 90/90/57 62/62/29
f 64/64/31 116/117/83 40/40/7
f 65/65/32 227/230/191 66/66/33
f 68/68/35 228/231/192 40/40/7
f 70/70/37 122/123/89 71/71/38
f 78/78/45 80/80/47 87/87/54
f 89/89/56 73/73/40 87/87/54
f 88/88/55 87/87/54 80/80/47
f 93/93/60 364/368/301 94/94/61
f 97/97/64 43/43/10 42/42/9
f 65/65/32 149/151/116 42/42/9
f 99/99/66 109/109/76 100/100/67
f 104/104/71 103/103/70 102/102/69
f 72/72/39 71/71/38 571/582/482
f 72/72/39 571/582/482 101/101/68
f 102/102/69 103/103/70 72/72/39
f 109/109/76 99/99/66 110/110/77
f 76/76/43 92/92/59 111/111/78
f 112/113/79 130/132/97 113/114/80
f 89/89/56 103/103/70 572/583/483
f 103/103/70 105/105/72 572/583/483
f 573/584/484 232/236/196 68/68/35
f 574/585/485 573/584/484 68/68/35
f 89/89/56 572/583/483 575/586/486
f 89/89/56 575/586/486 118/119/85
f 119/120/86 574/585/485 68/68/35
f 89/89/56 118/119/85 68/68/35
f 122/123/89 150/152/117 123/124/90
f 140/142/107 55/55/22 57/57/24
f 56/56/23 137/139/104 141/143/108
f 67/67/34 126/127/93 149/151/116
f 128/129/95 95/95/62 153/155/120
f 140/142/107 70/70/37 72/72/39
f 132/134/99 114/115/81 117/118/84
f 155/157/122 117/118/84 133/135/100
f 151/153/118 146/148/113 148/150/115
f 151/153/118 150/152/117 122/123/89
f 120/121/87 125/126/92 166/168/133
f 127/128/94 130/132/97 166/168/133
f 123/124/90 152/154/119 169/171/136
f 145/147/112 134/136/101 133/135/100
f 122/123/89 124/125/91 541/552/478
f 541/552/478 576/587/153 174/176/141
f 174/176/141 577/588/153 71/71/38
f 578/589/153 579/590/153 71/71/38
f 122/123/89 541/552/478 174/176/141
f 577/588/153 578/589/153 71/71/38
f 142/144/109 172/174/139 178/180/145
f 85/85/52 188/190/154 138/140/105
f 91/91/58 90/90/57 41/41/8
f 201/204/166 183/185/150 190/193/155
f 180/182/147 179/181/146 208/211/173
f 145/147/112 167/169/134 142/144/109
f 106/106/73 195/198/160 124/125/91
f 212/215/177 232/236/196 580/591/487
f 212/215/177 580/591/487 581/592/488
f 213/216/178 207/210/172 36/36/3
f 212/215/177 581/592/488 213/216/178
f 217/220/182 175/177/142 54/54/21
f 204/207/169 203/206/168 51/51/18
f 195/198/160 106/106/73 108/108/75
f 50/50/17 222/225/187 60/60/27
f 37/37/4 36/36/3 206/209/171
f 37/37/4 206/209/171 582/593/489
f 221/224/186 540/551/477 124/125/91
f 37/37/4 582/593/489 583/594/490
f 37/37/4 583/594/490 220/223/185
f 124/125/91 37/37/4 220/223/185
f 177/179/144 200/203/165 199/202/164
f 202/205/167 229/232/193 212/215/177
f 47/47/14 49/49/16 202/205/167
f 229/232/193 202/205/167 49/49/16
f 232/236/196 212/215/177 229/232/193
f 245/249/1 584/595/1 246/250/1
f 248/252/206 585/596/206 249/253/206
f 251/255/207 586/597/207 252/256/207
f 254/258/208 587/598/208 255/259/208
f 257/261/209 588/599/209 258/262/209
f 260/264/206 589/600/206 261/265/206
f 263/267/207 590/601/207 264/268/207
f 266/270/208 591/602/208 267/271/208
f 269/273/209 592/603/209 270/274/209
f 275/279/213 304/308/242 276/280/214
f 278/282/216 306/310/244 275/279/213
f 286/290/224 343/347/280 287/291/225
f 292/296/230 376/380/313 293/297/231
f 279/283/217 453/462/390 283/287/221
f 279/283/217 275/279/213 277/281/215
f 277/281/215 276/280/214 242/246/203
f 302/306/240 316/320/253 303/307/241
f 305/309/243 276/280/214 304/308/242
f 306/310/244 278/282/216 285/289/223
f 593/604/491 594/605/492 327/331/264
f 595/606/493 596/607/494 327/331/264
f 597/608/495 598/609/496 327/331/264
f 599/610/497 600/611/498 327/331/264
f 310/314/247 601/612/1 602/613/1
f 603/614/1 602/613/1 601/612/1
f 308/312/153 604/615/1 605/616/153
f 606/617/1 604/615/1 607/618/1
f 605/616/153 608/619/1 609/620/1
f 610/621/1 609/620/1 608/619/1
f 309/313/246 611/622/1 543/554/480
f 612/623/1 543/554/480 611/622/1
f 327/331/264 317/321/254 361/365/298
f 361/365/298 613/624/1 614/625/1
f 594/605/492 595/606/493 327/331/264
f 361/365/298 614/625/1 593/604/491
f 309/313/246 543/554/480 378/382/315
f 605/616/153 609/620/1 309/313/246
f 607/618/1 604/615/1 308/312/153
f 310/314/247 602/613/1 308/312/153
f 598/609/496 599/610/497 327/331/264
f 327/331/264 361/365/298 593/604/491
f 327/331/264 596/607/494 597/608/495
f 327/331/264 600/611/498 310/314/247
f 287/291/225 327/331/264 310/314/247
f 378/382/315 287/291/225 310/314/247
f 378/382/315 310/314/247 309/313/246
f 308/312/153 605/616/153 309/313/246
f 311/315/248 402/406/339 312/316/249
f 315/319/252 318/322/255 316/320/253
f 307/311/245 315/319/252 302/306/240
f 318/322/255 326/330/263 319/323/256
f 225/228/189 303/307/241 316/320/253
f 243/247/204 242/246/203 305/309/243
f 305/309/243 225/228/189 224/227/188
f 320/324/257 243/247/204 305/309/243
f 315/319/252 307/311/245 321/325/258
f 325/329/262 329/333/266 326/330/263
f 322/326/259 325/329/262 318/322/255
f 329/333/266 338/342/275 330/334/267
f 331/335/268 319/323/256 326/330/263
f 332/336/269 331/335/268 330/334/267
f 325/329/262 322/326/259 324/328/261
f 334/338/271 324/328/261 328/332/265
f 336/340/273 334/338/271 335/339/272
f 334/338/271 336/340/273 329/333/266
f 333/337/270 330/334/267 338/342/275
f 337/341/274 358/362/295 346/350/283
f 347/351/284 363/367/300 348/352/285
f 350/354/287 339/343/276 351/355/288
f 353/357/290 407/416/344 354/358/291
f 333/337/270 538/548/475 356/360/293
f 347/351/284 359/363/296 286/290/224
f 358/362/295 337/341/274 344/348/281
f 359/363/296 347/351/284 349/353/286
f 327/331/264 287/291/225 343/347/280
f 363/367/300 366/370/303 94/94/61
f 364/368/301 352/356/289 348/352/285
f 343/347/280 286/290/224 360/364/297
f 365/369/302 369/373/306 366/370/303
f 367/371/304 381/385/318 368/372/305
f 357/361/294 286/290/224 288/292/226
f 365/369/302 357/361/294 370/374/307
f 357/361/294 365/369/302 363/367/300
f 44/44/11 94/94/61 366/370/303
f 615/626/499 538/548/475 350/354/287
f 364/368/301 93/93/60 616/627/500
f 373/377/310 615/626/499 350/354/287
f 364/368/301 616/627/500 373/377/310
f 374/378/311 435/444/372 375/379/312
f 377/381/314 168/170/135 167/169/134
f 371/375/308 367/371/304 369/373/306
f 381/385/318 384/388/321 382/386/319
f 170/172/137 372/376/309 368/372/305
f 383/387/320 313/317/250 384/388/321
f 441/450/378 391/395/328 390/394/327
f 378/382/315 544/555/481 617/628/501
f 617/628/501 618/629/502 378/382/315
f 619/630/503 620/631/1 621/632/504
f 622/633/1 623/634/1 620/631/1
f 621/632/504 624/635/1 625/636/1
f 626/637/1 625/636/1 624/635/1
f 627/638/505 628/639/506 411/420/348
f 629/640/507 630/641/508 411/420/348
f 631/642/509 632/643/510 391/395/328
f 633/644/511 389/393/326 391/395/328
f 390/394/327 634/645/512 441/450/378
f 635/646/513 636/647/514 441/450/378
f 637/648/515 638/649/1 639/650/1
f 640/651/1 639/650/1 638/649/1
f 641/652/516 642/653/1 643/654/517
f 644/655/1 645/656/1 642/653/1
f 643/654/517 646/657/518 317/321/254
f 647/658/519 362/366/299 317/321/254
f 378/382/315 618/629/502 619/630/503
f 620/631/1 623/634/1 621/632/504
f 621/632/504 625/636/1 627/638/505
f 628/639/506 629/640/507 411/420/348
f 632/643/510 633/644/511 391/395/328
f 634/645/512 635/646/513 441/450/378
f 637/648/515 639/650/1 641/652/516
f 642/653/1 645/656/1 643/654/517
f 646/657/518 647/658/519 317/321/254
f 411/420/348 378/382/315 619/630/503
f 411/420/348 619/630/503 621/632/504
f 643/654/517 317/321/254 441/450/378
f 641/652/516 643/654/517 441/450/378
f 411/420/348 621/632/504 627/638/505
f 411/420/348 630/641/508 631/642/509
f 637/648/515 641/652/516 441/450/378
f 411/420/348 631/642/509 391/395/328
f 636/647/514 637/648/515 441/450/378
f 392/396/329 383/387/320 381/385/318
f 383/387/320 392/396/329 393/397/330
f 313/317/250 312/316/249 395/399/332
f 193/196/158 382/386/319 384/388/321
f 194/197/159 193/196/158 355/359/292
f 355/359/292 354/358/291 396/400/333
f 379/383/316 393/397/330 392/396/329
f 394/398/331 311/315/248 313/317/250
f 400/404/337 405/411/342 401/405/338
f 400/407/337 404/409/341 386/390/323
f 402/406/339 401/405/338 353/357/290
f 355/359/292 395/399/332 312/316/249
f 116/117/83 77/77/44 69/69/36
f 404/409/341 400/407/337 402/406/339
f 369/373/306 368/372/305 372/376/309
f 397/401/334 386/419/323 404/409/341
f 349/353/286 348/352/285 352/356/289
f 405/411/342 413/422/350 406/412/343
f 407/414/344 353/357/290 401/413/338
f 406/412/343 409/417/346 408/415/345
f 409/417/346 158/160/125 157/159/124
f 410/418/347 408/415/345 409/417/346
f 412/421/349 294/298/232 413/422/350
f 398/402/335 412/421/349 405/411/342
f 294/298/232 293/297/231 414/423/351
f 409/417/346 406/412/343 413/422/350
f 407/416/344 408/415/345 418/427/355
f 412/421/349 398/402/335 388/392/325
f 420/429/357 425/434/362 421/430/358
f 419/428/356 292/296/230 294/298/232
f 376/380/313 375/379/312 426/435/363
f 158/160/125 414/423/351 293/297/231
f 291/295/229 420/429/357 391/395/328
f 292/296/230 419/428/356 425/434/362
f 428/437/365 374/378/311 376/380/313
f 435/444/372 443/452/380 436/445/373
f 427/436/364 426/435/363 375/379/312
f 539/549/476 427/436/364 297/301/235
f 297/301/235 242/246/203 244/248/205
f 437/446/374 539/549/476 297/301/235
f 374/378/311 428/437/365 291/295/229
f 441/450/378 284/288/222 289/293/227
f 442/451/379 295/299/233 443/452/380
f 323/327/260 442/451/379 435/444/372
f 411/420/348 391/395/328 420/429/357
f 295/299/233 277/281/215 296/300/234
f 297/301/235 436/445/373 443/452/380
f 451/460/388 648/659/520 649/660/153
f 650/661/153 649/660/153 648/659/520
f 452/461/389 651/662/153 652/663/521
f 653/664/153 654/665/153 651/662/153
f 652/663/521 655/666/522 66/66/33
f 656/667/523 657/668/524 66/66/33
f 658/669/525 659/670/153 660/671/526
f 661/672/153 662/673/520 659/670/153
f 660/671/526 663/674/527 67/67/34
f 664/675/528 231/234/195 67/67/34
f 168/170/135 377/381/314 665/676/529
f 665/676/529 666/677/153 667/678/153
f 668/679/530 669/680/153 670/681/531
f 665/676/529 667/678/153 668/679/530
f 663/674/527 664/675/528 67/67/34
f 659/670/153 662/673/520 660/671/526
f 655/666/522 656/667/523 66/66/33
f 651/662/153 654/665/153 652/663/521
f 451/460/388 649/660/153 452/461/389
f 671/682/153 672/683/153 673/684/153
f 674/685/532 673/684/153 451/460/388
f 675/686/533 676/687/534 168/170/135
f 670/681/531 677/688/535 168/170/135
f 678/689/153 679/690/153 669/680/153
f 168/170/135 665/676/529 668/679/530
f 669/680/153 679/690/153 670/681/531
f 677/688/535 675/686/533 168/170/135
f 673/684/153 672/683/153 451/460/388
f 168/170/135 668/679/530 670/681/531
f 660/671/526 67/67/34 66/66/33
f 658/669/525 660/671/526 66/66/33
f 168/170/135 676/687/534 674/685/532
f 168/170/135 674/685/532 451/460/388
f 657/668/524 658/669/525 66/66/33
f 452/461/389 652/663/521 66/66/33
f 66/66/33 168/170/135 451/460/388
f 442/451/379 323/327/260 290/294/228
f 358/362/295 349/353/286 351/355/288
f 453/462/390 279/283/217 295/299/233
f 538/548/475 333/337/270 339/343/276
f 680/691/1 681/692/1 682/693/1
f 680/691/1 682/693/1 683/694/1
f 683/694/1 682/693/1 684/695/1
f 685/696/1 686/697/1 687/698/1
f 683/694/1 684/695/1 688/699/1
f 230/233/194 683/694/1 689/700/1
f 685/696/1 687/698/1 684/695/1
f 690/701/1 691/702/1 692/703/1
f 684/695/1 687/698/1 688/699/1
f 688/699/1 690/701/1 692/703/1
f 688/699/1 692/703/1 693/704/1
f 683/694/1 688/699/1 689/700/1
f 694/705/536 695/706/1 696/707/537
f 688/699/1 693/704/1 689/700/1
f 693/704/1 694/705/536 696/707/537
f 693/704/1 696/707/537 697/708/1
f 693/704/1 697/708/1 689/700/1
f 698/709/1 699/710/1 700/711/1
f 698/709/1 700/711/1 701/712/1
f 697/708/1 698/709/1 701/712/1
f 702/713/537 703/714/1 704/715/536
f 697/708/1 701/712/1 689/700/1
f 67/67/34 230/233/194 377/381/314
f 702/713/537 704/715/536 689/700/1
f 701/712/1 702/713/537 689/700/1
f 230/233/194 689/700/1 705/716/1
f 230/233/194 705/716/1 377/381/314
f 336/340/273 346/350/283 338/342/275
f 222/225/187 61/61/28 63/63/30
f 149/151/116 125/126/92 120/121/87
f 117/118/84 113/114/80 136/138/103
f 135/137/102 142/144/109 164/166/131
f 214/217/179 35/35/2 37/37/4
f 35/35/2 214/217/179 218/221/183
f 346/350/283 351/355/288 339/343/276
f 226/229/190 225/228/189 331/335/268
f 331/335/268 332/336/269 542/553/479
f 306/310/244 302/306/240 304/308/242
v -0.400000 -0.400000 -0.000000
v -0.400000 -0.400000 2.500000
v -0.400000 0.400000 2.500000
v -0.400000 0.400000 0.000000
v 0.400000 0.400000 2.500000
v 0.400000 0.400000 0.000000
v 0.400000 -0.400000 2.500000
v 0.400000 -0.400000 -0.000000
vt 0.0000 0.0000
vt 1.0000 0.0000
vt 1.0000 1.0000
vt 0.0000 1.0000
vt 0.0000 0.0000
vt 1.0000 0.0000
vt 1.0000 1.0000
vt 0.0000 1.0000
vt 0.0000 0.0000
vt 1.0000 0.0000
vt 1.0000 1.0000
vt 0.0000 1.0000
vt 0.0000 0.0000
vt 1.0000 0.0000
vt 1.0000 1.0000
vt 0.0000 1.0000
vn -1.0000 0.0000 0.0000
vn 0.0000 1.0000 0.0000
vn 1.0000 0.0000 0.0000
vn 0.0000 -1.0000 -0.0000
s off
f 706/717/538 707/718/538 708/719/538 709/720/538
f 709/721/539 708/722/539 710/723/539 711/724/539
f 711/725/540 710/726/540 712/727/540 713/728/540
f 713/729/541 712/730/541 707/731/541 706/732/541
