# Blender v2.78 (sub 0) OBJ File: ''
#
# Suzanne model by Willem-Paul van Overbruggen for NaN studios.
#
# www.blender.org
v 0.131250 -0.229688 0.342851
v -0.131250 -0.229688 0.342851
v 0.150000 -0.206250 0.321757
v -0.150000 -0.206250 0.321757
v 0.164062 -0.173438 0.310038
v -0.164062 -0.173438 0.310038
v 0.105469 -0.185156 0.286601
v -0.105469 -0.185156 0.286601
v 0.105469 -0.215625 0.303007
v -0.105469 -0.215625 0.303007
v 0.105469 -0.234375 0.333476
v -0.105469 -0.234375 0.333476
v 0.082031 -0.239063 0.342851
v -0.082031 -0.239063 0.342851
v 0.060938 -0.222656 0.321757
v -0.060938 -0.222656 0.321757
v 0.046875 -0.194531 0.310038
v -0.046875 -0.194531 0.310038
v 0.023438 -0.196875 0.366288
v -0.023438 -0.196875 0.366288
v 0.042188 -0.222656 0.366288
v -0.042188 -0.222656 0.366288
v 0.072656 -0.239063 0.366288
v -0.072656 -0.239063 0.366288
v 0.082031 -0.239063 0.392070
v -0.082031 -0.239063 0.392070
v 0.060938 -0.222656 0.410820
v -0.060938 -0.222656 0.410820
v 0.046875 -0.194531 0.424882
v -0.046875 -0.194531 0.424882
v 0.105469 -0.185156 0.448320
v -0.105469 -0.185156 0.448320
v 0.105469 -0.215625 0.429570
v -0.105469 -0.215625 0.429570
v 0.105469 -0.234375 0.401445
v -0.105469 -0.234375 0.401445
v 0.131250 -0.229688 0.392070
v -0.131250 -0.229688 0.392070
v 0.150000 -0.206250 0.410820
v -0.150000 -0.206250 0.410820
v 0.164062 -0.173438 0.424882
v -0.164062 -0.173438 0.424882
v 0.187500 -0.168750 0.366288
v -0.187500 -0.168750 0.366288
v 0.168750 -0.201563 0.366288
v -0.168750 -0.201563 0.366288
v 0.140625 -0.227344 0.366288
v -0.140625 -0.227344 0.366288
v 0.142969 -0.232031 0.366288
v -0.142969 -0.232031 0.366288
v 0.133594 -0.234375 0.394413
v -0.133594 -0.234375 0.394413
v 0.105469 -0.241406 0.406132
v -0.105469 -0.241406 0.406132
v 0.079688 -0.246094 0.394413
v -0.079688 -0.246094 0.394413
v 0.067969 -0.246094 0.366288
v -0.067969 -0.246094 0.366288
v 0.079688 -0.246094 0.340507
v -0.079688 -0.246094 0.340507
v 0.105469 -0.248438 0.366288
v -0.105469 -0.248438 0.366288
v 0.105469 -0.241406 0.328788
v -0.105469 -0.241406 0.328788
v 0.133594 -0.234375 0.340507
v -0.133594 -0.234375 0.340507
v 0.000000 -0.222656 0.422538
v 0.000000 -0.246094 0.399101
v 0.000000 -0.220313 0.089726
v 0.000000 -0.234375 0.197538
v 0.000000 -0.239063 0.237382
v 0.000000 -0.215625 0.061601
v 0.000000 -0.180469 0.415507
v 0.000000 -0.171094 0.464726
v 0.000000 0.164062 0.563163
v 0.000000 0.255469 0.462382
v 0.000000 0.248438 0.314726
v 0.000000 0.105469 0.178788
v 0.060938 -0.168750 0.237382
v -0.060938 -0.168750 0.237382
v 0.093750 -0.171094 0.162382
v -0.093750 -0.171094 0.162382
v 0.105469 -0.171094 0.085038
v -0.105469 -0.171094 0.085038
v 0.110156 -0.159375 0.026445
v -0.110156 -0.159375 0.026445
v 0.098438 -0.157031 0.010038
v -0.098438 -0.157031 0.010038
v 0.053906 -0.166406 0.003007
v -0.053906 -0.166406 0.003007
v 0.000000 -0.173438 -0.001680
v 0.131250 -0.159375 0.251445
v -0.131250 -0.159375 0.251445
v 0.189844 -0.161719 0.281913
v -0.189844 -0.161719 0.281913
v 0.248438 -0.133594 0.338163
v -0.248438 -0.133594 0.338163
v 0.257812 -0.178125 0.422538
v -0.257812 -0.178125 0.422538
v 0.213281 -0.187500 0.438945
v -0.213281 -0.187500 0.438945
v 0.147656 -0.206250 0.474101
v -0.147656 -0.206250 0.474101
v 0.096094 -0.220313 0.520976
v -0.096094 -0.220313 0.520976
v 0.046875 -0.227344 0.509257
v -0.046875 -0.227344 0.509257
v 0.018750 -0.225000 0.441288
v -0.018750 -0.225000 0.441288
v 0.049219 -0.232031 0.417851
v -0.049219 -0.232031 0.417851
v 0.037500 -0.229688 0.385038
v -0.037500 -0.229688 0.385038
v 0.060938 -0.222656 0.321757
v -0.060938 -0.222656 0.321757
v 0.112500 -0.210938 0.298320
v -0.112500 -0.210938 0.298320
v 0.147656 -0.201563 0.312382
v -0.147656 -0.201563 0.312382
v 0.187500 -0.194531 0.349882
v -0.187500 -0.194531 0.349882
v 0.192188 -0.194531 0.382695
v -0.192188 -0.194531 0.382695
v 0.180469 -0.199219 0.406132
v -0.180469 -0.199219 0.406132
v 0.128906 -0.215625 0.424882
v -0.128906 -0.215625 0.424882
v 0.075000 -0.227344 0.434257
v -0.075000 -0.227344 0.434257
v 0.000000 -0.220313 0.063945
v 0.032813 -0.220313 0.078007
v -0.032813 -0.220313 0.078007
v 0.035156 -0.213281 0.042851
v -0.035156 -0.213281 0.042851
v 0.018750 -0.208594 0.028788
v -0.018750 -0.208594 0.028788
v 0.000000 -0.206250 0.026445
v 0.000000 -0.225000 0.235038
v 0.000000 -0.222656 0.251445
v 0.030469 -0.222656 0.249101
v -0.030469 -0.222656 0.249101
v 0.037500 -0.225000 0.225663
v -0.037500 -0.225000 0.225663
v 0.025781 -0.222656 0.206913
v -0.025781 -0.222656 0.206913
v 0.119531 -0.201563 0.279570
v -0.119531 -0.201563 0.279570
v 0.185156 -0.187500 0.310038
v -0.185156 -0.187500 0.310038
v 0.217969 -0.180469 0.354570
v -0.217969 -0.180469 0.354570
v 0.222656 -0.196875 0.406132
v -0.222656 -0.196875 0.406132
v 0.206250 -0.217969 0.417851
v -0.206250 -0.217969 0.417851
v 0.131250 -0.239063 0.457695
v -0.131250 -0.239063 0.457695
v 0.093750 -0.250781 0.485820
v -0.093750 -0.250781 0.485820
v 0.060938 -0.255469 0.478788
v -0.060938 -0.255469 0.478788
v 0.030469 -0.253125 0.422538
v -0.030469 -0.253125 0.422538
v 0.037500 -0.243750 0.263163
v -0.037500 -0.243750 0.263163
v 0.063281 -0.213281 0.160038
v -0.063281 -0.213281 0.160038
v 0.075000 -0.206250 0.082695
v -0.075000 -0.206250 0.082695
v 0.079688 -0.199219 0.047538
v -0.079688 -0.199219 0.047538
v 0.070312 -0.189844 0.019413
v -0.070312 -0.189844 0.019413
v 0.049219 -0.189844 0.014726
v -0.049219 -0.189844 0.014726
v 0.000000 -0.192188 0.010038
v 0.000000 -0.217969 0.307695
v 0.000000 -0.229688 0.356913
v 0.098438 -0.222656 0.436601
v -0.098438 -0.222656 0.436601
v 0.049219 -0.225000 0.335820
v -0.049219 -0.225000 0.335820
v 0.039844 -0.227344 0.356913
v -0.039844 -0.227344 0.356913
v 0.035156 -0.220313 0.087382
v -0.035156 -0.220313 0.087382
v 0.023438 -0.225000 0.160038
v -0.023438 -0.225000 0.160038
v 0.000000 -0.225000 0.160038
v 0.000000 -0.222656 0.195195
v 0.028125 -0.234375 0.211601
v -0.028125 -0.234375 0.211601
v 0.039844 -0.239063 0.225663
v -0.039844 -0.239063 0.225663
v 0.032813 -0.234375 0.253788
v -0.032813 -0.234375 0.253788
v 0.011719 -0.234375 0.256132
v -0.011719 -0.234375 0.256132
v 0.000000 -0.248438 0.232695
v 0.014063 -0.243750 0.249101
v -0.014063 -0.243750 0.249101
v 0.028125 -0.243750 0.246757
v -0.028125 -0.243750 0.246757
v 0.032813 -0.248438 0.225663
v -0.032813 -0.248438 0.225663
v 0.023438 -0.241406 0.218632
v -0.023438 -0.241406 0.218632
v 0.000000 -0.241406 0.206913
v 0.077344 -0.166406 0.199882
v -0.077344 -0.166406 0.199882
v 0.049219 -0.213281 0.220976
v -0.049219 -0.213281 0.220976
v 0.053906 -0.213281 0.199882
v -0.053906 -0.213281 0.199882
v 0.070312 -0.166406 0.218632
v -0.070312 -0.166406 0.218632
v 0.000000 -0.206250 0.031132
v 0.014063 -0.206250 0.033476
v -0.014063 -0.206250 0.033476
v 0.028125 -0.213281 0.047538
v -0.028125 -0.213281 0.047538
v 0.028125 -0.217969 0.070976
v -0.028125 -0.217969 0.070976
v 0.000000 -0.196875 0.059257
v 0.028125 -0.199219 0.068632
v -0.028125 -0.199219 0.068632
v 0.028125 -0.192188 0.049882
v -0.028125 -0.192188 0.049882
v 0.014063 -0.189844 0.038163
v -0.014063 -0.189844 0.038163
v 0.000000 -0.189844 0.035820
v 0.051563 -0.234375 0.359257
v -0.051563 -0.234375 0.359257
v 0.056250 -0.232031 0.340507
v -0.056250 -0.232031 0.340507
v 0.100781 -0.227344 0.422538
v -0.100781 -0.227344 0.422538
v 0.082031 -0.232031 0.420195
v -0.082031 -0.232031 0.420195
v 0.126563 -0.232031 0.413163
v -0.126563 -0.232031 0.413163
v 0.168750 -0.208594 0.399101
v -0.168750 -0.208594 0.399101
v 0.175781 -0.206250 0.380351
v -0.175781 -0.206250 0.380351
v 0.173438 -0.203906 0.352226
v -0.173438 -0.203906 0.352226
v 0.142969 -0.215625 0.324101
v -0.142969 -0.215625 0.324101
v 0.112500 -0.222656 0.312382
v -0.112500 -0.222656 0.312382
v 0.067969 -0.234375 0.326445
v -0.067969 -0.234375 0.326445
v 0.053906 -0.234375 0.382695
v -0.053906 -0.234375 0.382695
v 0.063281 -0.234375 0.406132
v -0.063281 -0.234375 0.406132
v 0.070312 -0.227344 0.401445
v -0.070312 -0.227344 0.401445
v 0.058594 -0.227344 0.382695
v -0.058594 -0.227344 0.382695
v 0.072656 -0.227344 0.331132
v -0.072656 -0.227344 0.331132
v 0.112500 -0.217969 0.319413
v -0.112500 -0.217969 0.319413
v 0.138281 -0.210938 0.328788
v -0.138281 -0.210938 0.328788
v 0.164062 -0.201563 0.356913
v -0.164062 -0.201563 0.356913
v 0.166406 -0.201563 0.378007
v -0.166406 -0.201563 0.378007
v 0.159375 -0.203906 0.394413
v -0.159375 -0.203906 0.394413
v 0.124219 -0.225000 0.410820
v -0.124219 -0.225000 0.410820
v 0.084375 -0.229688 0.413163
v -0.084375 -0.229688 0.413163
v 0.100781 -0.225000 0.415507
v -0.100781 -0.225000 0.415507
v 0.060938 -0.225000 0.345195
v -0.060938 -0.225000 0.345195
v 0.058594 -0.225000 0.361601
v -0.058594 -0.225000 0.361601
v 0.032813 -0.182813 0.431913
v -0.032813 -0.182813 0.431913
v 0.058594 -0.185156 0.492851
v -0.058594 -0.185156 0.492851
v 0.100781 -0.178125 0.499882
v -0.100781 -0.178125 0.499882
v 0.145313 -0.166406 0.460038
v -0.145313 -0.166406 0.460038
v 0.203906 -0.147656 0.429570
v -0.203906 -0.147656 0.429570
v 0.239063 -0.138281 0.415507
v -0.239063 -0.138281 0.415507
v 0.232031 -0.112500 0.342851
v -0.232031 -0.112500 0.342851
v 0.180469 -0.124219 0.293632
v -0.180469 -0.124219 0.293632
v 0.131250 -0.140625 0.265507
v -0.131250 -0.140625 0.265507
v 0.000000 -0.086719 0.563163
v 0.000000 0.023438 0.588945
v 0.000000 0.201563 0.235038
v 0.000000 -0.056250 0.155351
v 0.000000 -0.138281 0.000663
v 0.000000 -0.103125 0.052226
v 0.000000 -0.096094 0.122538
v 0.000000 -0.084375 0.148320
v 0.255469 -0.016406 0.363945
v -0.255469 -0.016406 0.363945
v 0.257812 0.014063 0.389726
v -0.257812 0.014063 0.389726
v 0.232031 0.131250 0.373320
v -0.232031 0.131250 0.373320
v 0.138281 0.210938 0.424882
v -0.138281 0.210938 0.424882
v 0.220313 -0.021094 0.279570
v -0.220313 -0.021094 0.279570
v 0.178125 0.049219 0.256132
v -0.178125 0.049219 0.256132
v 0.192188 0.128906 0.291288
v -0.192188 0.128906 0.291288
v 0.100781 0.199219 0.310038
v -0.100781 0.199219 0.310038
v 0.070312 -0.121875 0.188163
v -0.070312 -0.121875 0.188163
v 0.053906 -0.077344 0.169413
v -0.053906 -0.077344 0.169413
v 0.086719 -0.114844 0.080351
v -0.086719 -0.114844 0.080351
v 0.075000 -0.117188 0.143632
v -0.075000 -0.117188 0.143632
v 0.098438 -0.119531 0.019413
v -0.098438 -0.119531 0.019413
v 0.042188 -0.110156 0.066288
v -0.042188 -0.110156 0.066288
v 0.037500 -0.107813 0.131913
v -0.037500 -0.107813 0.131913
v 0.049219 -0.131250 0.010038
v -0.049219 -0.131250 0.010038
v 0.065625 -0.128906 0.209257
v -0.065625 -0.128906 0.209257
v 0.063281 -0.140625 0.225663
v -0.063281 -0.140625 0.225663
v 0.060938 -0.150000 0.242070
v -0.060938 -0.150000 0.242070
v 0.063281 -0.049219 0.176445
v -0.063281 -0.049219 0.176445
v 0.089063 0.079688 0.199882
v -0.089063 0.079688 0.199882
v 0.103125 0.161719 0.249101
v -0.103125 0.161719 0.249101
v 0.135938 0.114844 0.553788
v -0.135938 0.114844 0.553788
v 0.135938 0.021094 0.572538
v -0.135938 0.021094 0.572538
v 0.135938 -0.070312 0.549101
v -0.135938 -0.070312 0.549101
v 0.138281 -0.128906 0.450663
v -0.138281 -0.128906 0.450663
v 0.217969 -0.100781 0.415507
v -0.217969 -0.100781 0.415507
v 0.189844 -0.084375 0.429570
v -0.189844 -0.084375 0.429570
v 0.192188 -0.016406 0.504570
v -0.192188 -0.016406 0.504570
v 0.239063 -0.037500 0.462382
v -0.239063 -0.037500 0.462382
v 0.239063 0.035156 0.478788
v -0.239063 0.035156 0.478788
v 0.192188 0.058594 0.518632
v -0.192188 0.058594 0.518632
v 0.192188 0.133594 0.497538
v -0.192188 0.133594 0.497538
v 0.239063 0.107813 0.455351
v -0.239063 0.107813 0.455351
v 0.185156 0.175781 0.392070
v -0.185156 0.175781 0.392070
v 0.145313 0.164062 0.300663
v -0.145313 0.164062 0.300663
v 0.246094 0.060938 0.392070
v -0.246094 0.060938 0.392070
v 0.121875 -0.044531 0.242070
v -0.121875 -0.044531 0.242070
v 0.128906 0.063281 0.235038
v -0.128906 0.063281 0.235038
v 0.267188 0.070312 0.415507
v -0.267188 0.070312 0.415507
v 0.232031 0.037500 0.251445
v -0.232031 0.037500 0.251445
v 0.311719 0.098438 0.263163
v -0.311719 0.098438 0.263163
v 0.384375 0.128906 0.310038
v -0.384375 0.128906 0.310038
v 0.405469 0.126563 0.389726
v -0.405469 0.126563 0.389726
v 0.370313 0.126563 0.445976
v -0.370313 0.126563 0.445976
v 0.307031 0.093750 0.436601
v -0.307031 0.093750 0.436601
v 0.304688 0.086719 0.417851
v -0.304688 0.086719 0.417851
v 0.356250 0.117188 0.424882
v -0.356250 0.117188 0.424882
v 0.379688 0.121875 0.380351
v -0.379688 0.121875 0.380351
v 0.363281 0.121875 0.317070
v -0.363281 0.121875 0.317070
v 0.309375 0.091406 0.281913
v -0.309375 0.091406 0.281913
v 0.248438 0.039844 0.272538
v -0.248438 0.039844 0.272538
v 0.276563 0.065625 0.401445
v -0.276563 0.065625 0.401445
v 0.283594 0.086719 0.385038
v -0.283594 0.086719 0.385038
v 0.264844 0.063281 0.286601
v -0.264844 0.063281 0.286601
v 0.311719 0.110156 0.293632
v -0.311719 0.110156 0.293632
v 0.356250 0.133594 0.321757
v -0.356250 0.133594 0.321757
v 0.370313 0.133594 0.368632
v -0.370313 0.133594 0.368632
v 0.351562 0.131250 0.401445
v -0.351562 0.131250 0.401445
v 0.307031 0.107813 0.396757
v -0.307031 0.107813 0.396757
v 0.253125 0.063281 0.380351
v -0.253125 0.063281 0.380351
v 0.250781 0.082031 0.345195
v -0.250781 0.082031 0.345195
v 0.227344 0.082031 0.321757
v -0.227344 0.082031 0.321757
v 0.246094 0.082031 0.319413
v -0.246094 0.082031 0.319413
v 0.253125 0.082031 0.298320
v -0.253125 0.082031 0.298320
v 0.243750 0.082031 0.288945
v -0.243750 0.082031 0.288945
v 0.217969 0.021094 0.293632
v -0.217969 0.021094 0.293632
v 0.215625 0.051563 0.286601
v -0.215625 0.051563 0.286601
v 0.215625 0.056250 0.305351
v -0.215625 0.056250 0.305351
v 0.239063 0.063281 0.354570
v -0.239063 0.063281 0.354570
v 0.267188 0.079688 0.366288
v -0.267188 0.079688 0.366288
v 0.267188 0.096094 0.363945
v -0.267188 0.096094 0.363945
v 0.243750 0.096094 0.288945
v -0.243750 0.096094 0.288945
v 0.255469 0.096094 0.298320
v -0.255469 0.096094 0.298320
v 0.248438 0.096094 0.317070
v -0.248438 0.096094 0.317070
v 0.229688 0.096094 0.321757
v -0.229688 0.096094 0.321757
v 0.253125 0.096094 0.345195
v -0.253125 0.096094 0.345195
v 0.311719 0.124219 0.392070
v -0.311719 0.124219 0.392070
v 0.356250 0.145313 0.396757
v -0.356250 0.145313 0.396757
v 0.377344 0.147656 0.366288
v -0.377344 0.147656 0.366288
v 0.363281 0.145313 0.319413
v -0.363281 0.145313 0.319413
v 0.314063 0.126563 0.293632
v -0.314063 0.126563 0.293632
v 0.264844 0.079688 0.288945
v -0.264844 0.079688 0.288945
v 0.285938 0.103125 0.380351
v -0.285938 0.103125 0.380351
v 0.267188 0.098438 0.326445
v -0.267188 0.098438 0.326445
v 0.281250 0.100781 0.312382
v -0.281250 0.100781 0.312382
v 0.300000 0.110156 0.331132
v -0.300000 0.110156 0.331132
v 0.288281 0.105469 0.345195
v -0.288281 0.105469 0.345195
v 0.304688 0.112500 0.363945
v -0.304688 0.112500 0.363945
v 0.316406 0.114844 0.349882
v -0.316406 0.114844 0.349882
v 0.332813 0.117188 0.356913
v -0.332813 0.117188 0.356913
v 0.325781 0.117188 0.375663
v -0.325781 0.117188 0.375663
v 0.307031 0.145313 0.424882
v -0.307031 0.145313 0.424882
v 0.375000 0.164062 0.434257
v -0.375000 0.164062 0.434257
v 0.410156 0.150000 0.382695
v -0.410156 0.150000 0.382695
v 0.393750 0.159375 0.310038
v -0.393750 0.159375 0.310038
v 0.311719 0.147656 0.267851
v -0.311719 0.147656 0.267851
v 0.236719 0.098438 0.256132
v -0.236719 0.098438 0.256132
v 0.257812 0.114844 0.408476
v -0.257812 0.114844 0.408476
vt 0.9431 0.2291
vt 0.9434 0.2124
vt 0.9678 0.2037
vt 0.9684 0.2404
vt 0.8818 0.0539
vt 0.9058 0.0637
vt 0.9054 0.0805
vt 0.8796 0.0906
vt 0.9996 0.1978
vt 0.9972 0.2533
vt 0.8503 0.0467
vt 0.8503 0.1022
vt 0.9425 0.1779
vt 0.9600 0.1528
vt 0.8918 0.0035
vt 0.9082 0.0294
vt 0.9310 0.1990
vt 0.9188 0.0509
vt 0.9139 0.1987
vt 0.9073 0.1773
vt 0.9434 0.0303
vt 0.9359 0.0514
vt 0.8974 0.1466
vt 0.9547 0.0001
vt 0.8783 0.1996
vt 0.8503 0.1890
vt 0.9999 0.0445
vt 0.9714 0.0539
vt 0.9000 0.2098
vt 0.9493 0.0631
vt 0.9003 0.2287
vt 0.8796 0.2369
vt 0.9685 0.0911
vt 0.9482 0.0820
vt 0.8526 0.2522
vt 0.9948 0.1076
vt 0.9045 0.2629
vt 0.8975 0.2931
vt 0.9481 0.1464
vt 0.9424 0.1160
vt 0.9119 0.2415
vt 0.9360 0.0942
vt 0.9301 0.2417
vt 0.9406 0.2644
vt 0.9063 0.1159
vt 0.9178 0.0937
vt 0.9565 0.2931
vt 0.8891 0.1438
vt 0.9284 0.2386
vt 0.9404 0.2280
vt 0.9197 0.0906
vt 0.9081 0.0795
vt 0.9132 0.2364
vt 0.9349 0.0891
vt 0.9047 0.2266
vt 0.9438 0.0796
vt 0.9058 0.2126
vt 0.9434 0.0656
vt 0.9151 0.2035
vt 0.9345 0.0561
vt 0.9281 0.2033
vt 0.9215 0.0554
vt 0.9399 0.2132
vt 0.9093 0.0647
vt 0.9213 0.2196
vt 0.9276 0.0719
vt 0.3508 0.5455
vt 0.3510 0.5462
vt 0.3497 0.5467
vt 0.3495 0.5461
vt 0.3483 0.5471
vt 0.3481 0.5464
vt 0.3516 0.5450
vt 0.3515 0.5460
vt 0.3478 0.5472
vt 0.3471 0.5464
vt 0.3520 0.5450
vt 0.3524 0.5463
vt 0.3472 0.5480
vt 0.3467 0.5466
vt 0.3539 0.5450
vt 0.3535 0.5471
vt 0.3468 0.5495
vt 0.3450 0.5478
vt 0.3597 0.5447
vt 0.3593 0.5506
vt 0.3444 0.5573
vt 0.3386 0.5522
vt 0.3736 0.5433
vt 0.3818 0.5322
vt 0.3915 0.5382
vt 0.3862 0.5659
vt 0.2269 0.6307
vt 0.2697 0.5564
vt 0.3158 0.5700
vt 0.3555 0.6059
vt 0.3871 0.5231
vt 0.3925 0.5230
vt 0.1788 0.4966
vt 0.2314 0.5115
vt 0.3887 0.5125
vt 0.3951 0.5156
vt 0.1996 0.4104
vt 0.2611 0.4477
vt 0.3957 0.5079
vt 0.3990 0.5101
vt 0.2556 0.3575
vt 0.2782 0.3922
vt 0.3995 0.5054
vt 0.4023 0.5090
vt 0.2797 0.3240
vt 0.3012 0.3637
vt 0.4092 0.5004
vt 0.4140 0.5049
vt 0.4113 0.2870
vt 0.3781 0.3384
vt 0.4168 0.4961
vt 0.4196 0.5008
vt 0.4560 0.3374
vt 0.4278 0.3663
vt 0.4212 0.4941
vt 0.4244 0.4990
vt 0.4772 0.3673
vt 0.4460 0.3825
vt 0.4445 0.4816
vt 0.4495 0.5038
vt 0.5335 0.4453
vt 0.4730 0.4386
vt 0.4679 0.4680
vt 0.4953 0.5095
vt 0.4373 0.5142
vt 0.4260 0.5109
vt 0.6028 0.2775
vt 0.6192 0.4008
vt 0.4201 0.5109
vt 0.5408 0.2053
vt 0.4132 0.5119
vt 0.3950 0.1409
vt 0.4039 0.5130
vt 0.2241 0.2649
vt 0.4005 0.5151
vt 0.1782 0.3302
vt 0.3977 0.5195
vt 0.1299 0.4159
vt 0.3961 0.5294
vt 0.1434 0.5847
vt 0.3973 0.5385
vt 0.2215 0.6879
vt 0.4116 0.5530
vt 0.4067 0.8111
vt 0.4222 0.5547
vt 0.4138 0.5998
vt 0.4821 0.7921
vt 0.4463 0.5329
vt 0.6317 0.5737
vt 0.4721 0.5794
vt 0.4363 0.5496
vt 0.5623 0.7059
vt 0.3505 0.5472
vt 0.3499 0.5474
vt 0.3494 0.5476
vt 0.3512 0.5474
vt 0.3489 0.5482
vt 0.3520 0.5487
vt 0.3491 0.5498
vt 0.3564 0.5553
vt 0.3525 0.5490
vt 0.3490 0.5503
vt 0.3508 0.5581
vt 0.3638 0.5608
vt 0.3573 0.5632
vt 0.3538 0.5569
vt 0.3519 0.5689
vt 0.3510 0.5503
vt 0.3505 0.5491
vt 0.3704 0.5611
vt 0.3688 0.5649
vt 0.3654 0.5635
vt 0.3545 0.5716
vt 0.3553 0.5761
vt 0.3498 0.5772
vt 0.3771 0.5668
vt 0.3730 0.5681
vt 0.3587 0.5818
vt 0.3566 0.5877
vt 0.3740 0.5812
vt 0.3724 0.5729
vt 0.3643 0.5810
vt 0.3677 0.5772
vt 0.3664 0.5746
vt 0.3588 0.5654
vt 0.3656 0.5660
vt 0.3603 0.5675
vt 0.3572 0.5726
vt 0.3643 0.5724
vt 0.3699 0.5714
vt 0.3627 0.5782
vt 0.3707 0.5687
vt 0.3596 0.5789
vt 0.3679 0.5666
vt 0.3575 0.5753
vt 0.3709 0.5561
vt 0.3421 0.5763
vt 0.3656 0.5539
vt 0.3428 0.5671
vt 0.3654 0.5440
vt 0.3303 0.5576
vt 0.3690 0.5438
vt 0.3247 0.5624
vt 0.3505 0.5490
vt 0.3517 0.5486
vt 0.3493 0.5494
vt 0.3511 0.5476
vt 0.3491 0.5483
vt 0.3504 0.5474
vt 0.3496 0.5477
vt 0.3500 0.5475
vt 0.3504 0.5479
vt 0.3501 0.5479
vt 0.3499 0.5481
vt 0.3507 0.5480
vt 0.3497 0.5483
vt 0.3509 0.5483
vt 0.3497 0.5487
vt 0.3503 0.5485
vt 0.4221 0.5482
vt 0.4309 0.5432
vt 0.5201 0.8553
vt 0.6397 0.7603
vt 0.4345 0.5318
vt 0.7398 0.5940
vt 0.4315 0.5204
vt 0.7458 0.3895
vt 0.4136 0.5469
vt 0.3962 0.8717
vt 0.4018 0.5370
vt 0.1750 0.7536
vt 0.3999 0.5294
vt 0.0691 0.6205
vt 0.4000 0.5213
vt 0.0668 0.4181
vt 0.4030 0.5172
vt 0.1110 0.2763
vt 0.4057 0.5149
vt 0.1955 0.2042
vt 0.4136 0.5149
vt 0.4007 0.0532
vt 0.4194 0.5144
vt 0.5821 0.1226
vt 0.4246 0.5154
vt 0.6812 0.2282
vt 0.4274 0.5225
vt 0.4236 0.5174
vt 0.8500 0.3580
vt 0.7397 0.1932
vt 0.4191 0.5162
vt 0.6122 0.0677
vt 0.4137 0.5161
vt 0.4009 0.0001
vt 0.4067 0.5168
vt 0.1454 0.1379
vt 0.4041 0.5187
vt 0.0515 0.2513
vt 0.4019 0.5218
vt 0.0001 0.4016
vt 0.4015 0.5292
vt 0.0277 0.6385
vt 0.4035 0.5354
vt 0.1359 0.7852
vt 0.4144 0.5436
vt 0.3782 0.9334
vt 0.4219 0.5433
vt 0.5704 0.9334
vt 0.4304 0.5312
vt 0.8231 0.6078
vt 0.4270 0.5393
vt 0.7365 0.8297
vt 0.4228 0.4669
vt 0.4297 0.4555
vt 0.4266 0.4357
vt 0.4171 0.4893
vt 0.4251 0.3950
vt 0.4133 0.4936
vt 0.4092 0.3790
vt 0.4044 0.4947
vt 0.3687 0.3804
vt 0.3957 0.5019
vt 0.3169 0.3957
vt 0.3927 0.5052
vt 0.2968 0.4103
vt 0.3858 0.5112
vt 0.2770 0.4563
vt 0.3820 0.5202
vt 0.2656 0.5030
vt 0.3789 0.5290
vt 0.2772 0.5396
vt 0.3472 0.5374
vt 0.3466 0.5334
vt 0.3562 0.5308
vt 0.3519 0.5371
vt 0.3350 0.5329
vt 0.3425 0.5389
vt 0.3486 0.5431
vt 0.3505 0.5425
vt 0.3466 0.5435
vt 0.3492 0.5452
vt 0.3505 0.5447
vt 0.3479 0.5455
vt 0.3515 0.5444
vt 0.3468 0.5458
vt 0.3526 0.5429
vt 0.3449 0.5451
vt 0.3563 0.5388
vt 0.3383 0.5430
vt 0.3622 0.5372
vt 0.3288 0.5443
vt 0.3660 0.5370
vt 0.3693 0.5385
vt 0.3170 0.5534
vt 0.3218 0.5465
vt 0.3723 0.5396
vt 0.3121 0.5599
vt 0.3541 0.4956
vt 0.3592 0.4990
vt 0.3581 0.5032
vt 0.3519 0.5003
vt 0.3444 0.4978
vt 0.3474 0.4933
vt 0.3570 0.5104
vt 0.3490 0.5084
vt 0.3399 0.5061
vt 0.3564 0.5261
vt 0.3462 0.5289
vt 0.3337 0.5266
vt 0.3737 0.5110
vt 0.3776 0.5042
vt 0.3138 0.4890
vt 0.3211 0.4707
vt 0.3578 0.4892
vt 0.3634 0.4942
vt 0.3497 0.4856
vt 0.3823 0.4662
vt 0.3835 0.4835
vt 0.3753 0.4851
vt 0.3703 0.4747
vt 0.3589 0.4669
vt 0.3638 0.4545
vt 0.3695 0.4878
vt 0.3622 0.4830
vt 0.3554 0.4752
vt 0.3890 0.5017
vt 0.3891 0.4970
vt 0.3147 0.4281
vt 0.3337 0.4288
vt 0.3810 0.4970
vt 0.3800 0.4913
vt 0.3353 0.4565
vt 0.3485 0.4581
vt 0.3756 0.4951
vt 0.3740 0.4911
vt 0.3419 0.4677
vt 0.3496 0.4693
vt 0.3710 0.4959
vt 0.3694 0.4925
vt 0.3430 0.4761
vt 0.3490 0.4769
vt 0.3678 0.4999
vt 0.3653 0.4972
vt 0.3449 0.4850
vt 0.3395 0.4837
vt 0.3983 0.4904
vt 0.3643 0.4062
vt 0.4145 0.4547
vt 0.3761 0.5015
vt 0.3286 0.4711
vt 0.3724 0.5003
vt 0.3345 0.4768
vt 0.3617 0.5100
vt 0.3668 0.5205
vt 0.3341 0.5021
vt 0.3171 0.5152
vt 0.3660 0.5088
vt 0.3295 0.4964
vt 0.3648 0.5026
vt 0.3618 0.5011
vt 0.3431 0.4923
vt 0.3386 0.4905
vt 0.3696 0.5016
vt 0.3702 0.5011
vt 0.3704 0.5014
vt 0.3698 0.5017
vt 0.3348 0.4813
vt 0.3355 0.4813
vt 0.3353 0.4828
vt 0.3350 0.4826
vt 0.3694 0.5020
vt 0.3692 0.5019
vt 0.3350 0.4835
vt 0.3352 0.4837
vt 0.3692 0.5022
vt 0.3692 0.5021
vt 0.3348 0.4839
vt 0.3350 0.4840
vt 0.3691 0.5025
vt 0.3690 0.5024
vt 0.3346 0.4845
vt 0.3348 0.4845
vt 0.3688 0.5032
vt 0.3685 0.5031
vt 0.3338 0.4857
vt 0.3342 0.4860
vt 0.3686 0.5049
vt 0.3680 0.5053
vt 0.3314 0.4880
vt 0.3316 0.4894
vt 0.3690 0.5030
vt 0.3690 0.5043
vt 0.3320 0.4867
vt 0.3338 0.4851
vt 0.3692 0.5025
vt 0.3344 0.4844
vt 0.3693 0.5022
vt 0.3347 0.4840
vt 0.3694 0.5021
vt 0.3347 0.4836
vt 0.3698 0.5020
vt 0.3345 0.4829
vt 0.3703 0.5020
vt 0.3339 0.4820
vt 0.3698 0.5065
vt 0.3717 0.5080
vt 0.3275 0.4881
vt 0.3223 0.4872
vt 0.3718 0.5016
vt 0.3330 0.4792
vt 0.3696 0.5044
vt 0.3310 0.4858
vt 0.3699 0.5042
vt 0.3707 0.5057
vt 0.3276 0.4858
vt 0.3310 0.4852
vt 0.3707 0.5042
vt 0.3702 0.5040
vt 0.3300 0.4840
vt 0.3308 0.4845
vt 0.3710 0.5032
vt 0.3722 0.5033
vt 0.3298 0.4804
vt 0.3312 0.4823
vt 0.3709 0.5024
vt 0.3327 0.4816
vt 0.3705 0.5026
vt 0.3701 0.5022
vt 0.3328 0.4825
vt 0.3338 0.4826
vt 0.3706 0.5032
vt 0.3318 0.4830
vt 0.3705 0.5038
vt 0.3308 0.4839
vt 0.3701 0.5037
vt 0.3314 0.4843
vt 0.3697 0.5039
vt 0.3316 0.4852
vt 0.3697 0.5042
vt 0.3313 0.4855
vt 0.3692 0.5040
vt 0.3320 0.4861
vt 0.3697 0.5022
vt 0.3344 0.4832
vt 0.3694 0.5022
vt 0.3346 0.4837
vt 0.3693 0.5023
vt 0.3345 0.4840
vt 0.3692 0.5025
vt 0.3344 0.4843
vt 0.3692 0.5029
vt 0.3338 0.4848
vt 0.3696 0.5033
vt 0.3700 0.5033
vt 0.3327 0.4846
vt 0.3322 0.4840
vt 0.3696 0.5028
vt 0.3699 0.5028
vt 0.3334 0.4840
vt 0.3331 0.4836
vt 0.3696 0.5026
vt 0.3698 0.5024
vt 0.3338 0.4837
vt 0.3338 0.4834
vt 0.3695 0.5024
vt 0.3696 0.5023
vt 0.3341 0.4838
vt 0.3342 0.4835
vt 0.3664 0.5037
vt 0.3684 0.5025
vt 0.3356 0.4897
vt 0.3353 0.4856
vt 0.3689 0.5022
vt 0.3351 0.4844
vt 0.3691 0.5021
vt 0.3351 0.4841
vt 0.3691 0.5020
vt 0.3352 0.4839
vt 0.3691 0.5016
vt 0.3358 0.4836
vt 0.3690 0.5003
vt 0.3379 0.4824
vn 0.6650 -0.7194 -0.2008
vn -0.6650 -0.7194 -0.2008
vn 0.8294 -0.4689 -0.3036
vn -0.8294 -0.4689 -0.3036
vn 0.4155 -0.4449 -0.7933
vn -0.4155 -0.4449 -0.7933
vn 0.3600 -0.7820 -0.5089
vn -0.3600 -0.7820 -0.5089
vn -0.0787 -0.8384 -0.5394
vn 0.0787 -0.8384 -0.5394
vn -0.2696 -0.4685 -0.8413
vn 0.2696 -0.4685 -0.8413
vn -0.7707 -0.5420 -0.3352
vn 0.7707 -0.5420 -0.3352
vn -0.4689 -0.8617 -0.1940
vn 0.4689 -0.8617 -0.1940
vn -0.4767 -0.8581 0.1907
vn 0.4767 -0.8581 0.1907
vn -0.7672 -0.5521 0.3264
vn 0.7672 -0.5521 0.3264
vn -0.2519 -0.5182 0.8173
vn 0.2519 -0.5182 0.8173
vn -0.0949 -0.8164 0.5696
vn 0.0949 -0.8164 0.5696
vn 0.3667 -0.7597 0.5370
vn -0.3667 -0.7597 0.5370
vn 0.4141 -0.4898 0.7672
vn -0.4141 -0.4898 0.7672
vn 0.8277 -0.4771 0.2952
vn -0.8277 -0.4771 0.2952
vn 0.6713 -0.7145 0.1971
vn -0.6713 -0.7145 0.1971
vn 0.8111 0.4867 0.3244
vn -0.8111 0.4867 0.3244
vn 0.2052 0.5334 0.8206
vn -0.2052 0.5334 0.8206
vn -0.4223 0.4607 0.7806
vn 0.4223 0.4607 0.7806
vn -0.8241 0.4658 0.3225
vn 0.8241 0.4658 0.3225
vn -0.8137 0.4650 -0.3487
vn 0.8137 0.4650 -0.3487
vn -0.4223 0.4607 -0.7806
vn 0.4223 0.4607 -0.7806
vn 0.2052 0.5334 -0.8206
vn -0.2052 0.5334 -0.8206
vn 0.7995 0.4875 -0.3510
vn -0.7995 0.4875 -0.3510
vn 0.4000 -0.9144 -0.0623
vn -0.4000 -0.9144 -0.0623
vn 0.3069 -0.9354 -0.1754
vn -0.3069 -0.9354 -0.1754
vn 0.0945 -0.9785 -0.1835
vn -0.0945 -0.9785 -0.1835
vn -0.0624 -0.9977 -0.0283
vn 0.0624 -0.9977 -0.0283
vn -0.0624 -0.9977 0.0260
vn 0.0624 -0.9977 0.0260
vn 0.0996 -0.9799 0.1729
vn -0.0996 -0.9799 0.1729
vn 0.3036 -0.9383 0.1656
vn -0.3036 -0.9383 0.1656
vn 0.4002 -0.9147 0.0572
vn -0.4002 -0.9147 0.0572
vn 0.1231 -0.4924 -0.8616
vn -0.1231 -0.4924 -0.8616
vn 0.2190 -0.4520 -0.8647
vn -0.2190 -0.4520 -0.8647
vn 0.5902 -0.6668 -0.4550
vn -0.5902 -0.6668 -0.4550
vn 0.7689 -0.6374 -0.0506
vn -0.7689 -0.6374 -0.0506
vn 0.7796 -0.6197 0.0900
vn -0.7796 -0.6197 0.0900
vn 0.3241 -0.4739 -0.8188
vn -0.3241 -0.4739 -0.8188
vn 0.3857 -0.6417 -0.6629
vn -0.3857 -0.6417 -0.6629
vn 0.6895 -0.5906 -0.4193
vn -0.6895 -0.5906 -0.4193
vn 0.6588 -0.6588 -0.3634
vn -0.6588 -0.6588 -0.3634
vn 0.5465 -0.7509 0.3707
vn -0.5465 -0.7509 0.3707
vn 0.5064 -0.5706 0.6464
vn -0.5064 -0.5706 0.6464
vn 0.6092 -0.6015 0.5167
vn -0.6092 -0.6015 0.5167
vn -0.0441 -0.7491 0.6610
vn 0.0441 -0.7491 0.6610
vn -0.7246 -0.6110 0.3187
vn 0.7246 -0.6110 0.3187
vn -0.5880 -0.5880 0.5554
vn 0.5880 -0.5880 0.5554
vn 0.5361 -0.7482 -0.3909
vn -0.5361 -0.7482 -0.3909
vn 0.2207 -0.8552 -0.4690
vn -0.2207 -0.8552 -0.4690
vn -0.0794 -0.8429 -0.5321
vn 0.0794 -0.8429 -0.5321
vn -0.0825 -0.7490 -0.6575
vn 0.0825 -0.7490 -0.6575
vn 0.0457 -0.8226 -0.5667
vn -0.0457 -0.8226 -0.5667
vn 0.2784 -0.9365 -0.2130
vn -0.2784 -0.9365 -0.2130
vn 0.3813 -0.9063 -0.1824
vn -0.3813 -0.9063 -0.1824
vn 0.3357 -0.8969 -0.2878
vn -0.3357 -0.8969 -0.2878
vn 0.3762 -0.9246 0.0603
vn -0.3762 -0.9246 0.0603
vn -0.1352 -0.9539 0.2680
vn 0.1352 -0.9539 0.2680
vn 0.3961 -0.8102 -0.4321
vn -0.3961 -0.8102 -0.4321
vn 0.1856 -0.9510 -0.2474
vn -0.1856 -0.9510 -0.2474
vn 0.0099 -0.9808 -0.1948
vn -0.0099 -0.9808 -0.1948
vn 0.0721 -0.7138 -0.6966
vn -0.0721 -0.7138 -0.6966
vn 0.1863 -0.7986 -0.5723
vn -0.1863 -0.7986 -0.5723
vn 0.3157 -0.9094 -0.2708
vn -0.3157 -0.9094 -0.2708
vn 0.3063 -0.9516 -0.0265
vn -0.3063 -0.9516 -0.0265
vn 0.3266 -0.9361 -0.1306
vn -0.3266 -0.9361 -0.1306
vn -0.0137 -0.9983 0.0574
vn 0.0137 -0.9983 0.0574
vn -0.0026 -0.9978 -0.0656
vn 0.0026 -0.9978 -0.0656
vn 0.0000 -1.0000 0.0000
vn 0.8174 0.0442 -0.5744
vn -0.8174 0.0442 -0.5744
vn 0.9494 0.2144 0.2297
vn -0.9494 0.2144 0.2297
vn 0.0825 0.4124 0.9073
vn -0.0825 0.4124 0.9073
vn -0.8836 -0.3047 0.3555
vn 0.8836 -0.3047 0.3555
vn 0.4207 -0.2218 -0.8797
vn -0.4207 -0.2218 -0.8797
vn 0.2873 -0.7663 -0.5747
vn -0.2873 -0.7663 -0.5747
vn -0.6542 -0.4580 0.6019
vn 0.6542 -0.4580 0.6019
vn 0.1052 -0.6051 0.7892
vn -0.1052 -0.6051 0.7892
vn 0.7582 -0.5832 0.2916
vn -0.7582 -0.5832 0.2916
vn 0.3889 -0.5834 -0.7130
vn -0.3889 -0.5834 -0.7130
vn 0.0463 -0.9718 0.2314
vn -0.0463 -0.9718 0.2314
vn 0.0335 -0.9151 -0.4018
vn -0.0335 -0.9151 -0.4018
vn -0.4452 -0.8809 -0.1610
vn 0.4452 -0.8809 -0.1610
vn -0.2182 -0.8729 -0.4364
vn 0.2182 -0.8729 -0.4364
vn 0.4341 -0.8916 -0.1290
vn -0.4341 -0.8916 -0.1290
vn 0.3008 -0.9524 0.0501
vn -0.3008 -0.9524 0.0501
vn 0.8123 -0.4996 0.3010
vn -0.8123 -0.4996 0.3010
vn 0.8753 -0.4093 0.2574
vn -0.8753 -0.4093 0.2574
vn 0.9385 -0.3060 0.1601
vn -0.9385 -0.3060 0.1601
vn 0.2237 -0.7227 -0.6539
vn -0.2237 -0.7227 -0.6539
vn -0.1536 -0.9677 -0.1997
vn 0.1536 -0.9677 -0.1997
vn -0.2733 -0.9565 -0.1025
vn 0.2733 -0.9565 -0.1025
vn -0.0976 -0.9759 0.1952
vn 0.0976 -0.9759 0.1952
vn -0.1582 -0.2713 0.9494
vn 0.1582 -0.2713 0.9494
vn -0.6934 -0.1328 0.7082
vn 0.6934 -0.1328 0.7082
vn -1.0000 0.0000 0.0000
vn 1.0000 0.0000 0.0000
vn 0.3051 -0.1181 -0.9450
vn -0.3051 -0.1181 -0.9450
vn 0.0298 -0.9541 -0.2981
vn -0.0298 -0.9541 -0.2981
vn 0.1353 -0.9277 -0.3479
vn -0.1353 -0.9277 -0.3479
vn -0.5085 -0.8158 -0.2755
vn 0.5085 -0.8158 -0.2755
vn -0.3843 -0.9223 -0.0419
vn 0.3843 -0.9223 -0.0419
vn -0.2083 -0.9774 0.0374
vn 0.2083 -0.9774 0.0374
vn -0.5721 -0.6674 -0.4767
vn 0.5721 -0.6674 -0.4767
vn -0.1369 -0.6435 -0.7531
vn 0.1369 -0.6435 -0.7531
vn 0.4088 -0.6814 -0.6071
vn -0.4088 -0.6814 -0.6071
vn 0.5740 -0.7070 -0.4130
vn -0.5740 -0.7070 -0.4130
vn 0.5665 -0.8183 -0.0968
vn -0.5665 -0.8183 -0.0968
vn 0.5703 -0.8129 0.1180
vn -0.5703 -0.8129 0.1180
vn 0.4823 -0.6719 0.5621
vn -0.4823 -0.6719 0.5621
vn 0.2604 -0.7473 0.6114
vn -0.2604 -0.7473 0.6114
vn 0.1640 -0.9182 0.3607
vn -0.1640 -0.9182 0.3607
vn -0.0178 -0.9682 0.2495
vn 0.0178 -0.9682 0.2495
vn 0.3273 -0.8481 -0.4166
vn -0.3273 -0.8481 -0.4166
vn 0.2811 -0.9235 -0.2610
vn -0.2811 -0.9235 -0.2610
vn -0.2542 -0.7149 -0.6514
vn 0.2542 -0.7149 -0.6514
vn -0.0260 -0.5333 -0.8455
vn 0.0260 -0.5333 -0.8455
vn -0.3518 -0.8991 -0.2606
vn 0.3518 -0.8991 -0.2606
vn -0.3523 -0.9358 -0.0110
vn 0.3523 -0.9358 -0.0110
vn -0.1317 -0.8777 0.4608
vn 0.1317 -0.8777 0.4608
vn -0.0342 -0.7870 0.6159
vn 0.0342 -0.7870 0.6159
vn 0.3603 -0.7277 0.5836
vn -0.3603 -0.7277 0.5836
vn 0.4988 -0.6858 0.5300
vn -0.4988 -0.6858 0.5300
vn 0.6667 -0.6667 -0.3333
vn -0.6667 -0.6667 -0.3333
vn 0.8165 -0.5727 -0.0731
vn -0.8165 -0.5727 -0.0731
vn 0.7840 -0.6098 0.1161
vn -0.7840 -0.6098 0.1161
vn -0.5306 0.2461 0.8111
vn 0.5306 0.2461 0.8111
vn -0.8511 0.3730 0.3695
vn 0.8511 0.3730 0.3695
vn -0.2446 0.4331 0.8675
vn 0.2446 0.4331 0.8675
vn 0.5924 0.3030 0.7465
vn -0.5924 0.3030 0.7465
vn 0.3685 0.3118 0.8758
vn -0.3685 0.3118 0.8758
vn 0.2821 0.2880 0.9151
vn -0.2821 0.2880 0.9151
vn 0.8561 0.4991 0.1340
vn -0.8561 0.4991 0.1340
vn 0.5342 0.4376 -0.7233
vn -0.5342 0.4376 -0.7233
vn 0.3849 0.4368 -0.8131
vn -0.3849 0.4368 -0.8131
vn 0.2335 0.7800 -0.5806
vn -0.2335 0.7800 -0.5806
vn 0.2449 0.9678 -0.0583
vn -0.2449 0.9678 -0.0583
vn 0.1163 0.8837 -0.4535
vn -0.1163 0.8837 -0.4535
vn 0.1152 0.1388 -0.9836
vn -0.1152 0.1388 -0.9836
vn 0.1184 0.2260 -0.9669
vn -0.1184 0.2260 -0.9669
vn 0.9597 0.2808 -0.0085
vn -0.9597 0.2808 -0.0085
vn 0.9319 0.3242 0.1629
vn -0.9319 0.3242 0.1629
vn 0.1626 0.9865 0.0207
vn -0.1626 0.9865 0.0207
vn -0.0188 0.9758 -0.2177
vn 0.0188 0.9758 -0.2177
vn 0.7538 0.5884 -0.2926
vn -0.7538 0.5884 -0.2926
vn 0.9196 0.3678 0.1379
vn -0.9196 0.3678 0.1379
vn 0.9297 0.1944 0.3127
vn -0.9297 0.1944 0.3127
vn 0.9120 0.2329 0.3376
vn -0.9120 0.2329 0.3376
vn 0.9407 0.0607 0.3338
vn -0.9407 0.0607 0.3338
vn 0.1761 0.4402 -0.8805
vn -0.1761 0.4402 -0.8805
vn 0.3708 0.7991 -0.4733
vn -0.3708 0.7991 -0.4733
vn 0.3107 0.4660 -0.8284
vn -0.3107 0.4660 -0.8284
vn 0.2793 0.1287 -0.9515
vn -0.2793 0.1287 -0.9515
vn 0.3139 0.1807 -0.9321
vn -0.3139 0.1807 -0.9321
vn 0.9762 0.0609 -0.2083
vn -0.9762 0.0609 -0.2083
vn 0.8267 -0.2447 -0.5066
vn -0.8267 -0.2447 -0.5066
vn 0.3449 0.9315 -0.1158
vn -0.3449 0.9315 -0.1158
vn 0.1203 -0.2355 0.9644
vn -0.1203 -0.2355 0.9644
vn 0.1275 0.1851 0.9744
vn -0.1275 0.1851 0.9744
vn 0.3492 0.7241 0.5947
vn -0.3492 0.7241 0.5947
vn 0.4153 0.1449 0.8981
vn -0.4153 0.1449 0.8981
vn 0.1845 -0.6863 0.7036
vn -0.1845 -0.6863 0.7036
vn 0.6056 -0.1608 0.7794
vn -0.6056 -0.1608 0.7794
vn 0.7033 0.2053 0.6806
vn -0.7033 0.2053 0.6806
vn 0.6679 0.7166 0.2007
vn -0.6679 0.7166 0.2007
vn 0.4948 0.7528 0.4342
vn -0.4948 0.7528 0.4342
vn 0.6423 0.1761 0.7459
vn -0.6423 0.1761 0.7459
vn 0.7182 -0.1530 0.6788
vn -0.7182 -0.1530 0.6788
vn 0.7388 -0.5444 0.3972
vn -0.7388 -0.5444 0.3972
vn 0.3428 0.1579 0.9261
vn -0.3428 0.1579 0.9261
vn 0.2270 -0.7867 0.5740
vn -0.2270 -0.7867 0.5740
vn -0.1722 0.9795 0.1046
vn 0.1722 0.9795 0.1046
vn 0.0425 -0.4013 0.9150
vn -0.0425 -0.4013 0.9150
vn -0.1616 -0.9694 0.1847
vn 0.1616 -0.9694 0.1847
vn 0.9791 -0.0483 0.1973
vn -0.9791 -0.0483 0.1973
vn 0.9470 -0.3079 0.0918
vn -0.9470 -0.3079 0.0918
vn 0.9794 0.0661 0.1905
vn -0.9794 0.0661 0.1905
vn 0.9938 0.1070 0.0312
vn -0.9938 0.1070 0.0312
vn 0.7116 -0.0501 -0.7008
vn -0.7116 -0.0501 -0.7008
vn 0.3722 -0.0847 -0.9243
vn -0.3722 -0.0847 -0.9243
vn 0.4465 -0.2310 -0.8644
vn -0.4465 -0.2310 -0.8644
vn 0.6066 -0.2405 -0.7578
vn -0.6066 -0.2405 -0.7578
vn 0.7325 -0.2407 -0.6368
vn -0.7325 -0.2407 -0.6368
vn 0.2637 -0.8533 -0.4499
vn -0.2637 -0.8533 -0.4499
vn 0.5568 0.7673 -0.3181
vn -0.5568 0.7673 -0.3181
vn 0.5004 0.8190 -0.2807
vn -0.5004 0.8190 -0.2807
vn 0.3190 0.4205 -0.8494
vn -0.3190 0.4205 -0.8494
vn 0.7198 0.2793 -0.6356
vn -0.7198 0.2793 -0.6356
vn 0.4972 0.7473 -0.4408
vn -0.4972 0.7473 -0.4408
vn 0.3506 -0.8557 0.3807
vn -0.3506 -0.8557 0.3807
vn 0.4566 -0.8730 0.1715
vn -0.4566 -0.8730 0.1715
vn 0.2583 -0.9603 0.1055
vn -0.2583 -0.9603 0.1055
vn 0.2455 -0.9661 -0.0802
vn -0.2455 -0.9661 -0.0802
vn 0.4643 -0.8837 -0.0599
vn -0.4643 -0.8837 -0.0599
vn 0.6225 -0.7210 -0.3045
vn -0.6225 -0.7210 -0.3045
vn 0.4500 -0.6027 0.6590
vn -0.4500 -0.6027 0.6590
vn -0.2667 -0.4884 0.8309
vn 0.2667 -0.4884 0.8309
vn -0.8284 -0.5111 0.2291
vn 0.8284 -0.5111 0.2291
vn -0.5251 -0.7727 -0.3566
vn 0.5251 -0.7727 -0.3566
vn 0.4546 -0.6873 -0.5665
vn -0.4546 -0.6873 -0.5665
vn 0.6996 -0.5552 -0.4497
vn -0.6996 -0.5552 -0.4497
vn 0.7220 0.1126 -0.6827
vn -0.7220 0.1126 -0.6827
vn -0.1919 -0.9388 0.2860
vn 0.1919 -0.9388 0.2860
vn 0.9048 0.2047 -0.3734
vn -0.9048 0.2047 -0.3734
vn 0.1034 -0.9825 0.1551
vn -0.1034 -0.9825 0.1551
vn 0.0841 -0.3530 0.9318
vn -0.0841 -0.3530 0.9318
vn 0.6446 -0.7594 -0.0883
vn -0.6446 -0.7594 -0.0883
vn 0.4309 -0.7678 0.4740
vn -0.4309 -0.7678 0.4740
vn 0.8032 -0.3462 -0.4847
vn -0.8032 -0.3462 -0.4847
vn 0.5811 -0.7014 -0.4128
vn -0.5811 -0.7014 -0.4128
vn 0.5910 -0.6822 -0.4305
vn -0.5910 -0.6822 -0.4305
vn 0.9818 0.0591 -0.1804
vn -0.9818 0.0591 -0.1804
vn 0.9105 0.1175 -0.3965
vn -0.9105 0.1175 -0.3965
vn 0.9972 0.0725 -0.0181
vn -0.9972 0.0725 -0.0181
vn 0.7313 -0.1925 -0.6543
vn -0.7313 -0.1925 -0.6543
vn 0.7867 -0.1073 -0.6079
vn -0.7867 -0.1073 -0.6079
vn 0.7022 -0.1170 -0.7022
vn -0.7022 -0.1170 -0.7022
vn 0.1840 0.0511 0.9816
vn -0.1840 0.0511 0.9816
vn 0.9352 -0.1284 0.3301
vn -0.9352 -0.1284 0.3301
vn 0.6633 -0.0553 -0.7463
vn -0.6633 -0.0553 -0.7463
vn -0.0085 -0.0767 0.9970
vn 0.0085 -0.0767 0.9970
vn 0.6237 -0.3354 -0.7061
vn -0.6237 -0.3354 -0.7061
vn 0.2733 -0.3587 -0.8925
vn -0.2733 -0.3587 -0.8925
vn -0.8328 0.2200 -0.5080
vn 0.8328 0.2200 -0.5080
vn -0.8339 0.4981 0.2377
vn 0.8339 0.4981 0.2377
vn -0.5655 0.2539 0.7847
vn 0.5655 0.2539 0.7847
vn -0.0560 -0.0672 0.9962
vn 0.0560 -0.0672 0.9962
vn 0.1445 -0.9893 0.0222
vn -0.1445 -0.9893 0.0222
vn 0.3275 -0.9427 0.0645
vn -0.3275 -0.9427 0.0645
vn 0.3127 -0.9496 0.0232
vn -0.3127 -0.9496 0.0232
vn 0.1710 -0.9849 0.0274
vn -0.1710 -0.9849 0.0274
vn 0.3487 -0.8929 0.2849
vn -0.3487 -0.8929 0.2849
vn 0.4006 -0.9156 -0.0343
vn -0.4006 -0.9156 -0.0343
vn 0.2572 -0.9645 -0.0603
vn -0.2572 -0.9645 -0.0603
vn 0.0637 -0.9979 -0.0106
vn -0.0637 -0.9979 -0.0106
vn -0.3637 -0.6101 0.7039
vn 0.3637 -0.6101 0.7039
vn 0.6299 -0.7759 0.0355
vn -0.6299 -0.7759 0.0355
vn 0.4472 -0.8717 -0.2002
vn -0.4472 -0.8717 -0.2002
vn 0.5072 -0.8348 -0.2141
vn -0.5072 -0.8348 -0.2141
vn 0.5258 -0.8093 0.2619
vn -0.5258 -0.8093 0.2619
vn 0.2980 -0.7580 0.5802
vn -0.2980 -0.7580 0.5802
vn 0.0930 0.0805 -0.9924
vn -0.0930 0.0805 -0.9924
vn 0.5006 -0.0080 -0.8657
vn -0.5006 -0.0080 -0.8657
vn 0.9285 -0.2748 -0.2497
vn -0.9285 -0.2748 -0.2497
vn 0.8393 0.0378 0.5424
vn -0.8393 0.0378 0.5424
vn -0.2355 0.2589 0.9367
vn 0.2355 0.2589 0.9367
vn -0.4499 0.1285 0.8838
vn 0.4499 0.1285 0.8838
vn -0.5384 0.8427 -0.0098
vn 0.5384 0.8427 -0.0098
vn -0.1910 0.9813 -0.0241
vn 0.1910 0.9813 -0.0241
vn 0.4046 0.9141 0.0266
vn -0.4046 0.9141 0.0266
vn -0.7819 -0.0197 0.6231
vn 0.7819 -0.0197 0.6231
vn 0.5428 0.8142 -0.2063
vn -0.5428 0.8142 -0.2063
vn -0.2474 0.2945 -0.9231
vn 0.2474 0.2945 -0.9231
s off
f 47/1/1 1/2/1 3/3/1 45/4/1
f 4/5/2 2/6/2 48/7/2 46/8/2
f 45/4/3 3/3/3 5/9/3 43/10/3
f 6/11/4 4/5/4 46/8/4 44/12/4
f 3/3/5 9/13/5 7/14/5 5/9/5
f 8/15/6 10/16/6 4/5/6 6/11/6
f 1/2/7 11/17/7 9/13/7 3/3/7
f 10/16/8 12/18/8 2/6/8 4/5/8
f 11/17/9 13/19/9 15/20/9 9/13/9
f 16/21/10 14/22/10 12/18/10 10/16/10
f 9/13/11 15/20/11 17/23/11 7/14/11
f 18/24/12 16/21/12 10/16/12 8/15/12
f 15/20/13 21/25/13 19/26/13 17/23/13
f 20/27/14 22/28/14 16/21/14 18/24/14
f 13/19/15 23/29/15 21/25/15 15/20/15
f 22/28/16 24/30/16 14/22/16 16/21/16
f 23/29/17 25/31/17 27/32/17 21/25/17
f 28/33/18 26/34/18 24/30/18 22/28/18
f 21/25/19 27/32/19 29/35/19 19/26/19
f 30/36/20 28/33/20 22/28/20 20/27/20
f 27/32/21 33/37/21 31/38/21 29/35/21
f 32/39/22 34/40/22 28/33/22 30/36/22
f 25/31/23 35/41/23 33/37/23 27/32/23
f 34/40/24 36/42/24 26/34/24 28/33/24
f 35/41/25 37/43/25 39/44/25 33/37/25
f 40/45/26 38/46/26 36/42/26 34/40/26
f 33/37/27 39/44/27 41/47/27 31/38/27
f 42/48/28 40/45/28 34/40/28 32/39/28
f 39/44/29 45/4/29 43/10/29 41/47/29
f 44/12/30 46/8/30 40/45/30 42/48/30
f 37/43/31 47/1/31 45/4/31 39/44/31
f 46/8/32 48/7/32 38/46/32 40/45/32
f 47/1/33 37/43/33 51/49/33 49/50/33
f 52/51/34 38/46/34 48/7/34 50/52/34
f 37/43/35 35/41/35 53/53/35 51/49/35
f 54/54/36 36/42/36 38/46/36 52/51/36
f 35/41/37 25/31/37 55/55/37 53/53/37
f 56/56/38 26/34/38 36/42/38 54/54/38
f 25/31/39 23/29/39 57/57/39 55/55/39
f 58/58/40 24/30/40 26/34/40 56/56/40
f 23/29/41 13/19/41 59/59/41 57/57/41
f 60/60/42 14/22/42 24/30/42 58/58/42
f 13/19/43 11/17/43 63/61/43 59/59/43
f 64/62/44 12/18/44 14/22/44 60/60/44
f 11/17/45 1/2/45 65/63/45 63/61/45
f 66/64/46 2/6/46 12/18/46 64/62/46
f 1/2/47 47/1/47 49/50/47 65/63/47
f 50/52/48 48/7/48 2/6/48 66/64/48
f 61/65/49 65/63/49 49/50/49
f 50/52/50 66/64/50 62/66/50
f 63/61/51 65/63/51 61/65/51
f 62/66/52 66/64/52 64/62/52
f 61/65/53 59/59/53 63/61/53
f 64/62/54 60/60/54 62/66/54
f 61/65/55 57/57/55 59/59/55
f 60/60/56 58/58/56 62/66/56
f 61/65/57 55/55/57 57/57/57
f 58/58/58 56/56/58 62/66/58
f 61/65/59 53/53/59 55/55/59
f 56/56/60 54/54/60 62/66/60
f 61/65/61 51/49/61 53/53/61
f 54/54/62 52/51/62 62/66/62
f 61/65/63 49/50/63 51/49/63
f 52/51/64 50/52/64 62/66/64
f 89/67/65 174/68/65 176/69/65 91/70/65
f 176/69/66 175/71/66 90/72/66 91/70/66
f 87/73/67 172/74/67 174/68/67 89/67/67
f 175/71/68 173/75/68 88/76/68 90/72/68
f 85/77/69 170/78/69 172/74/69 87/73/69
f 173/75/70 171/79/70 86/80/70 88/76/70
f 83/81/71 168/82/71 170/78/71 85/77/71
f 171/79/72 169/83/72 84/84/72 86/80/72
f 81/85/73 166/86/73 168/82/73 83/81/73
f 169/83/74 167/87/74 82/88/74 84/84/74
f 79/89/75 92/90/75 146/91/75 164/92/75
f 147/93/76 93/94/76 80/95/76 165/96/76
f 92/90/77 94/97/77 148/98/77 146/91/77
f 149/99/78 95/100/78 93/94/78 147/93/78
f 94/97/79 96/101/79 150/102/79 148/98/79
f 151/103/80 97/104/80 95/100/80 149/99/80
f 96/101/81 98/105/81 152/106/81 150/102/81
f 153/107/82 99/108/82 97/104/82 151/103/82
f 98/105/83 100/109/83 154/110/83 152/106/83
f 155/111/84 101/112/84 99/108/84 153/107/84
f 100/109/85 102/113/85 156/114/85 154/110/85
f 157/115/86 103/116/86 101/112/86 155/111/86
f 102/113/87 104/117/87 158/118/87 156/114/87
f 159/119/88 105/120/88 103/116/88 157/115/88
f 104/117/89 106/121/89 160/122/89 158/118/89
f 161/123/90 107/124/90 105/120/90 159/119/90
f 106/121/91 108/125/91 162/126/91 160/122/91
f 163/127/92 109/128/92 107/124/92 161/123/92
f 108/125/93 67/129/93 68/130/93 162/126/93
f 68/130/94 67/129/94 109/128/94 163/127/94
f 110/131/95 128/132/95 160/122/95 162/126/95
f 161/123/96 129/133/96 111/134/96 163/127/96
f 128/132/97 179/135/97 158/118/97 160/122/97
f 159/119/98 180/136/98 129/133/98 161/123/98
f 126/137/99 156/114/99 158/118/99 179/135/99
f 159/119/100 157/115/100 127/138/100 180/136/100
f 124/139/101 154/110/101 156/114/101 126/137/101
f 157/115/102 155/111/102 125/140/102 127/138/102
f 122/141/103 152/106/103 154/110/103 124/139/103
f 155/111/104 153/107/104 123/142/104 125/140/104
f 120/143/105 150/102/105 152/106/105 122/141/105
f 153/107/106 151/103/106 121/144/106 123/142/106
f 118/145/107 148/98/107 150/102/107 120/143/107
f 151/103/108 149/99/108 119/146/108 121/144/108
f 116/147/109 146/91/109 148/98/109 118/145/109
f 149/99/110 147/93/110 117/148/110 119/146/110
f 114/149/111 164/92/111 146/91/111 116/147/111
f 147/93/112 165/96/112 115/150/112 117/148/112
f 114/149/113 181/151/113 177/152/113 164/92/113
f 177/152/114 182/153/114 115/150/114 165/96/114
f 110/131/115 162/126/115 68/130/115 112/154/115
f 68/130/116 163/127/116 111/134/116 113/155/116
f 112/154/117 68/130/117 178/156/117 183/157/117
f 178/156/118 68/130/118 113/155/118 184/158/118
f 177/152/119 181/151/119 183/157/119 178/156/119
f 184/158/120 182/153/120 177/152/120 178/156/120
f 135/159/121 137/160/121 176/69/121 174/68/121
f 176/69/122 137/160/122 136/161/122 175/71/122
f 133/162/123 135/159/123 174/68/123 172/74/123
f 175/71/124 136/161/124 134/163/124 173/75/124
f 131/164/125 133/162/125 172/74/125 170/78/125
f 173/75/126 134/163/126 132/165/126 171/79/126
f 166/86/127 187/166/127 185/167/127 168/82/127
f 186/168/128 188/169/128 167/87/128 169/83/128
f 131/164/129 170/78/129 168/82/129 185/167/129
f 169/83/130 171/79/130 132/165/130 186/168/130
f 144/170/131 190/171/131 189/172/131 187/166/131
f 189/172/132 190/171/132 145/173/132 188/169/132
f 185/167/133 187/166/133 189/172/133 69/174/133
f 189/172/134 188/169/134 186/168/134 69/174/134
f 130/175/135 131/164/135 185/167/135 69/174/135
f 186/168/135 132/165/135 130/175/135 69/174/135
f 142/176/136 193/177/136 191/178/136 144/170/136
f 192/179/137 194/180/137 143/181/137 145/173/137
f 140/182/138 195/183/138 193/177/138 142/176/138
f 194/180/139 196/184/139 141/185/139 143/181/139
f 139/186/140 197/187/140 195/183/140 140/182/140
f 196/184/141 198/188/141 139/186/141 141/185/141
f 138/189/142 71/190/142 197/187/142 139/186/142
f 198/188/143 71/190/143 138/189/143 139/186/143
f 190/171/144 144/170/144 191/178/144 70/191/144
f 192/179/145 145/173/145 190/171/145 70/191/145
f 70/191/146 191/178/146 206/192/146 208/193/146
f 207/194/147 192/179/147 70/191/147 208/193/147
f 71/190/148 199/195/148 200/196/148 197/187/148
f 201/197/149 199/195/149 71/190/149 198/188/149
f 197/187/150 200/196/150 202/198/150 195/183/150
f 203/199/151 201/197/151 198/188/151 196/184/151
f 195/183/152 202/198/152 204/200/152 193/177/152
f 205/201/153 203/199/153 196/184/153 194/180/153
f 193/177/154 204/200/154 206/192/154 191/178/154
f 207/194/155 205/201/155 194/180/155 192/179/155
f 199/195/156 204/200/156 202/198/156 200/196/156
f 203/199/157 205/201/157 199/195/157 201/197/157
f 199/195/158 208/193/158 206/192/158 204/200/158
f 207/194/159 208/193/159 199/195/159 205/201/159
f 139/186/160 140/182/160 164/92/160 177/152/160
f 165/96/161 141/185/161 139/186/161 177/152/161
f 140/182/162 142/176/162 211/202/162 164/92/162
f 212/203/163 143/181/163 141/185/163 165/96/163
f 142/176/164 144/170/164 213/204/164 211/202/164
f 214/205/165 145/173/165 143/181/165 212/203/165
f 144/170/166 187/166/166 166/86/166 213/204/166
f 167/87/167 188/169/167 145/173/167 214/205/167
f 81/85/168 209/206/168 213/204/168 166/86/168
f 214/205/169 210/207/169 82/88/169 167/87/169
f 209/206/170 215/208/170 211/202/170 213/204/170
f 212/203/171 216/209/171 210/207/171 214/205/171
f 79/89/172 164/92/172 211/202/172 215/208/172
f 212/203/173 165/96/173 80/95/173 216/209/173
f 131/164/174 130/175/174 72/210/174 222/211/174
f 72/210/175 130/175/175 132/165/175 223/212/175
f 133/162/176 131/164/176 222/211/176 220/213/176
f 223/212/177 132/165/177 134/163/177 221/214/177
f 135/159/178 133/162/178 220/213/178 218/215/178
f 221/214/179 134/163/179 136/161/179 219/216/179
f 137/160/180 135/159/180 218/215/180 217/217/180
f 219/216/181 136/161/181 137/160/181 217/217/181
f 217/217/182 218/215/182 229/218/182 231/219/182
f 230/220/183 219/216/183 217/217/183 231/219/183
f 218/215/184 220/213/184 227/221/184 229/218/184
f 228/222/185 221/214/185 219/216/185 230/220/185
f 220/213/186 222/211/186 225/223/186 227/221/186
f 226/224/187 223/212/187 221/214/187 228/222/187
f 222/211/188 72/210/188 224/225/188 225/223/188
f 224/225/189 72/210/189 223/212/189 226/224/189
f 224/225/190 231/219/190 229/218/190 225/223/190
f 230/220/191 231/219/191 224/225/191 226/224/191
f 225/223/192 229/218/192 227/221/192
f 228/222/193 230/220/193 226/224/193
f 183/157/194 181/151/194 234/226/194 232/227/194
f 235/228/195 182/153/195 184/158/195 233/229/195
f 112/154/196 183/157/196 232/227/196 254/230/196
f 233/229/197 184/158/197 113/155/197 255/231/197
f 110/131/198 112/154/198 254/230/198 256/232/198
f 255/231/199 113/155/199 111/134/199 257/233/199
f 181/151/200 114/149/200 252/234/200 234/226/200
f 253/235/201 115/150/201 182/153/201 235/228/201
f 114/149/202 116/147/202 250/236/202 252/234/202
f 251/237/203 117/148/203 115/150/203 253/235/203
f 116/147/204 118/145/204 248/238/204 250/236/204
f 249/239/205 119/146/205 117/148/205 251/237/205
f 118/145/206 120/143/206 246/240/206 248/238/206
f 247/241/207 121/144/207 119/146/207 249/239/207
f 120/143/208 122/141/208 244/242/208 246/240/208
f 245/243/209 123/142/209 121/144/209 247/241/209
f 122/141/210 124/139/210 242/244/210 244/242/210
f 243/245/211 125/140/211 123/142/211 245/243/211
f 124/139/212 126/137/212 240/246/212 242/244/212
f 241/247/213 127/138/213 125/140/213 243/245/213
f 126/137/214 179/135/214 236/248/214 240/246/214
f 237/249/215 180/136/215 127/138/215 241/247/215
f 179/135/216 128/132/216 238/250/216 236/248/216
f 239/251/217 129/133/217 180/136/217 237/249/217
f 128/132/218 110/131/218 256/232/218 238/250/218
f 257/233/219 111/134/219 129/133/219 239/251/219
f 238/250/220 256/232/220 258/252/220 276/253/220
f 259/254/221 257/233/221 239/251/221 277/255/221
f 236/248/222 238/250/222 276/253/222 278/256/222
f 277/255/223 239/251/223 237/249/223 279/257/223
f 240/246/224 236/248/224 278/256/224 274/258/224
f 279/257/225 237/249/225 241/247/225 275/259/225
f 242/244/226 240/246/226 274/258/226 272/260/226
f 275/259/227 241/247/227 243/245/227 273/261/227
f 244/242/228 242/244/228 272/260/228 270/262/228
f 273/261/229 243/245/229 245/243/229 271/263/229
f 246/240/230 244/242/230 270/262/230 268/264/230
f 271/263/231 245/243/231 247/241/231 269/265/231
f 248/238/232 246/240/232 268/264/232 266/266/232
f 269/265/233 247/241/233 249/239/233 267/267/233
f 250/236/234 248/238/234 266/266/234 264/268/234
f 267/267/235 249/239/235 251/237/235 265/269/235
f 252/234/236 250/236/236 264/268/236 262/270/236
f 265/269/237 251/237/237 253/235/237 263/271/237
f 234/226/238 252/234/238 262/270/238 280/272/238
f 263/271/239 253/235/239 235/228/239 281/273/239
f 256/232/240 254/230/240 260/274/240 258/252/240
f 261/275/241 255/231/241 257/233/241 259/254/241
f 254/230/242 232/227/242 282/276/242 260/274/242
f 283/277/243 233/229/243 255/231/243 261/275/243
f 232/227/244 234/226/244 280/272/244 282/276/244
f 281/273/245 235/228/245 233/229/245 283/277/245
f 67/129/246 108/125/246 284/278/246 73/279/246
f 285/280/247 109/128/247 67/129/247 73/279/247
f 108/125/248 106/121/248 286/281/248 284/278/248
f 287/282/249 107/124/249 109/128/249 285/280/249
f 106/121/250 104/117/250 288/283/250 286/281/250
f 289/284/251 105/120/251 107/124/251 287/282/251
f 104/117/252 102/113/252 290/285/252 288/283/252
f 291/286/253 103/116/253 105/120/253 289/284/253
f 102/113/254 100/109/254 292/287/254 290/285/254
f 293/288/255 101/112/255 103/116/255 291/286/255
f 100/109/256 98/105/256 294/289/256 292/287/256
f 295/290/257 99/108/257 101/112/257 293/288/257
f 98/105/258 96/101/258 296/291/258 294/289/258
f 297/292/259 97/104/259 99/108/259 295/290/259
f 96/101/260 94/97/260 298/293/260 296/291/260
f 299/294/261 95/100/261 97/104/261 297/292/261
f 94/97/262 92/90/262 300/295/262 298/293/262
f 301/296/263 93/94/263 95/100/263 299/294/263
f 308/297/264 309/298/264 328/299/264 338/300/264
f 329/301/265 309/298/265 308/297/265 339/302/265
f 307/303/266 308/297/266 338/300/266 336/304/266
f 339/302/267 308/297/267 307/303/267 337/305/267
f 306/306/268 307/303/268 336/304/268 340/307/268
f 337/305/269 307/303/269 306/306/269 341/308/269
f 89/67/270 91/70/270 306/306/270 340/307/270
f 306/306/271 91/70/271 90/72/271 341/308/271
f 87/73/272 89/67/272 340/307/272 334/309/272
f 341/308/273 90/72/273 88/76/273 335/310/273
f 85/77/274 87/73/274 334/309/274 330/311/274
f 335/310/275 88/76/275 86/80/275 331/312/275
f 83/81/276 85/77/276 330/311/276 332/313/276
f 331/312/277 86/80/277 84/84/277 333/314/277
f 330/311/278 336/304/278 338/300/278 332/313/278
f 339/302/279 337/305/279 331/312/279 333/314/279
f 330/311/280 334/309/280 340/307/280 336/304/280
f 341/308/281 335/310/281 331/312/281 337/305/281
f 326/315/282 332/313/282 338/300/282 328/299/282
f 339/302/283 333/314/283 327/316/283 329/301/283
f 81/85/284 83/81/284 332/313/284 326/315/284
f 333/314/285 84/84/285 82/88/285 327/316/285
f 209/206/286 342/317/286 344/318/286 215/208/286
f 345/319/287 343/320/287 210/207/287 216/209/287
f 81/85/288 326/315/288 342/317/288 209/206/288
f 343/320/289 327/316/289 82/88/289 210/207/289
f 79/89/290 215/208/290 344/318/290 346/321/290
f 345/319/291 216/209/291 80/95/291 347/322/291
f 79/89/292 346/321/292 300/295/292 92/90/292
f 301/296/293 347/322/293 80/95/293 93/94/293
f 77/323/294 324/324/294 352/325/294 304/326/294
f 353/327/295 325/328/295 77/323/295 304/326/295
f 304/326/296 352/325/296 350/329/296 78/330/296
f 351/331/297 353/327/297 304/326/297 78/330/297
f 78/330/298 350/329/298 348/332/298 305/333/298
f 349/334/299 351/331/299 78/330/299 305/333/299
f 305/333/300 348/332/300 328/299/300 309/298/300
f 329/301/301 349/334/301 305/333/301 309/298/301
f 326/315/302 328/299/302 348/332/302 342/317/302
f 349/334/303 329/301/303 327/316/303 343/320/303
f 296/291/304 298/293/304 318/335/304 310/336/304
f 319/337/305 299/294/305 297/292/305 311/338/305
f 76/339/306 316/340/306 324/324/306 77/323/306
f 325/328/307 317/341/307 76/339/307 77/323/307
f 302/342/308 358/343/308 356/344/308 303/345/308
f 357/346/309 359/347/309 302/342/309 303/345/309
f 303/345/310 356/344/310 354/348/310 75/349/310
f 355/350/311 357/346/311 303/345/311 75/349/311
f 75/349/312 354/348/312 316/340/312 76/339/312
f 317/341/313 355/350/313 75/349/313 76/339/313
f 292/287/314 294/289/314 362/351/314 364/352/314
f 363/353/315 295/290/315 293/288/315 365/354/315
f 364/352/316 362/351/316 368/355/316 366/356/316
f 369/357/317 363/353/317 365/354/317 367/358/317
f 366/356/318 368/355/318 370/359/318 372/360/318
f 371/361/319 369/357/319 367/358/319 373/362/319
f 372/360/320 370/359/320 376/363/320 374/364/320
f 377/365/321 371/361/321 373/362/321 375/366/321
f 314/367/322 378/368/322 374/364/322 376/363/322
f 375/366/323 379/369/323 315/370/323 377/365/323
f 316/340/324 354/348/324 374/364/324 378/368/324
f 375/366/325 355/350/325 317/341/325 379/369/325
f 354/348/326 356/344/326 372/360/326 374/364/326
f 373/362/327 357/346/327 355/350/327 375/366/327
f 356/344/328 358/343/328 366/356/328 372/360/328
f 367/358/329 359/347/329 357/346/329 373/362/329
f 358/343/330 360/371/330 364/352/330 366/356/330
f 365/354/331 361/372/331 359/347/331 367/358/331
f 290/285/332 292/287/332 364/352/332 360/371/332
f 365/354/333 293/288/333 291/286/333 361/372/333
f 74/373/334 360/371/334 358/343/334 302/342/334
f 359/347/335 361/372/335 74/373/335 302/342/335
f 284/278/336 286/281/336 288/283/336 290/285/336
f 289/284/337 287/282/337 285/280/337 291/286/337
f 284/278/338 290/285/338 360/371/338 74/373/338
f 361/372/339 291/286/339 285/280/339 74/373/339
f 73/279/340 284/278/340 74/373/340
f 74/373/341 285/280/341 73/279/341
f 294/289/342 296/291/342 310/336/342 362/351/342
f 311/338/343 297/292/343 295/290/343 363/353/343
f 310/336/344 312/374/344 368/355/344 362/351/344
f 369/357/345 313/375/345 311/338/345 363/353/345
f 312/374/346 382/376/346 370/359/346 368/355/346
f 371/361/347 383/377/347 313/375/347 369/357/347
f 314/367/348 376/363/348 370/359/348 382/376/348
f 371/361/349 377/365/349 315/370/349 383/377/349
f 348/332/350 350/329/350 386/378/350 384/379/350
f 387/380/351 351/331/351 349/334/351 385/381/351
f 318/335/352 384/379/352 386/378/352 320/382/352
f 387/380/353 385/381/353 319/337/353 321/383/353
f 298/293/354 300/295/354 384/379/354 318/335/354
f 385/381/355 301/296/355 299/294/355 319/337/355
f 300/295/356 344/318/356 342/317/356 384/379/356
f 343/320/357 345/319/357 301/296/357 385/381/357
f 342/317/358 348/332/358 384/379/358
f 385/381/359 349/334/359 343/320/359
f 300/295/360 346/321/360 344/318/360
f 345/319/361 347/322/361 301/296/361
f 314/367/362 322/384/362 380/385/362 378/368/362
f 381/386/363 323/387/363 315/370/363 379/369/363
f 316/340/364 378/368/364 380/385/364 324/324/364
f 381/386/365 379/369/365 317/341/365 325/328/365
f 320/382/366 386/378/366 380/385/366 322/384/366
f 381/386/367 387/380/367 321/383/367 323/387/367
f 350/329/368 352/325/368 380/385/368 386/378/368
f 381/386/369 353/327/369 351/331/369 387/380/369
f 324/324/370 380/385/370 352/325/370
f 353/327/371 381/386/371 325/328/371
f 400/388/372 388/389/372 414/390/372 402/391/372
f 415/392/373 389/393/373 401/394/373 403/395/373
f 400/388/374 402/391/374 404/396/374 398/397/374
f 405/398/375 403/395/375 401/394/375 399/399/375
f 398/397/376 404/396/376 406/400/376 396/401/376
f 407/402/377 405/398/377 399/399/377 397/403/377
f 396/401/378 406/400/378 408/404/378 394/405/378
f 409/406/379 407/402/379 397/403/379 395/407/379
f 394/405/380 408/404/380 410/408/380 392/409/380
f 411/410/381 409/406/381 395/407/381 393/411/381
f 392/409/382 410/408/382 412/412/382 390/413/382
f 413/414/383 411/410/383 393/411/383 391/415/383
f 410/408/384 420/416/384 418/417/384 412/412/384
f 419/418/385 421/419/385 411/410/385 413/414/385
f 408/404/386 422/420/386 420/416/386 410/408/386
f 421/419/387 423/421/387 409/406/387 411/410/387
f 406/400/388 424/422/388 422/420/388 408/404/388
f 423/421/389 425/423/389 407/402/389 409/406/389
f 404/396/390 426/424/390 424/422/390 406/400/390
f 425/423/391 427/425/391 405/398/391 407/402/391
f 402/391/392 428/426/392 426/424/392 404/396/392
f 427/425/393 429/427/393 403/395/393 405/398/393
f 402/391/394 414/390/394 416/428/394 428/426/394
f 417/429/395 415/392/395 403/395/395 429/427/395
f 318/335/396 320/382/396 444/430/396 442/431/396
f 445/432/397 321/383/397 319/337/397 443/433/397
f 320/382/398 390/413/398 412/412/398 444/430/398
f 413/414/399 391/415/399 321/383/399 445/432/399
f 310/336/400 318/335/400 442/431/400 312/374/400
f 443/433/401 319/337/401 311/338/401 313/375/401
f 382/376/402 430/434/402 414/390/402 388/389/402
f 415/392/403 431/435/403 383/377/403 389/393/403
f 412/412/404 418/417/404 440/436/404 444/430/404
f 441/437/405 419/418/405 413/414/405 445/432/405
f 438/438/406 446/439/406 444/430/406 440/436/406
f 445/432/407 447/440/407 439/441/407 441/437/407
f 434/442/408 446/439/408 438/438/408 436/443/408
f 439/441/409 447/440/409 435/444/409 437/445/409
f 432/446/410 448/447/410 446/439/410 434/442/410
f 447/440/411 449/448/411 433/449/411 435/444/411
f 430/434/412 448/447/412 432/446/412 450/450/412
f 433/449/413 449/448/413 431/435/413 451/451/413
f 414/390/414 430/434/414 450/450/414 416/428/414
f 451/451/415 431/435/415 415/392/415 417/429/415
f 312/374/416 448/447/416 430/434/416 382/376/416
f 431/435/417 449/448/417 313/375/417 383/377/417
f 312/374/418 442/431/418 446/439/418 448/447/418
f 447/440/419 443/433/419 313/375/419 449/448/419
f 442/431/420 444/430/420 446/439/420
f 447/440/421 445/432/421 443/433/421
f 416/428/422 450/450/422 452/452/422 476/453/422
f 453/454/423 451/451/423 417/429/423 477/455/423
f 450/450/424 432/446/424 462/456/424 452/452/424
f 463/457/425 433/449/425 451/451/425 453/454/425
f 432/446/426 434/442/426 460/458/426 462/456/426
f 461/459/427 435/444/427 433/449/427 463/457/427
f 434/442/428 436/443/428 458/460/428 460/458/428
f 459/461/429 437/445/429 435/444/429 461/459/429
f 436/443/430 438/438/430 456/462/430 458/460/430
f 457/463/431 439/441/431 437/445/431 459/461/431
f 438/438/432 440/436/432 454/464/432 456/462/432
f 455/465/433 441/437/433 439/441/433 457/463/433
f 440/436/434 418/417/434 474/466/434 454/464/434
f 475/467/435 419/418/435 441/437/435 455/465/435
f 428/426/436 416/428/436 476/453/436 464/468/436
f 477/455/437 417/429/437 429/427/437 465/469/437
f 426/424/438 428/426/438 464/468/438 466/470/438
f 465/469/439 429/427/439 427/425/439 467/471/439
f 424/422/440 426/424/440 466/470/440 468/472/440
f 467/471/441 427/425/441 425/423/441 469/473/441
f 422/420/442 424/422/442 468/472/442 470/474/442
f 469/473/443 425/423/443 423/421/443 471/475/443
f 420/416/444 422/420/444 470/474/444 472/476/444
f 471/475/445 423/421/445 421/419/445 473/477/445
f 418/417/446 420/416/446 472/476/446 474/466/446
f 473/477/447 421/419/447 419/418/447 475/467/447
f 458/460/448 456/462/448 480/478/448 478/479/448
f 481/480/449 457/463/449 459/461/449 479/481/449
f 478/479/450 480/478/450 482/482/450 484/483/450
f 483/484/451 481/480/451 479/481/451 485/485/451
f 484/483/452 482/482/452 488/486/452 486/487/452
f 489/488/453 483/484/453 485/485/453 487/489/453
f 486/487/454 488/486/454 490/490/454 492/491/454
f 491/492/455 489/488/455 487/489/455 493/493/455
f 464/468/456 476/453/456 486/487/456 492/491/456
f 487/489/457 477/455/457 465/469/457 493/493/457
f 452/452/458 484/483/458 486/487/458 476/453/458
f 487/489/459 485/485/459 453/454/459 477/455/459
f 452/452/460 462/456/460 478/479/460 484/483/460
f 479/481/461 463/457/461 453/454/461 485/485/461
f 458/460/462 478/479/462 462/456/462 460/458/462
f 463/457/463 479/481/463 459/461/463 461/459/463
f 454/464/464 474/466/464 480/478/464 456/462/464
f 481/480/465 475/467/465 455/465/465 457/463/465
f 472/476/466 482/482/466 480/478/466 474/466/466
f 481/480/467 483/484/467 473/477/467 475/467/467
f 470/474/468 488/486/468 482/482/468 472/476/468
f 483/484/469 489/488/469 471/475/469 473/477/469
f 468/472/470 490/490/470 488/486/470 470/474/470
f 489/488/471 491/492/471 469/473/471 471/475/471
f 466/470/472 492/491/472 490/490/472 468/472/472
f 491/492/473 493/493/473 467/471/473 469/473/473
f 464/468/474 492/491/474 466/470/474
f 467/471/475 493/493/475 465/469/475
f 392/409/476 390/413/476 504/494/476 502/495/476
f 505/496/477 391/415/477 393/411/477 503/497/477
f 394/405/478 392/409/478 502/495/478 500/498/478
f 503/497/479 393/411/479 395/407/479 501/499/479
f 396/401/480 394/405/480 500/498/480 498/500/480
f 501/499/481 395/407/481 397/403/481 499/501/481
f 398/397/482 396/401/482 498/500/482 496/502/482
f 499/501/483 397/403/483 399/399/483 497/503/483
f 400/388/484 398/397/484 496/502/484 494/504/484
f 497/503/485 399/399/485 401/394/485 495/505/485
f 388/389/486 400/388/486 494/504/486 506/506/486
f 495/505/487 401/394/487 389/393/487 507/507/487
f 494/504/488 502/495/488 504/494/488 506/506/488
f 505/496/489 503/497/489 495/505/489 507/507/489
f 494/504/490 496/502/490 500/498/490 502/495/490
f 501/499/491 497/503/491 495/505/491 503/497/491
f 496/502/492 498/500/492 500/498/492
f 501/499/493 499/501/493 497/503/493
f 314/367/494 382/376/494 388/389/494 506/506/494
f 389/393/495 383/377/495 315/370/495 507/507/495
f 314/367/496 506/506/496 504/494/496 322/384/496
f 505/496/497 507/507/497 315/370/497 323/387/497
f 320/382/498 322/384/498 504/494/498 390/413/498
f 505/496/499 323/387/499 321/383/499 391/415/499
