# Blender v2.78 (sub 0) OBJ File: 'cornell_room.blend'
# www.blender.org
#
# Original model made by Cindy M. Goral, Kenneth E. Torrance, Donald P. Greenberg, and Bennett Battaile at the Cornell University.
# Distributed by Guedis Cardenas and Morgan McGuire at Williams College, 2011.
# Attribution 3.0 Unported (CC BY 3.0) License
# http://creativecommons.org/licenses/by/3.0/
# http://graphics.cs.williams.edu/data
#
# Modified by Tomas Ohberg and Daniel Ericsson, Linkoping University.
#
v -2.122807 -3.268879 0.000000
v -2.080807 3.651652 0.000000
v -2.143807 3.651651 2.985000
v -2.143807 -3.268879 2.984999
v 2.098193 3.651652 0.000000
v 2.098193 -3.268879 0.000000
v 2.098193 -3.268879 2.984999
v 2.098193 3.651651 2.985000
v 1.261007 0.741652 1.080000
v 1.567007 1.785652 1.080000
v 0.541007 2.091652 1.080000
v 0.217007 1.065652 1.080000
v 0.217007 1.065652 0.000000
v 0.541007 2.091652 0.000000
v 1.261007 0.741652 0.000000
v 1.567007 1.785652 0.000000
v -2.143807 -3.268879 2.984999
v -2.143807 3.651651 2.985000
v 2.098193 3.651651 2.985000
v 2.098193 -3.268879 2.984999
v -2.122807 -3.268879 0.000000
v 2.098193 -3.268879 0.000000
v 2.098193 3.651652 0.000000
v -2.080807 3.651652 0.000000
v -2.080807 3.651652 0.000000
v 2.098193 3.651652 0.000000
v 2.098193 3.651651 2.985000
v -2.143807 3.651651 2.985000
v -1.215936 1.929651 2.160000
v -0.189936 2.253652 2.160000
v -0.513936 3.297652 2.160000
v -1.539936 2.973652 2.160000
v -1.215936 1.929652 0.000000
v -1.539936 2.973652 0.000000
v -0.513936 3.297652 0.000000
v -0.189936 2.253652 0.000000
v -0.472507 1.779651 2.970000
v -0.472507 2.520651 2.970000
v 0.443993 2.520651 2.970000
v 0.443993 1.779651 2.970000
vt 0.6657 0.8879
vt 0.6657 0.4454
vt 0.4454 0.4454
vt 0.4454 0.8879
vt 0.4454 0.2212
vt 0.8879 0.2212
vt 0.8879 0.0010
vt 0.4454 0.0010
vt 0.9990 0.6677
vt 0.8899 0.6677
vt 0.8899 0.7768
vt 0.9990 0.7768
vt 0.9990 0.5566
vt 0.8899 0.5566
vt 0.8899 0.6657
vt 0.9990 0.6657
vt 0.6657 0.8899
vt 0.5566 0.8899
vt 0.5566 0.9990
vt 0.6657 0.9990
vt 0.5546 0.8899
vt 0.4454 0.8899
vt 0.4454 0.9990
vt 0.5546 0.9990
vt 0.8879 0.8899
vt 0.7788 0.8899
vt 0.7788 0.9990
vt 0.8879 0.9990
vt 0.4434 0.0010
vt 0.0010 0.0010
vt 0.0010 0.4434
vt 0.4434 0.4434
vt 0.4434 0.4454
vt 0.0010 0.4454
vt 0.0010 0.8879
vt 0.4434 0.8879
vt 0.8879 0.8879
vt 0.8879 0.4454
vt 0.6677 0.4454
vt 0.6677 0.8879
vt 0.4454 0.4434
vt 0.8879 0.4434
vt 0.8879 0.2232
vt 0.4454 0.2232
vt 0.9990 0.4454
vt 0.8899 0.4454
vt 0.8899 0.5546
vt 0.9990 0.5546
vt 0.9990 0.4434
vt 0.9990 0.2232
vt 0.8899 0.2232
vt 0.8899 0.4434
vt 0.2232 0.9990
vt 0.4434 0.9990
vt 0.4434 0.8899
vt 0.2232 0.8899
vt 0.9990 0.2212
vt 0.9990 0.0010
vt 0.8899 0.0010
vt 0.8899 0.2212
vt 0.0010 0.9990
vt 0.2212 0.9990
vt 0.2212 0.8899
vt 0.0010 0.8899
vt 0.7768 0.8899
vt 0.6677 0.8899
vt 0.6677 0.9990
vt 0.7768 0.9990
vn 0.9999 -0.0030 0.0141
vn -1.0000 -0.0000 -0.0000
vn 0.0000 0.0000 1.0000
vn -0.9536 0.3011 0.0000
vn -0.2964 -0.9551 0.0000
vn 0.2858 0.9583 0.0000
vn 0.9596 -0.2813 0.0000
vn 0.0000 0.0000 -1.0000
vn 0.0000 -1.0000 -0.0000
vn -0.0000 1.0000 -0.0000
vn -0.9551 -0.2964 -0.0000
vn -0.3011 0.9536 0.0000
vn 0.9551 0.2964 0.0000
vn 0.3011 -0.9536 -0.0000
s 1
f 1/1/1 2/2/1 3/3/1 4/4/1
f 5/5/2 6/6/2 7/7/2 8/8/2
f 9/9/3 10/10/3 11/11/3 12/12/3
f 13/13/4 12/14/4 11/15/4 14/16/4
f 15/17/5 9/18/5 12/19/5 13/20/5
f 14/21/6 11/22/6 10/23/6 16/24/6
f 16/25/7 10/26/7 9/27/7 15/28/7
f 17/29/8 18/30/8 19/31/8 20/32/8
f 21/33/3 22/34/3 23/35/3 24/36/3
f 25/37/9 26/38/9 27/39/9 28/40/9
f 4/41/10 7/42/10 6/43/10 1/44/10
f 29/45/3 30/46/3 31/47/3 32/48/3
f 33/49/11 29/50/11 32/51/11 34/52/11
f 34/53/12 32/54/12 31/55/12 35/56/12
f 35/57/13 31/58/13 30/59/13 36/60/13
f 36/61/14 30/62/14 29/63/14 33/64/14
f 37/65/8 38/66/8 39/67/8 40/68/8
