# Blender v2.78 (sub 0) OBJ File: 'portalroom.blend'
# www.blender.org
v 5.000000 2.000000 0.000000
v -5.000000 -5.000000 2.000000
v -5.000000 4.000000 0.000000
v 5.000000 -5.000000 2.000000
v 5.000000 4.000000 0.000000
v -5.000000 -5.000000 6.000000
v 5.000000 4.000000 6.000000
v 5.000000 -5.000000 6.000000
v -5.000000 -3.000000 0.000000
v -5.000000 -3.000000 2.000000
v 5.000000 -3.000000 0.000000
v 5.000000 -3.000000 2.000000
v -5.000000 -3.000000 6.000000
v 5.000000 -3.000000 6.000000
v -5.000000 2.000000 4.000000
v -5.000000 2.000000 6.000000
v -5.000000 2.000000 0.000000
v 5.000000 2.000000 6.000000
v -5.000000 4.000000 4.000000
v -3.000000 2.000000 4.000000
v -3.000000 4.000000 4.000000
v -3.000000 2.000000 6.000000
v -3.000000 4.000000 6.000000
vt 9.0069 -5.0044
vt -1.0013 -5.0044
vt -1.0013 -7.0060
vt 9.0069 -7.0060
vt 9.0069 -5.0044
vt 9.0069 -7.0060
vt -1.0013 -7.0060
vt -1.0013 -5.0044
vt 9.0069 -0.0003
vt -1.0013 -0.0003
vt -1.0013 -0.0003
vt -1.0013 -5.0044
vt 9.0069 -5.0044
vt 9.0069 -0.0003
vt -1.0013 2.0014
vt 9.0069 2.0014
vt -1.0013 2.0014
vt 1.0003 2.0014
vt 1.0003 -0.0003
vt -1.0013 -0.0003
vt 1.0003 2.0014
vt 9.0069 2.0014
vt 1.0003 -0.0003
vn 0.0000 0.0000 1.0000
vn 0.0000 0.0000 -1.0000
s off
f 12/1/1 10/2/1 2/3/1 4/4/1
f 14/5/2 8/6/2 6/7/2 13/8/2
f 18/9/2 14/5/2 13/8/2 16/10/2
f 17/11/1 9/12/1 11/13/1 1/14/1
f 3/15/1 17/11/1 1/14/1 5/16/1
f 19/17/2 21/18/2 20/19/2 15/20/2
f 23/21/2 7/22/2 18/9/2 22/23/2
