# Blender v2.78 (sub 0) OBJ File: ''
# www.blender.org
v -4.499999 -1.399998 3.000000
v -4.499999 -4.199996 3.000000
v 4.499998 1.399995 3.000000
v 4.499999 4.199994 3.000000
v -4.499997 -1.399998 0.000000
v -4.499998 -4.199996 0.000000
v 4.499998 1.399999 0.000000
v 4.499998 4.199997 0.000000
v -1.499999 4.199999 3.000000
v -1.499999 1.400001 3.000000
v -1.499999 -1.399998 3.000000
v -1.500000 -4.199996 3.000000
v 1.499999 -4.200002 3.000000
v 1.499999 -1.400004 3.000000
v 1.499999 1.399995 3.000000
v 1.500000 4.199994 3.000000
v -1.499999 4.200000 0.000000
v -1.499999 1.400001 0.000000
v -1.499999 -1.399998 0.000000
v -1.499999 -4.199996 0.000000
v 1.499999 -4.199998 0.000000
v 1.499999 -1.400000 0.000000
v 1.499999 1.399999 0.000000
v 1.499999 4.199997 0.000000
v -1.499999 6.999997 3.000000
v -1.500000 -6.999994 3.000000
v 1.499998 -7.000001 3.000000
v 1.500000 6.999993 3.000000
v -1.499999 6.999999 0.000000
v -1.499999 -6.999995 0.000000
v 1.499999 -6.999997 0.000000
v 1.499999 6.999996 0.000000
vt 5.7297 -0.0001
vt 6.7295 -0.0001
vt 6.7295 0.9997
vt 5.7297 0.9997
vt -1.9353 -0.0001
vt -0.9355 -0.0001
vt -0.9355 0.9997
vt -1.9353 0.9997
vt -6.6676 0.9997
vt -7.6674 0.9997
vt -7.6674 -0.0001
vt -6.6676 -0.0001
vt -0.0024 0.9997
vt -0.0024 -0.0001
vt 7.6627 0.9997
vt 7.6627 -0.0001
vt -2.8684 0.9997
vt -3.8016 0.9997
vt -3.8016 -0.0001
vt -2.8684 -0.0001
vt 1.9306 0.9997
vt 0.9974 0.9997
vt 0.9974 -0.0001
vt 1.9306 -0.0001
vt 4.7966 0.9997
vt 3.8635 0.9997
vt 3.8635 -0.0001
vt 4.7966 -0.0001
vt -5.7345 0.9997
vt -5.7345 -0.0001
vt 2.9303 -0.0001
vt 2.9303 0.9997
vt -4.7347 0.9997
vt -4.7347 -0.0001
vn 0.0000 -1.0000 0.0000
vn 0.0000 1.0000 0.0000
vn -1.0000 0.0000 0.0000
vn 1.0000 -0.0000 0.0000
s off
f 11/1/1 1/2/1 5/3/1 19/4/1
f 15/5/2 3/6/2 7/7/2 23/8/2
f 20/9/2 6/10/2 2/11/2 12/12/2
f 8/13/3 7/7/3 3/6/3 4/14/3
f 6/15/4 5/3/4 1/2/4 2/16/4
f 22/17/3 21/18/3 13/19/3 14/20/3
f 23/8/3 22/17/3 14/20/3 15/5/3
f 32/21/3 24/22/3 16/23/3 28/24/3
f 18/25/4 17/26/4 9/27/4 10/28/4
f 19/4/4 18/25/4 10/28/4 11/1/4
f 24/22/1 8/13/1 4/14/1 16/23/1
f 30/29/4 20/9/4 12/12/4 26/30/4
f 28/24/1 25/31/1 29/32/1 32/21/1
f 17/26/4 29/32/4 25/31/4 9/27/4
f 31/33/2 30/29/2 26/30/2 27/34/2
f 21/18/3 31/33/3 27/34/3 13/19/3
