# Blender v2.78 (sub 0) OBJ File: 'cornidoor_lamp.blend'
# www.blender.org
v 0.008389 -0.170920 0.042177
v 0.016456 -0.160202 0.082732
v 0.023891 -0.142797 0.120109
v 0.030408 -0.119374 0.152869
v 0.035756 -0.090833 0.179755
v 0.039729 -0.058271 0.199733
v 0.042177 -0.022939 0.212036
v 0.016457 -0.170920 0.039729
v 0.032281 -0.160202 0.077932
v 0.046864 -0.142797 0.113140
v 0.059647 -0.119374 0.144000
v 0.070137 -0.090833 0.169326
v 0.077932 -0.058271 0.188145
v 0.082732 -0.022939 0.199733
v 0.023891 -0.170920 0.035756
v 0.046864 -0.160202 0.070137
v 0.068036 -0.142797 0.101823
v 0.086594 -0.119374 0.129596
v 0.101823 -0.090833 0.152389
v 0.113140 -0.058271 0.169326
v 0.120109 -0.022939 0.179755
v 0.030408 -0.170920 0.030408
v 0.059647 -0.160202 0.059647
v 0.086594 -0.142797 0.086593
v 0.110213 -0.119374 0.110213
v 0.129596 -0.090833 0.129596
v 0.144000 -0.058271 0.144000
v 0.152869 -0.022939 0.152869
v 0.035756 -0.170920 0.023891
v 0.070137 -0.160202 0.046864
v 0.101823 -0.142797 0.068036
v 0.129596 -0.119374 0.086593
v 0.152389 -0.090833 0.101823
v 0.169326 -0.058271 0.113140
v 0.179755 -0.022939 0.120109
v 0.039730 -0.170920 0.016456
v 0.077932 -0.160202 0.032280
v 0.113140 -0.142797 0.046864
v 0.144000 -0.119374 0.059647
v 0.169326 -0.090833 0.070137
v 0.188145 -0.058271 0.077932
v 0.199733 -0.022939 0.082732
v 0.042177 -0.170920 0.008389
v 0.082732 -0.160202 0.016456
v 0.120109 -0.142797 0.023891
v 0.152869 -0.119374 0.030408
v 0.179755 -0.090833 0.035755
v 0.199733 -0.058271 0.039729
v 0.212036 -0.022939 0.042176
v 0.043003 -0.170920 -0.000000
v 0.084353 -0.160202 -0.000000
v 0.122462 -0.142797 -0.000000
v 0.155864 -0.119374 -0.000000
v 0.183277 -0.090833 -0.000000
v 0.203646 -0.058271 -0.000000
v 0.216190 -0.022939 -0.000000
v 0.042177 -0.170920 -0.008390
v 0.082732 -0.160202 -0.016457
v 0.120109 -0.142797 -0.023891
v 0.152869 -0.119374 -0.030408
v 0.179755 -0.090833 -0.035756
v 0.199733 -0.058271 -0.039730
v 0.212036 -0.022939 -0.042177
v 0.039729 -0.170920 -0.016457
v 0.077932 -0.160202 -0.032281
v 0.113140 -0.142797 -0.046864
v 0.144000 -0.119374 -0.059647
v 0.169326 -0.090833 -0.070137
v 0.188145 -0.058271 -0.077932
v 0.199733 -0.022939 -0.082732
v 0.035756 -0.170920 -0.023891
v 0.070137 -0.160202 -0.046864
v 0.101823 -0.142797 -0.068036
v 0.129596 -0.119374 -0.086594
v 0.152389 -0.090833 -0.101823
v 0.169326 -0.058271 -0.113140
v 0.179755 -0.022939 -0.120109
v 0.030408 -0.170920 -0.030408
v 0.059647 -0.160202 -0.059647
v 0.086594 -0.142797 -0.086594
v 0.110213 -0.119374 -0.110213
v 0.129596 -0.090833 -0.129596
v 0.144000 -0.058271 -0.144000
v 0.152869 -0.022939 -0.152869
v 0.023891 -0.170920 -0.035756
v 0.046864 -0.160202 -0.070137
v 0.068036 -0.142797 -0.101823
v 0.086594 -0.119374 -0.129596
v 0.101823 -0.090833 -0.152389
v 0.113140 -0.058271 -0.169326
v 0.120109 -0.022939 -0.179755
v 0.016456 -0.170920 -0.039730
v 0.032281 -0.160202 -0.077932
v 0.046864 -0.142797 -0.113140
v 0.059647 -0.119374 -0.144000
v 0.070137 -0.090833 -0.169326
v 0.077932 -0.058271 -0.188145
v 0.082732 -0.022939 -0.199733
v 0.008389 -0.170920 -0.042177
v 0.016456 -0.160202 -0.082732
v 0.023891 -0.142797 -0.120109
v 0.030408 -0.119374 -0.152869
v 0.035756 -0.090833 -0.179755
v 0.039729 -0.058271 -0.199733
v 0.042177 -0.022939 -0.212036
v -0.000000 -0.170920 -0.043003
v 0.000000 -0.160202 -0.084353
v 0.000000 -0.142797 -0.122462
v -0.000000 -0.119374 -0.155864
v -0.000000 -0.090833 -0.183277
v 0.000000 -0.058271 -0.203646
v -0.000000 -0.022939 -0.216190
v -0.008389 -0.170920 -0.042177
v -0.016456 -0.160202 -0.082732
v -0.023891 -0.142797 -0.120109
v -0.030408 -0.119374 -0.152869
v -0.035756 -0.090833 -0.179755
v -0.039729 -0.058271 -0.199733
v -0.042177 -0.022939 -0.212036
v -0.000000 -0.174539 -0.000000
v -0.016456 -0.170920 -0.039730
v -0.032281 -0.160202 -0.077932
v -0.046864 -0.142797 -0.113140
v -0.059647 -0.119374 -0.144000
v -0.070137 -0.090833 -0.169326
v -0.077932 -0.058271 -0.188145
v -0.082732 -0.022939 -0.199733
v -0.023891 -0.170920 -0.035756
v -0.046864 -0.160202 -0.070137
v -0.068036 -0.142797 -0.101823
v -0.086594 -0.119374 -0.129596
v -0.101823 -0.090833 -0.152389
v -0.113140 -0.058271 -0.169326
v -0.120109 -0.022939 -0.179755
v -0.030408 -0.170920 -0.030408
v -0.059647 -0.160202 -0.059647
v -0.086594 -0.142797 -0.086594
v -0.110213 -0.119374 -0.110213
v -0.129596 -0.090833 -0.129596
v -0.144000 -0.058271 -0.144000
v -0.152869 -0.022939 -0.152869
v -0.035756 -0.170920 -0.023891
v -0.070137 -0.160202 -0.046864
v -0.101823 -0.142797 -0.068036
v -0.129596 -0.119374 -0.086594
v -0.152389 -0.090833 -0.101823
v -0.169326 -0.058271 -0.113140
v -0.179755 -0.022939 -0.120109
v -0.039729 -0.170920 -0.016457
v -0.077932 -0.160202 -0.032281
v -0.113140 -0.142797 -0.046864
v -0.144000 -0.119374 -0.059647
v -0.169326 -0.090833 -0.070137
v -0.188145 -0.058271 -0.077932
v -0.199733 -0.022939 -0.082732
v -0.042177 -0.170920 -0.008390
v -0.082732 -0.160202 -0.016457
v -0.120109 -0.142797 -0.023891
v -0.152869 -0.119374 -0.030408
v -0.179755 -0.090833 -0.035756
v -0.199733 -0.058271 -0.039730
v -0.212036 -0.022939 -0.042177
v -0.043003 -0.170920 -0.000000
v -0.084353 -0.160202 -0.000000
v -0.122462 -0.142797 -0.000000
v -0.155864 -0.119374 -0.000000
v -0.183277 -0.090833 -0.000000
v -0.203646 -0.058271 -0.000000
v -0.216190 -0.022939 -0.000000
v -0.042177 -0.170920 0.008389
v -0.082732 -0.160202 0.016456
v -0.120109 -0.142797 0.023891
v -0.152869 -0.119374 0.030408
v -0.179755 -0.090833 0.035756
v -0.199733 -0.058271 0.039729
v -0.212036 -0.022939 0.042177
v -0.039729 -0.170920 0.016456
v -0.077932 -0.160202 0.032280
v -0.113140 -0.142797 0.046864
v -0.144000 -0.119374 0.059647
v -0.169326 -0.090833 0.070137
v -0.188145 -0.058271 0.077932
v -0.199733 -0.022939 0.082732
v -0.035756 -0.170920 0.023891
v -0.070137 -0.160202 0.046864
v -0.101823 -0.142797 0.068036
v -0.129596 -0.119374 0.086593
v -0.152389 -0.090833 0.101823
v -0.169326 -0.058271 0.113140
v -0.179755 -0.022939 0.120109
v -0.030408 -0.170920 0.030408
v -0.059647 -0.160202 0.059647
v -0.086593 -0.142797 0.086593
v -0.110213 -0.119374 0.110213
v -0.129596 -0.090833 0.129596
v -0.144000 -0.058271 0.144000
v -0.152869 -0.022939 0.152869
v -0.023891 -0.170920 0.035756
v -0.046864 -0.160202 0.070137
v -0.068036 -0.142797 0.101823
v -0.086593 -0.119374 0.129596
v -0.101823 -0.090833 0.152389
v -0.113140 -0.058271 0.169326
v -0.120109 -0.022939 0.179755
v -0.016456 -0.170920 0.039729
v -0.032281 -0.160202 0.077932
v -0.046864 -0.142797 0.113140
v -0.059647 -0.119374 0.144000
v -0.070137 -0.090833 0.169326
v -0.077932 -0.058271 0.188145
v -0.082732 -0.022939 0.199733
v -0.008389 -0.170920 0.042176
v -0.016456 -0.160202 0.082732
v -0.023891 -0.142797 0.120109
v -0.030408 -0.119374 0.152869
v -0.035755 -0.090833 0.179755
v -0.039729 -0.058271 0.199733
v -0.042176 -0.022939 0.212036
v 0.000000 -0.170920 0.043003
v 0.000000 -0.160202 0.084353
v 0.000000 -0.142797 0.122462
v 0.000000 -0.119374 0.155864
v 0.000000 -0.090833 0.183277
v 0.000000 -0.058271 0.203646
v 0.000000 -0.022939 0.216190
vt 0.4014 0.9229
vt 0.4014 0.8840
vt 0.4492 0.8773
vt 0.4545 0.9154
vt 0.4014 0.9468
vt 0.4578 0.9389
vt 0.4014 0.6161
vt 0.4014 0.5340
vt 0.4126 0.6145
vt 0.4014 0.6951
vt 0.4234 0.6920
vt 0.4014 0.7679
vt 0.4334 0.7634
vt 0.4014 0.8316
vt 0.4421 0.8259
vt 0.4812 0.8090
vt 0.4952 0.8574
vt 0.5056 0.8933
vt 0.5121 0.9154
vt 0.4234 0.6099
vt 0.4446 0.6828
vt 0.4641 0.7501
vt 0.4334 0.6023
vt 0.4641 0.6679
vt 0.4924 0.7284
vt 0.5172 0.7815
vt 0.5376 0.8250
vt 0.5527 0.8574
vt 0.5620 0.8773
vt 0.5747 0.7815
vt 0.5940 0.8090
vt 0.6059 0.8259
vt 0.4421 0.5921
vt 0.4812 0.6479
vt 0.5172 0.6994
vt 0.5488 0.7445
vt 0.4492 0.5796
vt 0.4952 0.6235
vt 0.5376 0.6639
vt 0.5747 0.6994
vt 0.6052 0.7284
vt 0.6279 0.7501
vt 0.6418 0.7634
vt 0.6279 0.6679
vt 0.6530 0.6828
vt 0.6685 0.6920
vt 0.4545 0.5654
vt 0.5056 0.5956
vt 0.5527 0.6235
vt 0.5940 0.6479
vt 0.5121 0.5654
vt 0.5620 0.5796
vt 0.6059 0.5921
vt 0.6418 0.6023
vt 0.6685 0.6099
vt 0.6850 0.6145
vt 0.4578 0.5500
vt 0.6738 0.5340
vt 0.6906 0.5340
vt 0.4589 0.5340
vt 0.5142 0.5340
vt 0.5652 0.5340
vt 0.6099 0.5340
vt 0.6465 0.5340
vt 0.5620 0.4884
vt 0.6059 0.4759
vt 0.6418 0.4657
vt 0.6685 0.4581
vt 0.6850 0.4535
vt 0.4578 0.5180
vt 0.5121 0.5026
vt 0.4545 0.5026
vt 0.5056 0.4724
vt 0.5527 0.4445
vt 0.5940 0.4201
vt 0.6279 0.4001
vt 0.6530 0.3852
vt 0.6685 0.3760
vt 0.5376 0.4041
vt 0.5747 0.3686
vt 0.6052 0.3396
vt 0.6279 0.3179
vt 0.6418 0.3046
vt 0.4492 0.4884
vt 0.4952 0.4445
vt 0.4421 0.4759
vt 0.4812 0.4201
vt 0.5172 0.3686
vt 0.5488 0.3235
vt 0.5747 0.2865
vt 0.5940 0.2590
vt 0.6059 0.2421
vt 0.5172 0.2865
vt 0.5376 0.2430
vt 0.5527 0.2107
vt 0.5620 0.1907
vt 0.4334 0.4657
vt 0.4641 0.4001
vt 0.4924 0.3396
vt 0.4234 0.4581
vt 0.4446 0.3852
vt 0.4641 0.3179
vt 0.4812 0.2590
vt 0.4952 0.2107
vt 0.5056 0.1747
vt 0.5121 0.1526
vt 0.4421 0.2421
vt 0.4492 0.1907
vt 0.4545 0.1526
vt 0.4578 0.1291
vt 0.4126 0.4535
vt 0.4234 0.3760
vt 0.4334 0.3046
vt 0.4014 0.4519
vt 0.4014 0.3729
vt 0.4014 0.3001
vt 0.4014 0.2364
vt 0.4014 0.1840
vt 0.4014 0.1451
vt 0.4014 0.1212
vt 0.3536 0.1907
vt 0.3483 0.1526
vt 0.3450 0.1291
vt 0.3902 0.4535
vt 0.3794 0.3760
vt 0.3694 0.3046
vt 0.3607 0.2421
vt 0.3582 0.3852
vt 0.3387 0.3179
vt 0.3216 0.2590
vt 0.3076 0.2107
vt 0.2972 0.1747
vt 0.2907 0.1526
vt 0.3794 0.4581
vt 0.2501 0.2107
vt 0.2407 0.1907
vt 0.3694 0.4657
vt 0.3387 0.4001
vt 0.3104 0.3396
vt 0.2856 0.2865
vt 0.2652 0.2430
vt 0.3216 0.4201
vt 0.2856 0.3686
vt 0.2540 0.3235
vt 0.2281 0.2865
vt 0.2088 0.2590
vt 0.1969 0.2421
vt 0.3607 0.4759
vt 0.1749 0.3179
vt 0.1610 0.3046
vt 0.3536 0.4884
vt 0.3076 0.4445
vt 0.2652 0.4041
vt 0.2281 0.3686
vt 0.1976 0.3396
vt 0.2501 0.4445
vt 0.2088 0.4201
vt 0.1749 0.4001
vt 0.1497 0.3852
vt 0.1342 0.3760
vt 0.3483 0.5026
vt 0.2972 0.4724
vt 0.3450 0.5180
vt 0.2907 0.5026
vt 0.2407 0.4884
vt 0.1969 0.4759
vt 0.1610 0.4657
vt 0.1342 0.4581
vt 0.1178 0.4535
vt 0.2376 0.5340
vt 0.1929 0.5340
vt 0.1563 0.5340
vt 0.1290 0.5340
vt 0.1122 0.5340
vt 0.3439 0.5340
vt 0.2886 0.5340
vt 0.3450 0.5500
vt 0.2907 0.5654
vt 0.2407 0.5796
vt 0.1969 0.5921
vt 0.1610 0.6023
vt 0.1342 0.6099
vt 0.1178 0.6145
vt 0.2088 0.6479
vt 0.1749 0.6679
vt 0.1497 0.6828
vt 0.1342 0.6920
vt 0.3483 0.5654
vt 0.2972 0.5956
vt 0.2501 0.6235
vt 0.3536 0.5796
vt 0.3076 0.6235
vt 0.2652 0.6639
vt 0.2281 0.6994
vt 0.1976 0.7284
vt 0.1749 0.7501
vt 0.1610 0.7634
vt 0.2281 0.7815
vt 0.2088 0.8090
vt 0.1969 0.8259
vt 0.3607 0.5921
vt 0.3216 0.6479
vt 0.2856 0.6994
vt 0.2540 0.7445
vt 0.3694 0.6023
vt 0.3387 0.6679
vt 0.3104 0.7284
vt 0.2856 0.7815
vt 0.2652 0.8250
vt 0.2501 0.8574
vt 0.2407 0.8773
vt 0.3076 0.8574
vt 0.2972 0.8933
vt 0.2907 0.9154
vt 0.3794 0.6099
vt 0.3582 0.6828
vt 0.3387 0.7501
vt 0.3216 0.8090
vt 0.3794 0.6920
vt 0.3694 0.7634
vt 0.3607 0.8259
vt 0.3536 0.8773
vt 0.3483 0.9154
vt 0.3450 0.9389
vt 0.3902 0.6145
vn 0.0000 -0.4324 0.9017
vn 0.0000 -0.6117 0.7911
vn 0.1543 -0.6117 0.7759
vn 0.1759 -0.4324 0.8843
vn 0.0000 -0.3345 0.9424
vn 0.1838 -0.3345 0.9243
vn 0.0000 -0.9849 0.1731
vn 0.0000 -1.0000 0.0000
vn 0.0338 -0.9849 0.1698
vn 0.0000 -0.9407 0.3393
vn 0.0662 -0.9407 0.3327
vn 0.0000 -0.8654 0.5011
vn 0.0978 -0.8654 0.4915
vn 0.0000 -0.7563 0.6542
vn 0.1276 -0.7563 0.6416
vn 0.2503 -0.7563 0.6044
vn 0.3027 -0.6117 0.7309
vn 0.3450 -0.4324 0.8330
vn 0.3606 -0.3345 0.8706
vn 0.0662 -0.9849 0.1599
vn 0.1298 -0.9407 0.3134
vn 0.1918 -0.8654 0.4630
vn 0.0962 -0.9849 0.1439
vn 0.1885 -0.9407 0.2821
vn 0.2784 -0.8654 0.4167
vn 0.3634 -0.7563 0.5439
vn 0.4395 -0.6117 0.6578
vn 0.5009 -0.4324 0.7497
vn 0.5235 -0.3345 0.7835
vn 0.5594 -0.6117 0.5594
vn 0.6376 -0.4324 0.6376
vn 0.6663 -0.3345 0.6663
vn 0.1224 -0.9849 0.1224
vn 0.2399 -0.9407 0.2399
vn 0.3544 -0.8654 0.3544
vn 0.4626 -0.7563 0.4626
vn 0.1439 -0.9849 0.0962
vn 0.2821 -0.9407 0.1885
vn 0.4167 -0.8654 0.2784
vn 0.5439 -0.7563 0.3634
vn 0.6578 -0.6117 0.4395
vn 0.7497 -0.4324 0.5009
vn 0.7835 -0.3345 0.5235
vn 0.7309 -0.6117 0.3027
vn 0.8330 -0.4324 0.3450
vn 0.8706 -0.3345 0.3606
vn 0.1599 -0.9849 0.0662
vn 0.3134 -0.9407 0.1298
vn 0.4630 -0.8654 0.1918
vn 0.6044 -0.7563 0.2503
vn 0.3327 -0.9407 0.0662
vn 0.4915 -0.8654 0.0978
vn 0.6416 -0.7563 0.1276
vn 0.7759 -0.6117 0.1543
vn 0.8843 -0.4324 0.1759
vn 0.9243 -0.3345 0.1838
vn 0.1698 -0.9849 0.0338
vn 0.9017 -0.4324 0.0000
vn 0.9424 -0.3345 0.0000
vn 0.1731 -0.9849 0.0000
vn 0.3393 -0.9407 0.0000
vn 0.5011 -0.8654 0.0000
vn 0.6542 -0.7563 0.0000
vn 0.7911 -0.6117 0.0000
vn 0.4915 -0.8654 -0.0978
vn 0.6416 -0.7563 -0.1276
vn 0.7759 -0.6117 -0.1543
vn 0.8843 -0.4324 -0.1759
vn 0.9243 -0.3345 -0.1838
vn 0.1698 -0.9849 -0.0338
vn 0.3327 -0.9407 -0.0662
vn 0.1599 -0.9849 -0.0662
vn 0.3134 -0.9407 -0.1298
vn 0.4630 -0.8654 -0.1918
vn 0.6044 -0.7563 -0.2503
vn 0.7309 -0.6117 -0.3027
vn 0.8330 -0.4324 -0.3450
vn 0.8706 -0.3345 -0.3606
vn 0.4167 -0.8654 -0.2784
vn 0.5439 -0.7563 -0.3634
vn 0.6578 -0.6117 -0.4395
vn 0.7497 -0.4324 -0.5009
vn 0.7835 -0.3345 -0.5235
vn 0.1439 -0.9849 -0.0962
vn 0.2821 -0.9407 -0.1885
vn 0.1224 -0.9849 -0.1224
vn 0.2399 -0.9407 -0.2399
vn 0.3544 -0.8654 -0.3544
vn 0.4626 -0.7563 -0.4626
vn 0.5594 -0.6117 -0.5594
vn 0.6376 -0.4324 -0.6376
vn 0.6663 -0.3345 -0.6663
vn 0.3634 -0.7563 -0.5439
vn 0.4395 -0.6117 -0.6578
vn 0.5009 -0.4324 -0.7497
vn 0.5235 -0.3345 -0.7835
vn 0.0962 -0.9849 -0.1439
vn 0.1885 -0.9407 -0.2821
vn 0.2784 -0.8654 -0.4167
vn 0.0662 -0.9849 -0.1599
vn 0.1298 -0.9407 -0.3134
vn 0.1918 -0.8654 -0.4630
vn 0.2503 -0.7563 -0.6044
vn 0.3027 -0.6117 -0.7309
vn 0.3450 -0.4324 -0.8330
vn 0.3606 -0.3345 -0.8706
vn 0.1276 -0.7563 -0.6416
vn 0.1543 -0.6117 -0.7759
vn 0.1759 -0.4324 -0.8843
vn 0.1838 -0.3345 -0.9243
vn 0.0338 -0.9849 -0.1698
vn 0.0662 -0.9407 -0.3327
vn 0.0978 -0.8654 -0.4915
vn 0.0000 -0.9849 -0.1731
vn 0.0000 -0.9407 -0.3393
vn 0.0000 -0.8654 -0.5011
vn 0.0000 -0.7563 -0.6542
vn 0.0000 -0.6117 -0.7911
vn 0.0000 -0.4324 -0.9017
vn 0.0000 -0.3345 -0.9424
vn -0.1543 -0.6117 -0.7759
vn -0.1759 -0.4324 -0.8843
vn -0.1838 -0.3345 -0.9243
vn -0.0338 -0.9849 -0.1698
vn -0.0662 -0.9407 -0.3327
vn -0.0978 -0.8654 -0.4915
vn -0.1276 -0.7563 -0.6416
vn -0.1298 -0.9407 -0.3134
vn -0.1918 -0.8654 -0.4630
vn -0.2503 -0.7563 -0.6044
vn -0.3027 -0.6117 -0.7309
vn -0.3450 -0.4324 -0.8330
vn -0.3606 -0.3345 -0.8706
vn -0.0662 -0.9849 -0.1599
vn -0.5009 -0.4324 -0.7497
vn -0.5235 -0.3345 -0.7835
vn -0.0962 -0.9849 -0.1439
vn -0.1885 -0.9407 -0.2821
vn -0.2784 -0.8654 -0.4167
vn -0.3634 -0.7563 -0.5439
vn -0.4395 -0.6117 -0.6578
vn -0.2399 -0.9407 -0.2399
vn -0.3544 -0.8654 -0.3544
vn -0.4626 -0.7563 -0.4626
vn -0.5594 -0.6117 -0.5594
vn -0.6376 -0.4324 -0.6376
vn -0.6663 -0.3345 -0.6663
vn -0.1224 -0.9849 -0.1224
vn -0.7497 -0.4324 -0.5009
vn -0.7835 -0.3345 -0.5235
vn -0.1439 -0.9849 -0.0962
vn -0.2821 -0.9407 -0.1885
vn -0.4167 -0.8654 -0.2784
vn -0.5439 -0.7563 -0.3634
vn -0.6578 -0.6117 -0.4395
vn -0.4630 -0.8654 -0.1918
vn -0.6044 -0.7563 -0.2503
vn -0.7309 -0.6117 -0.3027
vn -0.8330 -0.4324 -0.3450
vn -0.8706 -0.3345 -0.3606
vn -0.1599 -0.9849 -0.0662
vn -0.3134 -0.9407 -0.1298
vn -0.1698 -0.9849 -0.0338
vn -0.3327 -0.9407 -0.0662
vn -0.4915 -0.8654 -0.0978
vn -0.6416 -0.7563 -0.1276
vn -0.7759 -0.6117 -0.1543
vn -0.8843 -0.4324 -0.1759
vn -0.9243 -0.3345 -0.1838
vn -0.5011 -0.8654 0.0000
vn -0.6542 -0.7563 0.0000
vn -0.7911 -0.6117 0.0000
vn -0.9017 -0.4324 0.0000
vn -0.9424 -0.3345 0.0000
vn -0.1731 -0.9849 0.0000
vn -0.3393 -0.9407 0.0000
vn -0.1698 -0.9849 0.0338
vn -0.3327 -0.9407 0.0662
vn -0.4915 -0.8654 0.0978
vn -0.6416 -0.7563 0.1276
vn -0.7759 -0.6117 0.1543
vn -0.8843 -0.4324 0.1759
vn -0.9243 -0.3345 0.1838
vn -0.6044 -0.7563 0.2503
vn -0.7309 -0.6117 0.3027
vn -0.8330 -0.4324 0.3450
vn -0.8706 -0.3345 0.3606
vn -0.1599 -0.9849 0.0662
vn -0.3134 -0.9407 0.1298
vn -0.4630 -0.8654 0.1918
vn -0.1439 -0.9849 0.0962
vn -0.2821 -0.9407 0.1885
vn -0.4167 -0.8654 0.2784
vn -0.5439 -0.7563 0.3634
vn -0.6578 -0.6117 0.4395
vn -0.7497 -0.4324 0.5009
vn -0.7835 -0.3345 0.5235
vn -0.5594 -0.6117 0.5594
vn -0.6376 -0.4324 0.6376
vn -0.6663 -0.3345 0.6663
vn -0.1224 -0.9849 0.1224
vn -0.2399 -0.9407 0.2399
vn -0.3544 -0.8654 0.3544
vn -0.4626 -0.7563 0.4626
vn -0.0962 -0.9849 0.1439
vn -0.1885 -0.9407 0.2821
vn -0.2784 -0.8654 0.4167
vn -0.3634 -0.7563 0.5439
vn -0.4395 -0.6117 0.6578
vn -0.5009 -0.4324 0.7497
vn -0.5235 -0.3345 0.7835
vn -0.3027 -0.6117 0.7309
vn -0.3450 -0.4324 0.8330
vn -0.3606 -0.3345 0.8706
vn -0.0662 -0.9849 0.1599
vn -0.1298 -0.9407 0.3134
vn -0.1918 -0.8654 0.4630
vn -0.2503 -0.7563 0.6044
vn -0.0662 -0.9407 0.3327
vn -0.0978 -0.8654 0.4915
vn -0.1276 -0.7563 0.6416
vn -0.1543 -0.6117 0.7759
vn -0.1759 -0.4324 0.8843
vn -0.1838 -0.3345 0.9243
vn -0.0338 -0.9849 0.1698
s 1
f 224/1/1 223/2/2 5/3/3 6/4/4
f 225/5/5 224/1/1 6/4/4 7/6/6
f 219/7/7 120/8/8 1/9/9
f 220/10/10 219/7/7 1/9/9 2/11/11
f 221/12/12 220/10/10 2/11/11 3/13/13
f 222/14/14 221/12/12 3/13/13 4/15/15
f 223/2/2 222/14/14 4/15/15 5/3/3
f 5/3/3 4/15/15 11/16/16 12/17/17
f 6/4/4 5/3/3 12/17/17 13/18/18
f 7/6/6 6/4/4 13/18/18 14/19/19
f 1/9/9 120/8/8 8/20/20
f 2/11/11 1/9/9 8/20/20 9/21/21
f 3/13/13 2/11/11 9/21/21 10/22/22
f 4/15/15 3/13/13 10/22/22 11/16/16
f 9/21/21 8/20/20 15/23/23 16/24/24
f 10/22/22 9/21/21 16/24/24 17/25/25
f 11/16/16 10/22/22 17/25/25 18/26/26
f 12/17/17 11/16/16 18/26/26 19/27/27
f 13/18/18 12/17/17 19/27/27 20/28/28
f 14/19/19 13/18/18 20/28/28 21/29/29
f 8/20/20 120/8/8 15/23/23
f 20/28/28 19/27/27 26/30/30 27/31/31
f 21/29/29 20/28/28 27/31/31 28/32/32
f 15/23/23 120/8/8 22/33/33
f 16/24/24 15/23/23 22/33/33 23/34/34
f 17/25/25 16/24/24 23/34/34 24/35/35
f 18/26/26 17/25/25 24/35/35 25/36/36
f 19/27/27 18/26/26 25/36/36 26/30/30
f 23/34/34 22/33/33 29/37/37 30/38/38
f 24/35/35 23/34/34 30/38/38 31/39/39
f 25/36/36 24/35/35 31/39/39 32/40/40
f 26/30/30 25/36/36 32/40/40 33/41/41
f 27/31/31 26/30/30 33/41/41 34/42/42
f 28/32/32 27/31/31 34/42/42 35/43/43
f 22/33/33 120/8/8 29/37/37
f 34/42/42 33/41/41 40/44/44 41/45/45
f 35/43/43 34/42/42 41/45/45 42/46/46
f 29/37/37 120/8/8 36/47/47
f 30/38/38 29/37/37 36/47/47 37/48/48
f 31/39/39 30/38/38 37/48/48 38/49/49
f 32/40/40 31/39/39 38/49/49 39/50/50
f 33/41/41 32/40/40 39/50/50 40/44/44
f 38/49/49 37/48/48 44/51/51 45/52/52
f 39/50/50 38/49/49 45/52/52 46/53/53
f 40/44/44 39/50/50 46/53/53 47/54/54
f 41/45/45 40/44/44 47/54/54 48/55/55
f 42/46/46 41/45/45 48/55/55 49/56/56
f 36/47/47 120/8/8 43/57/57
f 37/48/48 36/47/47 43/57/57 44/51/51
f 49/56/56 48/55/55 55/58/58 56/59/59
f 43/57/57 120/8/8 50/60/60
f 44/51/51 43/57/57 50/60/60 51/61/61
f 45/52/52 44/51/51 51/61/61 52/62/62
f 46/53/53 45/52/52 52/62/62 53/63/63
f 47/54/54 46/53/53 53/63/63 54/64/64
f 48/55/55 47/54/54 54/64/64 55/58/58
f 53/63/63 52/62/62 59/65/65 60/66/66
f 54/64/64 53/63/63 60/66/66 61/67/67
f 55/58/58 54/64/64 61/67/67 62/68/68
f 56/59/59 55/58/58 62/68/68 63/69/69
f 50/60/60 120/8/8 57/70/70
f 51/61/61 50/60/60 57/70/70 58/71/71
f 52/62/62 51/61/61 58/71/71 59/65/65
f 57/70/70 120/8/8 64/72/72
f 58/71/71 57/70/70 64/72/72 65/73/73
f 59/65/65 58/71/71 65/73/73 66/74/74
f 60/66/66 59/65/65 66/74/74 67/75/75
f 61/67/67 60/66/66 67/75/75 68/76/76
f 62/68/68 61/67/67 68/76/76 69/77/77
f 63/69/69 62/68/68 69/77/77 70/78/78
f 67/75/75 66/74/74 73/79/79 74/80/80
f 68/76/76 67/75/75 74/80/80 75/81/81
f 69/77/77 68/76/76 75/81/81 76/82/82
f 70/78/78 69/77/77 76/82/82 77/83/83
f 64/72/72 120/8/8 71/84/84
f 65/73/73 64/72/72 71/84/84 72/85/85
f 66/74/74 65/73/73 72/85/85 73/79/79
f 71/84/84 120/8/8 78/86/86
f 72/85/85 71/84/84 78/86/86 79/87/87
f 73/79/79 72/85/85 79/87/87 80/88/88
f 74/80/80 73/79/79 80/88/88 81/89/89
f 75/81/81 74/80/80 81/89/89 82/90/90
f 76/82/82 75/81/81 82/90/90 83/91/91
f 77/83/83 76/82/82 83/91/91 84/92/92
f 82/90/90 81/89/89 88/93/93 89/94/94
f 83/91/91 82/90/90 89/94/94 90/95/95
f 84/92/92 83/91/91 90/95/95 91/96/96
f 78/86/86 120/8/8 85/97/97
f 79/87/87 78/86/86 85/97/97 86/98/98
f 80/88/88 79/87/87 86/98/98 87/99/99
f 81/89/89 80/88/88 87/99/99 88/93/93
f 85/97/97 120/8/8 92/100/100
f 86/98/98 85/97/97 92/100/100 93/101/101
f 87/99/99 86/98/98 93/101/101 94/102/102
f 88/93/93 87/99/99 94/102/102 95/103/103
f 89/94/94 88/93/93 95/103/103 96/104/104
f 90/95/95 89/94/94 96/104/104 97/105/105
f 91/96/96 90/95/95 97/105/105 98/106/106
f 96/104/104 95/103/103 102/107/107 103/108/108
f 97/105/105 96/104/104 103/108/108 104/109/109
f 98/106/106 97/105/105 104/109/109 105/110/110
f 92/100/100 120/8/8 99/111/111
f 93/101/101 92/100/100 99/111/111 100/112/112
f 94/102/102 93/101/101 100/112/112 101/113/113
f 95/103/103 94/102/102 101/113/113 102/107/107
f 100/112/112 99/111/111 106/114/114 107/115/115
f 101/113/113 100/112/112 107/115/115 108/116/116
f 102/107/107 101/113/113 108/116/116 109/117/117
f 103/108/108 102/107/107 109/117/117 110/118/118
f 104/109/109 103/108/108 110/118/118 111/119/119
f 105/110/110 104/109/109 111/119/119 112/120/120
f 99/111/111 120/8/8 106/114/114
f 111/119/119 110/118/118 117/121/121 118/122/122
f 112/120/120 111/119/119 118/122/122 119/123/123
f 106/114/114 120/8/8 113/124/124
f 107/115/115 106/114/114 113/124/124 114/125/125
f 108/116/116 107/115/115 114/125/125 115/126/126
f 109/117/117 108/116/116 115/126/126 116/127/127
f 110/118/118 109/117/117 116/127/127 117/121/121
f 115/126/126 114/125/125 122/128/128 123/129/129
f 116/127/127 115/126/126 123/129/129 124/130/130
f 117/121/121 116/127/127 124/130/130 125/131/131
f 118/122/122 117/121/121 125/131/131 126/132/132
f 119/123/123 118/122/122 126/132/132 127/133/133
f 113/124/124 120/8/8 121/134/134
f 114/125/125 113/124/124 121/134/134 122/128/128
f 127/133/133 126/132/132 133/135/135 134/136/136
f 121/134/134 120/8/8 128/137/137
f 122/128/128 121/134/134 128/137/137 129/138/138
f 123/129/129 122/128/128 129/138/138 130/139/139
f 124/130/130 123/129/129 130/139/139 131/140/140
f 125/131/131 124/130/130 131/140/140 132/141/141
f 126/132/132 125/131/131 132/141/141 133/135/135
f 130/139/139 129/138/138 136/142/142 137/143/143
f 131/140/140 130/139/139 137/143/143 138/144/144
f 132/141/141 131/140/140 138/144/144 139/145/145
f 133/135/135 132/141/141 139/145/145 140/146/146
f 134/136/136 133/135/135 140/146/146 141/147/147
f 128/137/137 120/8/8 135/148/148
f 129/138/138 128/137/137 135/148/148 136/142/142
f 141/147/147 140/146/146 147/149/149 148/150/150
f 135/148/148 120/8/8 142/151/151
f 136/142/142 135/148/148 142/151/151 143/152/152
f 137/143/143 136/142/142 143/152/152 144/153/153
f 138/144/144 137/143/143 144/153/153 145/154/154
f 139/145/145 138/144/144 145/154/154 146/155/155
f 140/146/146 139/145/145 146/155/155 147/149/149
f 145/154/154 144/153/153 151/156/156 152/157/157
f 146/155/155 145/154/154 152/157/157 153/158/158
f 147/149/149 146/155/155 153/158/158 154/159/159
f 148/150/150 147/149/149 154/159/159 155/160/160
f 142/151/151 120/8/8 149/161/161
f 143/152/152 142/151/151 149/161/161 150/162/162
f 144/153/153 143/152/152 150/162/162 151/156/156
f 149/161/161 120/8/8 156/163/163
f 150/162/162 149/161/161 156/163/163 157/164/164
f 151/156/156 150/162/162 157/164/164 158/165/165
f 152/157/157 151/156/156 158/165/165 159/166/166
f 153/158/158 152/157/157 159/166/166 160/167/167
f 154/159/159 153/158/158 160/167/167 161/168/168
f 155/160/160 154/159/159 161/168/168 162/169/169
f 159/166/166 158/165/165 165/170/170 166/171/171
f 160/167/167 159/166/166 166/171/171 167/172/172
f 161/168/168 160/167/167 167/172/172 168/173/173
f 162/169/169 161/168/168 168/173/173 169/174/174
f 156/163/163 120/8/8 163/175/175
f 157/164/164 156/163/163 163/175/175 164/176/176
f 158/165/165 157/164/164 164/176/176 165/170/170
f 163/175/175 120/8/8 170/177/177
f 164/176/176 163/175/175 170/177/177 171/178/178
f 165/170/170 164/176/176 171/178/178 172/179/179
f 166/171/171 165/170/170 172/179/179 173/180/180
f 167/172/172 166/171/171 173/180/180 174/181/181
f 168/173/173 167/172/172 174/181/181 175/182/182
f 169/174/174 168/173/173 175/182/182 176/183/183
f 174/181/181 173/180/180 180/184/184 181/185/185
f 175/182/182 174/181/181 181/185/185 182/186/186
f 176/183/183 175/182/182 182/186/186 183/187/187
f 170/177/177 120/8/8 177/188/188
f 171/178/178 170/177/177 177/188/188 178/189/189
f 172/179/179 171/178/178 178/189/189 179/190/190
f 173/180/180 172/179/179 179/190/190 180/184/184
f 178/189/189 177/188/188 184/191/191 185/192/192
f 179/190/190 178/189/189 185/192/192 186/193/193
f 180/184/184 179/190/190 186/193/193 187/194/194
f 181/185/185 180/184/184 187/194/194 188/195/195
f 182/186/186 181/185/185 188/195/195 189/196/196
f 183/187/187 182/186/186 189/196/196 190/197/197
f 177/188/188 120/8/8 184/191/191
f 189/196/196 188/195/195 195/198/198 196/199/199
f 190/197/197 189/196/196 196/199/199 197/200/200
f 184/191/191 120/8/8 191/201/201
f 185/192/192 184/191/191 191/201/201 192/202/202
f 186/193/193 185/192/192 192/202/202 193/203/203
f 187/194/194 186/193/193 193/203/203 194/204/204
f 188/195/195 187/194/194 194/204/204 195/198/198
f 192/202/202 191/201/201 198/205/205 199/206/206
f 193/203/203 192/202/202 199/206/206 200/207/207
f 194/204/204 193/203/203 200/207/207 201/208/208
f 195/198/198 194/204/204 201/208/208 202/209/209
f 196/199/199 195/198/198 202/209/209 203/210/210
f 197/200/200 196/199/199 203/210/210 204/211/211
f 191/201/201 120/8/8 198/205/205
f 203/210/210 202/209/209 209/212/212 210/213/213
f 204/211/211 203/210/210 210/213/213 211/214/214
f 198/205/205 120/8/8 205/215/215
f 199/206/206 198/205/205 205/215/215 206/216/216
f 200/207/207 199/206/206 206/216/216 207/217/217
f 201/208/208 200/207/207 207/217/217 208/218/218
f 202/209/209 201/208/208 208/218/218 209/212/212
f 207/217/217 206/216/216 213/219/219 214/220/220
f 208/218/218 207/217/217 214/220/220 215/221/221
f 209/212/212 208/218/218 215/221/221 216/222/222
f 210/213/213 209/212/212 216/222/222 217/223/223
f 211/214/214 210/213/213 217/223/223 218/224/224
f 205/215/215 120/8/8 212/225/225
f 206/216/216 205/215/215 212/225/225 213/219/219
f 218/224/224 217/223/223 224/1/1 225/5/5
f 212/225/225 120/8/8 219/7/7
f 213/219/219 212/225/225 219/7/7 220/10/10
f 214/220/220 213/219/219 220/10/10 221/12/12
f 215/221/221 214/220/220 221/12/12 222/14/14
f 216/222/222 215/221/221 222/14/14 223/2/2
f 217/223/223 216/222/222 223/2/2 224/1/1
