# Blender v2.78 (sub 0) OBJ File: ''
# www.blender.org
v 1.470000 -1.470000 0.000000
v 1.470002 -6.500000 0.000000
v 1.470001 -6.500001 3.000000
v 1.469999 -1.470001 3.000000
v 6.500000 -1.469999 3.000000
v 6.500000 -1.469998 0.000000
v -1.470000 1.470000 3.000000
v -1.469999 -6.500000 3.000000
v -1.469999 -6.500000 0.000000
v -1.470001 1.470001 0.000000
v 6.500000 1.470001 0.000000
v 6.500001 1.470001 3.000000
vn -1.0000 -0.0000 -0.0000
vn -0.0000 1.0000 0.0000
vn 0.7071 -0.7071 -0.0000
vn 1.0000 0.0000 -0.0000
vn 0.0000 -1.0000 -0.0000
s 1
f 1//1 2//1 3//1 4//1
f 4//2 5//2 6//2 1//2
f 7//3 8//4 9//4 10//3
f 10//3 11//5 12//5 7//3
