# Blender v2.78 (sub 0) OBJ File: 'Lamp-Tortiglioni.blend'
#
# Model by nulus on BlendSwap: http://www.blendswap.com/blends/view/87779
# Model modified and simplified by Tomas Ohberg
# CC-0
#
# www.blender.org
v 0.037122 0.013331 -2.910711
v 0.018088 0.036968 -2.910702
v 0.017089 0.034988 -2.895207
v 0.035072 0.012656 -2.895209
v -0.010865 0.034059 -2.831619
v -0.011382 0.035625 -2.844384
v -0.033371 0.017918 -2.844384
v -0.031824 0.017138 -2.831629
v 0.033897 -0.015993 -2.895207
v 0.035878 -0.016991 -2.910702
v 0.012241 -0.036025 -2.910711
v 0.011565 -0.033976 -2.895209
v -0.017083 -0.032801 -2.895207
v -0.018081 -0.034781 -2.910702
v -0.024482 0.013437 -2.828268
v -0.007399 0.023546 -2.827946
v 0.032969 0.011962 -2.831619
v 0.022456 0.008496 -2.827946
v 0.024489 -0.011250 -2.828268
v 0.031830 -0.014951 -2.831629
v 0.012347 0.025579 -2.828268
v 0.016047 0.032920 -2.831629
v 0.012347 0.025579 0.006115
v 0.022456 0.008496 0.006437
v -0.024482 0.013437 0.006115
v -0.007399 0.023546 0.006437
v 0.016828 0.034468 -2.844384
v 0.034535 0.012478 -2.844384
v 0.034602 0.012501 -2.869195
v 0.016860 0.034533 -2.869194
v 0.011410 -0.033505 -2.869195
v 0.033443 -0.015764 -2.869194
v 0.033378 -0.015731 -2.844384
v 0.011388 -0.033438 -2.844384
v 0.010872 -0.031873 -2.831619
v 0.007406 -0.021360 -2.827946
v -0.022450 -0.006309 -2.827946
v -0.022450 -0.006309 0.006437
v -0.034596 -0.010314 -2.869195
v -0.016854 -0.032346 -2.869194
v -0.016821 -0.032281 -2.844384
v -0.034529 -0.010292 -2.844384
v -0.012340 -0.023392 -2.828268
v -0.012340 -0.023392 0.006115
v -0.016041 -0.030734 -2.831629
v -0.032963 -0.009775 -2.831619
v -0.035066 -0.010469 -2.895209
v -0.033891 0.018180 -2.895207
v -0.033436 0.017950 -2.869194
v -0.011404 0.035692 -2.869195
v -0.011559 0.036162 -2.895209
v 0.024489 -0.011250 0.006115
v 0.007406 -0.021360 0.006437
v -0.012234 0.038212 -2.910711
v -0.035872 0.019178 -2.910702
v -0.037115 -0.011144 -2.910711
vt 0.2010 0.5000
vt 0.2013 0.4988
vt 0.2083 0.4988
vt 0.2079 0.5000
vt 0.2369 0.4979
vt 0.2313 0.4979
vt 0.2329 0.4968
vt 0.2383 0.4969
vt 0.2083 0.5012
vt 0.2013 0.5012
vt 0.2024 0.5024
vt 0.2092 0.5024
vt 0.2111 0.5035
vt 0.2041 0.5036
vt 0.2425 0.4970
vt 0.2416 0.4980
vt 0.2357 0.5000
vt 0.2405 0.5000
vt 0.2403 0.5010
vt 0.2357 0.5010
vt 0.2403 0.4990
vt 0.2357 0.4990
vt 0.8484 0.4991
vt 0.8486 0.5000
vt 0.8484 0.4973
vt 0.8486 0.4982
vt 0.2303 0.4989
vt 0.2300 0.5000
vt 0.2194 0.5000
vt 0.2198 0.4989
vt 0.2208 0.5022
vt 0.2198 0.5011
vt 0.2303 0.5011
vt 0.2313 0.5021
vt 0.2369 0.5021
vt 0.2416 0.5020
vt 0.2458 0.4961
vt 0.8487 0.4963
vt 0.2250 0.5045
vt 0.2226 0.5034
vt 0.2329 0.5032
vt 0.2360 0.5043
vt 0.2458 0.5039
vt 0.2425 0.5030
vt 0.8484 0.5027
vt 0.8487 0.5036
vt 0.2383 0.5031
vt 0.2419 0.5041
vt 0.2419 0.4959
vt 0.2360 0.4957
vt 0.2136 0.5047
vt 0.2111 0.4965
vt 0.2136 0.4953
vt 0.2250 0.4955
vt 0.2226 0.4966
vt 0.2208 0.4978
vt 0.2092 0.4976
vt 0.8484 0.5009
vt 0.8486 0.5018
vt 0.2024 0.4976
vt 0.2041 0.4964
vt 0.2069 0.4952
vt 0.2069 0.5048
vn 0.9406 0.3101 0.1379
vn 0.4456 0.8839 0.1417
vn 0.4486 0.8899 0.0821
vn 0.9467 0.3121 0.0797
vn -0.2571 0.7800 0.5705
vn -0.3125 0.9477 0.0654
vn -0.8909 0.4491 0.0670
vn -0.7324 0.3692 0.5720
vn 0.8899 -0.4486 0.0821
vn 0.8840 -0.4456 0.1417
vn 0.3101 -0.9406 0.1379
vn 0.3121 -0.9467 0.0797
vn -0.4486 -0.8899 0.0821
vn -0.4456 -0.8840 0.1416
vn -0.6381 0.3217 0.6995
vn -0.2493 0.7561 0.6052
vn 0.7800 0.2572 0.5705
vn 0.7561 0.2493 0.6052
vn 0.6381 -0.3217 0.6995
vn 0.7324 -0.3692 0.5720
vn 0.3217 0.6381 0.6995
vn 0.3692 0.7324 0.5720
vn 0.4501 0.8930 0.0000
vn 0.9497 0.3131 0.0000
vn -0.8929 0.4502 0.0000
vn -0.3131 0.9497 0.0000
vn 0.4491 0.8909 0.0670
vn 0.9477 0.3124 0.0655
vn 0.9497 0.3131 0.0110
vn 0.4501 0.8929 0.0113
vn 0.3131 -0.9497 0.0110
vn 0.8929 -0.4501 0.0113
vn 0.8909 -0.4491 0.0670
vn 0.3124 -0.9477 0.0654
vn 0.2572 -0.7800 0.5705
vn 0.2493 -0.7561 0.6052
vn -0.7561 -0.2493 0.6052
vn -0.9497 -0.3131 0.0000
vn -0.9497 -0.3131 0.0110
vn -0.4501 -0.8929 0.0113
vn -0.4491 -0.8910 0.0670
vn -0.9477 -0.3124 0.0654
vn -0.3217 -0.6381 0.6995
vn -0.4502 -0.8930 0.0000
vn -0.3692 -0.7324 0.5720
vn -0.7800 -0.2572 0.5705
vn -0.9467 -0.3121 0.0797
vn -0.8899 0.4486 0.0821
vn -0.8929 0.4501 0.0113
vn -0.3131 0.9497 0.0110
vn -0.3121 0.9467 0.0797
vn 0.8930 -0.4501 0.0000
vn 0.3131 -0.9497 0.0000
vn -0.3101 0.9406 0.1379
vn -0.8840 0.4456 0.1417
vn -0.9406 -0.3101 0.1379
s 1
f 1/1/1 2/2/2 3/3/3 4/4/4
f 5/5/5 6/6/6 7/7/7 8/8/8
f 1/1/1 4/4/4 9/9/9 10/10/10
f 11/11/11 10/10/10 9/9/9 12/12/12
f 11/11/11 12/12/12 13/13/13 14/14/14
f 5/5/5 8/8/8 15/15/15 16/16/16
f 17/17/17 18/18/18 19/19/19 20/20/20
f 5/5/5 16/16/16 21/21/21 22/22/22
f 18/18/18 21/21/21 23/23/23 24/24/24
f 16/16/16 15/15/15 25/25/25 26/26/26
f 27/27/27 6/6/6 5/5/5 22/22/22
f 17/17/17 28/28/28 27/27/27 22/22/22
f 29/29/29 4/4/4 3/3/3 30/30/30
f 31/31/31 12/12/12 9/9/9 32/32/32
f 31/31/31 32/32/32 33/33/33 34/34/34
f 35/35/35 34/34/34 33/33/33 20/20/20
f 35/35/35 20/20/20 19/19/19 36/36/36
f 15/15/15 37/37/37 38/38/38 25/25/25
f 39/39/39 40/40/40 41/41/41 42/42/42
f 17/17/17 22/22/22 21/21/21 18/18/18
f 37/43/37 43/44/43 44/45/44 38/46/38
f 35/35/35 36/36/36 43/44/43 45/47/45
f 46/48/46 45/47/45 43/44/43 37/43/37
f 46/48/46 42/42/42 41/41/41 45/47/45
f 33/33/33 28/28/28 17/17/17 20/20/20
f 46/49/46 37/37/37 15/15/15 8/8/8
f 7/7/7 42/50/42 46/49/46 8/8/8
f 41/41/41 34/34/34 35/35/35 45/47/45
f 29/29/29 28/28/28 33/33/33 32/32/32
f 39/39/39 47/51/47 13/13/13 40/40/40
f 31/31/31 34/34/34 41/41/41 40/40/40
f 13/13/13 12/12/12 31/31/31 40/40/40
f 29/29/29 30/30/30 27/27/27 28/28/28
f 48/52/48 47/53/47 39/54/39 49/55/49
f 50/56/50 51/57/51 48/52/48 49/55/49
f 50/56/50 49/55/49 7/7/7 6/6/6
f 9/9/9 4/4/4 29/29/29 32/32/32
f 3/3/3 51/57/51 50/56/50 30/30/30
f 50/56/50 6/6/6 27/27/27 30/30/30
f 19/19/19 18/18/18 24/24/24 52/58/52
f 21/21/21 16/16/16 26/26/26 23/23/23
f 43/44/43 36/36/36 53/59/53 44/45/44
f 36/36/36 19/19/19 52/58/52 53/59/53
f 54/60/54 55/61/55 48/52/48 51/57/51
f 54/60/54 51/57/51 3/3/3 2/2/2
f 39/54/39 42/50/42 7/7/7 49/55/49
f 56/62/56 47/53/47 48/52/48 55/61/55
f 56/63/56 14/14/14 13/13/13 47/51/47
v 0.366109 -0.132866 -3.277659
v 0.384638 -0.121894 -3.260036
v 0.365696 -0.115830 -3.278598
v -0.348132 -0.146067 -3.294028
v -0.345957 -0.138263 -3.296712
v -0.363978 -0.136019 -3.277659
v 0.018262 -0.387894 -3.277659
v 0.002224 -0.402265 -3.260036
v 0.026422 -0.390150 -3.262840
v 0.227217 -0.308168 -2.838102
v 0.015559 -0.019470 -2.616860
v 0.023752 -0.014800 -2.615115
v 0.240874 0.307426 -3.277659
v 0.245807 0.303527 -3.271888
v 0.236165 0.328439 -3.260036
v 0.421439 -0.119824 -3.297545
v 0.441833 -0.140205 -3.290062
v 0.417215 -0.132324 -3.307150
v -0.013936 -0.388033 -3.277659
v 0.002139 -0.382376 -3.278598
v 0.245569 0.364078 -3.297545
v 0.271255 0.377175 -3.290062
v 0.256152 0.356198 -3.307150
v 0.224544 0.312298 -3.278599
v -0.440652 -0.127733 -3.263716
v -0.441744 0.126106 -2.852985
v -0.438296 0.131637 -2.856394
v 0.390978 0.121370 -2.884285
v 0.391029 0.129855 -2.883359
v 0.398685 0.132379 -2.906919
v -0.374059 -0.105440 -3.277659
v -0.382601 -0.125208 -3.260036
v -0.363711 -0.118980 -3.278599
v 0.245691 0.289293 -3.294028
v -0.265919 -0.368919 -2.855473
v -0.249820 -0.346560 -2.907810
v -0.259265 -0.375867 -2.856394
v -0.244501 -0.339171 -2.906918
v -0.249447 -0.332278 -2.907844
v -0.239791 -0.332629 -2.883359
v -0.269000 0.346352 -3.297545
v -0.252561 0.289642 -3.301014
v -0.277671 0.343637 -3.294251
v -0.411156 -0.148513 -3.297545
v -0.411253 -0.157598 -3.294251
v -0.439635 -0.144012 -3.290062
v -0.216572 0.324381 -3.277659
v -0.238012 0.326395 -3.260036
v -0.226252 0.310355 -3.278598
v -0.247721 0.361953 -3.297545
v -0.198583 0.329216 -3.301014
v -0.202789 0.323607 -3.307667
v -0.433744 0.140112 -2.855473
v -0.407504 0.131711 -2.907810
v -0.244543 -0.375762 -2.841601
v -0.195596 -0.363919 -2.872622
v -0.190365 -0.364273 -2.864503
v -0.273519 0.374828 -3.290062
v 0.214744 0.326239 -3.277659
v 0.209468 0.332861 -3.262840
v -0.437157 -0.133234 -3.260306
v -0.352141 -0.150403 -3.301014
v 0.015566 -0.436625 -3.297545
v 0.002484 -0.462319 -3.290062
v 0.002373 -0.436471 -3.307150
v 0.383567 0.127394 -2.856665
v 0.379575 0.141859 -2.879359
v 0.243623 -0.330545 -2.883359
v 0.235538 -0.333119 -2.884285
v 0.238977 -0.324209 -2.856665
v 0.283177 -0.348395 -2.841601
v 0.274485 -0.372641 -2.826639
v 0.284767 -0.359981 -2.852985
v 0.251501 -0.315943 -2.879359
v -0.270289 -0.374988 -2.826639
v -0.280680 -0.362417 -2.852985
v -0.216504 -0.339992 -2.874434
v -0.213705 -0.340980 -2.866431
v -0.194914 -0.355047 -2.874739
v -0.401102 0.135830 -2.910014
v -0.406287 0.141254 -2.908732
v -0.283111 0.299712 -3.236758
v -0.407259 0.074777 -2.872622
v -0.403050 0.074388 -2.874354
v -0.400822 0.071004 -2.869948
v -0.255985 -0.310540 -2.866431
v -0.235200 -0.326252 -2.856665
v -0.247794 -0.318095 -2.879359
v 0.353107 0.152589 -2.815686
v 0.349819 0.150912 -2.818378
v 0.348715 0.146017 -2.815115
v -0.412428 0.147139 -2.819156
v -0.353432 0.149538 -2.815686
v -0.353607 0.158622 -2.818980
v -0.433647 0.117667 -2.841601
v -0.432367 0.112583 -2.833483
v -0.440867 0.142392 -2.826639
v -0.375152 0.148705 -2.866431
v -0.383673 0.124081 -2.856665
v -0.379806 0.138580 -2.879359
v -0.022802 0.449999 -2.841601
v -0.001519 0.464505 -2.826639
v -0.017279 0.460307 -2.852985
v -0.001293 0.412309 -2.883359
v -0.001259 0.404452 -2.856665
v -0.016249 0.405126 -2.879359
v 0.019890 0.450183 -2.841601
v 0.052857 0.412114 -2.872622
v 0.051440 0.417386 -2.880597
v -0.050775 0.404068 -2.874739
v -0.047930 0.404914 -2.882741
v -0.027304 0.403733 -2.866431
v -0.027242 0.447210 -2.833482
v 0.023768 -0.447812 -3.275100
v 0.027938 -0.444656 -3.290560
v 0.248390 -0.337047 -2.906919
v 0.026568 -0.007258 -2.612281
v 0.050069 -0.014782 -2.615606
v 0.364943 0.138206 -2.839042
v 0.349098 0.148254 -2.822673
v 0.346863 0.154131 -2.828444
v -0.415087 -0.135918 -3.307150
v -0.208502 -0.330674 -2.853861
v -0.258236 0.353982 -3.307150
v -0.020833 -0.005934 -2.559812
v -0.053590 -0.016734 -2.607863
v -0.019398 -0.015422 -2.558658
v 0.348109 -0.135266 -3.296712
v 0.022937 -0.015932 -3.501586
v 0.038770 -0.041193 -3.503522
v 0.404572 0.128134 -2.910015
v 0.407331 0.135229 -2.907811
v 0.438122 0.135421 -2.856395
v 0.245509 0.377949 -3.275100
v 0.240280 0.377847 -3.290560
v 0.006761 0.409638 -2.884284
v -0.001327 0.420371 -2.906919
v -0.398609 0.076870 -2.874739
v -0.398535 0.079837 -2.882741
v -0.391038 0.099088 -2.866431
v 0.000580 -0.021351 -2.559812
v 0.000728 -0.055841 -2.607862
v 0.010194 -0.057408 -2.606709
v -0.055438 0.411647 -2.872622
v 0.391147 0.102466 -2.866431
v 0.386106 0.098570 -2.860752
v 0.420227 0.161957 -2.841601
v 0.440601 0.146198 -2.826639
v 0.431737 0.159890 -2.852985
v 0.374834 0.151943 -2.866431
v 0.364567 0.146664 -2.853861
v 0.002452 -0.454840 -3.261228
v 0.018244 -0.458120 -3.263716
v 0.252992 -0.377069 -2.849576
v -0.244603 -0.361891 -2.819156
v -0.239314 -0.375661 -2.826141
v 0.000483 0.001093 -2.607372
v 0.024698 0.009077 -2.616860
v -0.048965 -0.015209 -2.615607
v -0.051121 -0.007453 -2.618440
v -0.025529 -0.007483 -2.612282
v 0.000483 0.001093 -2.540228
v -0.432122 0.156159 -2.852985
v 0.220299 -0.314578 -2.836357
v -0.007442 -0.025948 -2.615115
v 0.000601 -0.026295 -2.612282
v 0.000707 -0.050972 -2.615606
v 0.366625 0.091696 -2.815115
v 0.056313 -0.010613 -2.613178
v 0.052158 -0.007007 -2.618439
v -0.001486 0.457026 -2.855473
v -0.001367 0.429474 -2.907810
v -0.010834 0.431185 -2.908732
v -0.025083 0.009278 -2.555705
v -0.015712 0.023182 -2.612282
v -0.023801 0.008868 -2.616860
v 0.052731 -0.021803 -2.613178
v 0.054707 -0.016267 -2.607862
v 0.020505 -0.015249 -2.558658
v 0.007075 -0.023897 -3.558043
v 0.000483 0.001093 -3.576473
v 0.022333 -0.012711 -3.558043
v -0.012788 0.019194 -2.559812
v 0.000367 0.027937 -2.555705
v 0.016486 0.023321 -2.612281
v 0.000373 0.026591 -2.616860
v 0.412122 0.150700 -2.819156
v 0.415936 0.164948 -2.826141
v 0.433594 0.121412 -2.841601
v 0.407576 0.078295 -2.872622
v 0.412152 0.081272 -2.880597
v 0.013597 0.019308 -2.559812
v 0.025977 0.009499 -2.555705
v 0.009966 -0.025442 -3.501586
v 0.029295 -0.048140 -3.503522
v 0.000483 0.001093 -3.509329
v 0.023614 0.017187 -3.501586
v 0.008408 0.028135 -3.501586
v -0.005636 0.057809 -3.503522
v -0.007675 0.028066 -3.501586
v 0.006113 0.057859 -3.503522
v -0.022786 0.016987 -3.501586
v -0.055348 0.012799 -3.503523
v -0.027690 0.001670 -3.501586
v -0.051765 0.023989 -3.503523
v -0.021823 -0.016126 -3.501586
v -0.027903 -0.048387 -3.503523
v -0.008771 -0.025523 -3.501586
v -0.037438 -0.041522 -3.503523
v -0.254446 0.284366 -3.295408
v -0.247200 0.287169 -3.294028
v -0.247438 0.301401 -3.271888
v -0.022077 -0.390360 -3.262840
v -0.021247 -0.012899 -3.558043
v -0.025308 -0.000582 -3.558043
v -0.005894 -0.023953 -3.558043
v -0.019539 0.017436 -3.558043
v -0.009080 0.025104 -3.558043
v 0.009839 0.025186 -3.558043
v 0.020364 0.017608 -3.558043
v 0.026288 -0.000359 -3.558043
v 0.052532 0.024440 -3.503522
v 0.056211 0.013281 -3.503522
v 0.406032 0.144761 -2.908733
v 0.400893 0.139293 -2.910015
v 0.380594 -0.095137 -3.262840
v 0.392003 -0.096902 -3.250269
v 0.363925 -0.138763 -3.271888
v 0.369750 -0.146707 -3.255949
v 0.405650 -0.122453 -3.206687
v 0.391997 -0.115807 -3.232416
v 0.387093 -0.131124 -3.232417
v 0.402068 -0.133643 -3.206687
v 0.389912 -0.107846 -3.237342
v 0.413394 -0.144953 -3.297545
v 0.266981 0.348661 -3.297545
v 0.275675 0.346021 -3.294251
v 0.251032 0.291812 -3.301014
v 0.404015 -0.072201 -3.242347
v 0.255163 0.306612 -3.255949
v 0.281520 0.295969 -3.246753
v 0.371160 -0.083033 -3.298323
v 0.375927 -0.102201 -3.277659
v 0.252961 0.286553 -3.295408
v 0.028650 0.001913 -3.501586
v 0.413569 -0.154036 -3.294251
v 0.417601 -0.159535 -3.283218
v 0.354504 -0.140342 -3.307667
v 0.434613 -0.115480 -3.275100
v 0.282150 0.348156 -3.283218
v 0.433493 -0.147468 -3.260306
v 0.439262 -0.129450 -3.260307
v -0.347706 -0.153825 -3.295408
v -0.361743 -0.141896 -3.271888
v -0.023827 -0.401771 -3.250269
v -0.367499 -0.149890 -3.255949
v 0.035019 -0.377437 -3.298323
v -0.030783 -0.377722 -3.298322
v -0.050996 -0.405797 -3.242347
v -0.365277 -0.178228 -3.246753
v -0.231684 -0.335132 -2.884284
v -0.242224 -0.346063 -2.910014
v 0.002258 -0.410122 -3.233342
v -0.195886 -0.360899 -2.879943
v 0.002313 -0.422864 -3.207751
v 0.220401 -0.338109 -2.874433
v 0.199964 -0.359193 -2.879943
v 0.055473 -0.405337 -3.242347
v 0.028270 -0.401546 -3.250269
v 0.246172 -0.343958 -2.910014
v 0.367772 -0.175063 -3.246753
v 0.349993 -0.150812 -3.295408
v 0.263469 -0.373615 -2.856394
v -0.248758 -0.379231 -2.849576
v -0.018924 -0.447996 -3.275100
v -0.415237 -0.163131 -3.283218
v -0.010819 -0.436739 -3.297545
v -0.369458 -0.086231 -3.298323
v -0.402405 -0.075683 -3.242347
v -0.390181 -0.100279 -3.250269
v -0.256820 0.304405 -3.255949
v -0.283084 0.293535 -3.246753
v -0.391032 0.117994 -2.884285
v -0.404685 0.124640 -2.910014
v -0.399928 -0.137106 -3.206686
v -0.384976 -0.134458 -3.232416
v -0.390012 -0.119184 -3.232416
v -0.403607 -0.125947 -3.206686
v -0.352308 -0.143394 -3.307667
v -0.419418 -0.123455 -3.297545
v -0.430959 -0.114269 -3.290560
v -0.432629 -0.119226 -3.275100
v -0.023121 -0.444876 -3.290560
v -0.431233 -0.151202 -3.260306
v -0.242539 0.305343 -3.277659
v -0.192985 0.329426 -3.295408
v -0.196881 0.325940 -3.298323
v -0.284165 0.345716 -3.283218
v -0.239105 0.287511 -3.296712
v -0.200598 0.315742 -3.296712
v -0.211339 0.327867 -3.271888
v -0.211383 0.337718 -3.255949
v -0.254682 0.339198 -3.206686
v -0.247543 0.325796 -3.232416
v -0.234573 0.335305 -3.232416
v -0.245207 0.346145 -3.206686
v -0.256856 0.312860 -3.242267
v -0.378787 -0.098417 -3.262840
v -0.245948 0.291966 -3.307667
v 0.259626 -0.308318 -2.866431
v -0.262504 0.375802 -3.260307
v -0.277761 0.364615 -3.260306
v -0.252027 0.379256 -3.267125
v -0.242553 0.376223 -3.283218
v -0.198998 0.361380 -3.236758
v -0.193115 0.359496 -3.246753
v -0.242524 0.369405 -3.294251
v 0.214671 0.343167 -3.250269
v 0.224434 0.337795 -3.237342
v -0.007221 0.424608 -2.910014
v 0.243190 0.348250 -3.206687
v 0.232650 0.337319 -3.232417
v 0.245702 0.327922 -3.232416
v 0.252725 0.341385 -3.206687
v 0.253773 -0.344389 -2.907810
v 0.194891 0.362223 -3.242347
v 0.004529 0.424659 -2.910014
v 0.195041 0.327629 -3.298323
v 0.237594 0.289565 -3.296712
v 0.432900 -0.110539 -3.290560
v 0.244398 0.294079 -3.307667
v 0.007966 0.458818 -2.856395
v 0.275585 0.367000 -3.260307
v 0.260231 0.378054 -3.260306
v 0.059122 -0.007748 -2.606708
v 0.243505 -0.303156 -2.839042
v 0.251433 -0.300185 -2.853861
v 0.017215 -0.402939 -3.237342
v 0.199791 -0.319128 -2.815115
v 0.212305 -0.325680 -2.844813
v 0.193951 -0.327239 -2.821292
v 0.270063 -0.366610 -2.855473
v 0.250916 -0.284847 -2.818378
v 0.376724 0.101573 -2.844813
v 0.372534 0.083635 -2.821293
v 0.283863 -0.295395 -2.874354
v 0.401173 0.074467 -2.869948
v 0.377780 -0.144060 -3.242267
v 0.253276 -0.330111 -2.907844
v 0.262437 -0.340208 -2.908732
v 0.427047 -0.156421 -3.267125
v 0.432358 0.116317 -2.833482
v 0.269966 -0.344165 -2.819156
v 0.425865 0.118396 -2.822450
v 0.243490 -0.367218 -2.822450
v 0.252893 -0.354158 -2.812504
v -0.385963 0.095236 -2.860752
v -0.223578 -0.310111 -2.838102
v -0.239909 -0.305240 -2.839042
v -0.375552 -0.147313 -3.242267
v -0.280332 -0.297827 -2.874354
v -0.247477 -0.286995 -2.818378
v -0.376608 0.098320 -2.844813
v -0.372264 0.080419 -2.821293
v -0.022649 -0.015000 -2.615115
v -0.051566 -0.022253 -2.613178
v -0.194075 -0.325443 -2.818378
v -0.213778 -0.324053 -2.839042
v -0.005147 -0.055673 -2.613178
v 0.212348 -0.335531 -2.860752
v -0.189682 -0.351412 -2.869060
v -0.012759 -0.403068 -3.237342
v -0.424710 -0.160099 -3.267125
v -0.258520 -0.342453 -2.908732
v -0.013312 -0.458256 -3.263716
v -0.057038 0.404360 -2.869948
v -0.029400 0.397717 -2.860752
v 0.243519 -0.374036 -2.833482
v -0.008873 -0.022999 -2.558658
v -0.266016 -0.346474 -2.819156
v -0.425892 0.114718 -2.822450
v -0.279190 -0.350818 -2.841601
v -0.391156 0.126477 -2.883359
v -0.393806 0.135769 -2.907844
v -0.370585 0.175788 -2.874354
v -0.365143 0.135053 -2.839042
v -0.364840 0.143514 -2.853861
v -0.023576 0.389772 -2.844813
v -0.347202 0.151134 -2.828444
v -0.368614 0.109423 -2.836357
v -0.362900 0.127268 -2.836357
v -0.420630 0.158326 -2.841601
v -0.416365 0.161354 -2.826141
v -0.388946 0.110033 -2.879359
v -0.284207 0.355662 -3.267125
v -0.411860 0.077714 -2.880597
v -0.280752 -0.345827 -2.826141
v -0.412534 0.140130 -2.812504
v 0.024792 0.403958 -2.866431
v 0.013725 0.405255 -2.879359
v 0.048259 0.404495 -2.874739
v 0.045407 0.405316 -2.882741
v -0.023211 0.441712 -2.822450
v 0.026940 0.397960 -2.860752
v 0.021184 0.389965 -2.844813
v -0.039259 0.380109 -2.821292
v -0.010546 0.385600 -2.836357
v -0.029740 0.377061 -2.815115
v 0.284696 -0.343390 -2.826141
v -0.219435 0.340296 -3.242267
v -0.009357 0.417631 -2.907844
v 0.014277 0.460443 -2.852985
v -0.054067 0.416931 -2.880597
v 0.020369 0.441900 -2.822450
v 0.005085 0.436861 -2.812504
v 0.027457 0.377309 -2.815115
v 0.036949 0.380438 -2.821293
v 0.024354 0.447433 -2.833483
v 0.388961 0.113392 -2.879359
v 0.398909 0.080314 -2.874739
v 0.398809 0.083280 -2.882741
v 0.362768 0.130402 -2.836357
v 0.433498 0.143856 -2.855473
v 0.370033 0.178986 -2.874354
v 0.054519 0.404842 -2.869948
v 0.255126 0.315067 -3.242267
v 0.393598 0.139169 -2.907844
v 0.441618 0.129920 -2.852985
v 0.282108 0.358103 -3.267125
v 0.353204 0.161674 -2.818980
v 0.416349 0.131375 -2.812504
v 0.412288 0.143692 -2.812504
v 0.008747 -0.050556 -2.618439
v -0.032614 0.046236 -2.612329
v -0.348984 0.143004 -2.815115
v 0.033189 0.046520 -2.612328
v 0.008191 0.385681 -2.836357
v 0.368635 0.112606 -2.836357
v 0.021858 -0.005750 -2.559812
v 0.016355 -0.020556 -2.555705
v -0.007884 0.436804 -2.812504
v -0.416489 0.127778 -2.812504
v -0.058078 -0.008254 -2.606709
v -0.255186 -0.354012 -2.809550
v 0.351096 -0.145702 -3.298323
v 0.248443 0.289181 -3.298322
v -0.348854 -0.148725 -3.298323
v -0.249950 0.287034 -3.298322
v 0.442710 -0.123919 -3.263716
v -0.371160 -0.176344 -3.236758
v 0.281493 0.302146 -3.236758
v 0.373639 -0.173129 -3.236758
v 0.255648 -0.337011 -2.910014
v 0.403371 0.077870 -2.874354
v 0.194081 -0.357309 -2.869948
v -0.190019 -0.358964 -2.869948
v -0.247862 -0.302337 -2.853861
v -0.054508 0.407524 -2.874354
v 0.259202 -0.351796 -2.809550
v 0.051962 0.407983 -2.874354
v -0.366424 0.088530 -2.815115
v 0.000724 -0.054881 -2.612329
v -0.349386 0.145238 -2.822673
v -0.350130 0.147889 -2.818378
v 0.354398 -0.147352 -3.301014
v 0.350352 -0.143051 -3.294028
v 0.256036 0.383042 -3.263716
v -0.398834 0.128935 -2.906918
v -0.251759 -0.339198 -2.910014
v -0.197837 0.323358 -3.294028
v -0.387995 -0.111205 -3.237342
v -0.055245 -0.011094 -2.613178
vt 0.0010 0.0460
vt 0.0010 0.0893
vt 0.0063 0.0899
vt 0.0899 0.3708
vt 0.0867 0.3897
vt 0.0899 0.4096
vt 0.0919 0.0460
vt 0.0919 0.0893
vt 0.0972 0.0899
vt 0.7430 0.7640
vt 0.2335 0.6577
vt 0.2226 0.6690
vt 0.3626 0.0460
vt 0.3596 0.0649
vt 0.3624 0.0899
vt 0.0919 0.2400
vt 0.0919 0.2666
vt 0.0975 0.2717
vt 0.2737 0.1369
vt 0.2737 0.1802
vt 0.2790 0.1808
vt 0.1828 0.5127
vt 0.1828 0.5393
vt 0.1884 0.5445
vt 0.1828 0.2278
vt 0.1828 0.2711
vt 0.1881 0.2717
vt 0.0461 0.7236
vt 0.9105 0.7234
vt 0.8973 0.6980
vt 0.5414 0.4285
vt 0.5445 0.4096
vt 0.5445 0.3708
vt 0.3646 0.1369
vt 0.3646 0.1802
vt 0.3699 0.1808
vt 0.3626 0.0072
vt 0.4545 0.6037
vt 0.4545 0.5494
vt 0.4504 0.6180
vt 0.6354 0.4618
vt 0.6322 0.4806
vt 0.6354 0.5005
vt 0.4535 0.2400
vt 0.4535 0.1858
vt 0.4504 0.2544
vt 0.3626 0.3309
vt 0.3595 0.3453
vt 0.3621 0.3626
vt 0.3646 0.4096
vt 0.3646 0.4529
vt 0.3699 0.4535
vt 0.5445 0.0582
vt 0.5445 0.0040
vt 0.5411 0.0183
vt 0.7263 0.1491
vt 0.7263 0.0949
vt 0.7232 0.1635
vt 0.2717 0.7855
vt 0.2717 0.7312
vt 0.2684 0.7456
vt 0.4530 0.2717
vt 0.0010 0.5005
vt 0.0010 0.5439
vt 0.0063 0.5445
vt 0.0503 0.7409
vt 0.3626 0.2767
vt 0.1828 0.0582
vt 0.1828 0.0848
vt 0.1884 0.0899
vt 0.4555 0.3187
vt 0.4555 0.3620
vt 0.4608 0.3626
vt 0.2717 0.5915
vt 0.2687 0.6103
vt 0.2714 0.6354
vt 0.0010 0.7855
vt 0.0010 0.8121
vt 0.0066 0.8172
vt 0.5465 0.1369
vt 0.5465 0.1802
vt 0.5517 0.1808
vt 0.4555 0.6037
vt 0.4555 0.6302
vt 0.4611 0.6354
vt 0.8141 0.3376
vt 0.8172 0.3187
vt 0.8172 0.2799
vt 0.8905 0.1600
vt 0.8914 0.1746
vt 0.1509 0.1716
vt 0.5445 0.7312
vt 0.5445 0.7284
vt 0.5436 0.7283
vt 0.4535 0.6037
vt 0.4530 0.6354
vt 0.3646 0.7733
vt 0.3646 0.8166
vt 0.3699 0.8172
vt 0.9081 0.9131
vt 0.9081 0.9103
vt 0.9073 0.9101
vt 0.9990 0.4218
vt 0.9990 0.3676
vt 0.9956 0.3820
vt 0.5445 0.7855
vt 0.5413 0.7998
vt 0.5439 0.8172
vt 0.7283 0.6824
vt 0.7283 0.7257
vt 0.7335 0.7263
vt 0.8192 0.1491
vt 0.8192 0.1757
vt 0.8248 0.1808
vt 0.6374 0.3187
vt 0.6374 0.3620
vt 0.6426 0.3626
vt 0.2727 0.8764
vt 0.2727 0.8222
vt 0.2684 0.8365
vt 0.0899 0.8254
vt 0.0867 0.8442
vt 0.0899 0.8642
vt 0.9081 0.0582
vt 0.9050 0.0726
vt 0.9075 0.0899
vt 0.0010 0.6037
vt 0.0010 0.6302
vt 0.0066 0.6354
vt 0.2717 0.5527
vt 0.8169 0.3626
vt 0.9050 0.6103
vt 0.9081 0.5915
vt 0.9081 0.5527
vt 0.7263 0.9551
vt 0.7263 0.9163
vt 0.7231 0.9351
vt 0.3646 0.0582
vt 0.3646 0.0848
vt 0.3702 0.0899
vt 0.7283 0.2278
vt 0.7283 0.2711
vt 0.7335 0.2717
vt 0.2737 0.4218
vt 0.2737 0.4484
vt 0.2793 0.4535
vt 0.9990 0.2400
vt 0.9990 0.1858
vt 0.9959 0.2544
vt 0.3786 0.4768
vt 0.3771 0.4375
vt 0.3773 0.4391
vt 0.5455 0.7855
vt 0.5455 0.7312
vt 0.4564 0.4555
vt 0.4555 0.4585
vt 0.4587 0.5271
vt 0.2737 0.6946
vt 0.2737 0.7211
vt 0.2793 0.7263
vt 0.4505 0.7012
vt 0.4535 0.6824
vt 0.4535 0.6436
vt 0.8172 0.5527
vt 0.8140 0.5715
vt 0.8172 0.5915
vt 0.9081 0.8764
vt 0.9081 0.8222
vt 0.9047 0.8365
vt 0.9081 0.0040
vt 0.7263 0.5915
vt 0.7232 0.6103
vt 0.7260 0.6354
vt 0.8192 0.4218
vt 0.8192 0.4484
vt 0.8248 0.4535
vt 0.8192 0.2278
vt 0.8192 0.2711
vt 0.8244 0.2717
vt 0.5168 0.2230
vt 0.5118 0.2066
vt 0.9291 0.1822
vt 0.8192 0.7855
vt 0.8192 0.8121
vt 0.8248 0.8172
vt 0.4555 0.8642
vt 0.4555 0.9075
vt 0.4608 0.9081
vt 0.9990 0.2799
vt 0.9958 0.2988
vt 0.9990 0.3187
vt 0.9984 0.2717
vt 0.6374 0.2400
vt 0.6374 0.2666
vt 0.6429 0.2717
vt 0.7454 0.7549
vt 0.0868 0.9739
vt 0.0899 0.9551
vt 0.0899 0.9163
vt 0.7611 0.8433
vt 0.5046 0.8348
vt 0.5020 0.8429
vt 0.7263 0.4218
vt 0.7263 0.3676
vt 0.7229 0.3820
vt 0.9109 0.8192
vt 0.9101 0.8192
vt 0.9101 0.8254
vt 0.2737 0.9673
vt 0.2737 0.9939
vt 0.2793 0.9990
vt 0.9101 0.5005
vt 0.9101 0.5439
vt 0.9153 0.5445
vt 0.8200 0.6374
vt 0.8192 0.6403
vt 0.8223 0.7089
vt 0.2686 0.0726
vt 0.0010 0.1757
vt 0.0041 0.1635
vt 0.9101 0.6037
vt 0.9101 0.6302
vt 0.9157 0.6354
vt 0.9101 0.7733
vt 0.9101 0.8166
vt 0.9153 0.8172
vt 0.0896 0.9990
vt 0.9101 0.6946
vt 0.9101 0.7211
vt 0.9157 0.7263
vt 0.6354 0.6946
vt 0.6354 0.6403
vt 0.6320 0.6547
vt 0.8192 0.9673
vt 0.8192 0.9939
vt 0.8248 0.9990
vt 0.0891 0.0010
vt 0.0868 0.0649
vt 0.0041 0.2467
vt 0.2709 0.0010
vt 0.1887 0.6425
vt 0.2273 0.6304
vt 0.8094 0.6563
vt 0.2267 0.6563
vt 0.4527 0.3646
vt 0.4505 0.4285
vt 0.0950 0.5194
vt 0.2709 0.4555
vt 0.3960 0.7617
vt 0.4073 0.7659
vt 0.3958 0.7695
vt 0.6129 0.7720
vt 0.4527 0.0919
vt 0.4505 0.1558
vt 0.3677 0.3376
vt 0.3618 0.3646
vt 0.5130 0.4375
vt 0.5129 0.4369
vt 0.5128 0.4375
vt 0.5088 0.4795
vt 0.3618 0.0919
vt 0.3596 0.1558
vt 0.0041 0.4285
vt 0.4527 0.0010
vt 0.1836 0.3646
vt 0.1828 0.3708
vt 0.1859 0.4285
vt 0.3574 0.2717
vt 0.3624 0.2717
vt 0.3626 0.2278
vt 0.5134 0.4334
vt 0.5124 0.4350
vt 0.5103 0.4806
vt 0.5137 0.4351
vt 0.8625 0.7928
vt 0.8193 0.8012
vt 0.1512 0.7833
vt 0.8196 0.7833
vt 0.3595 0.4362
vt 0.0950 0.4362
vt 0.2627 0.7621
vt 0.3723 0.7563
vt 0.6260 0.7727
vt 0.3719 0.7735
vt 0.2686 0.5271
vt 0.4587 0.0726
vt 0.1865 0.5411
vt 0.1437 0.5311
vt 0.1869 0.5231
vt 0.8549 0.5476
vt 0.1777 0.2544
vt 0.0041 0.3453
vt 0.2709 0.1828
vt 0.1800 0.1828
vt 0.1866 0.7295
vt 0.1437 0.7200
vt 0.1868 0.7116
vt 0.8550 0.7287
vt 0.4502 0.4729
vt 0.4535 0.4585
vt 0.4527 0.4555
vt 0.5392 0.2717
vt 0.5442 0.2717
vt 0.5445 0.2278
vt 0.6061 0.2342
vt 0.5820 0.2424
vt 0.2157 0.2342
vt 0.5820 0.2261
vt 0.7255 0.4555
vt 0.7232 0.5194
vt 0.7313 0.0649
vt 0.0891 0.7283
vt 0.7210 0.5445
vt 0.7260 0.5445
vt 0.0843 0.1808
vt 0.0893 0.1808
vt 0.0899 0.1491
vt 0.0909 0.3309
vt 0.0950 0.3453
vt 0.0909 0.2767
vt 0.1244 0.7649
vt 0.0956 0.7594
vt 0.8297 0.7858
vt 0.8006 0.7847
vt 0.6742 0.6239
vt 0.0580 0.5968
vt 0.0851 0.5952
vt 0.6522 0.6374
vt 0.0803 0.5988
vt 0.0554 0.5964
vt 0.6745 0.6051
vt 0.6527 0.5903
vt 0.3773 0.4376
vt 0.3803 0.4814
vt 0.3794 0.4803
vt 0.3773 0.4394
vt 0.3802 0.4786
vt 0.3791 0.4797
vt 0.0193 0.1221
vt 0.4397 0.1258
vt 0.4666 0.1321
vt 0.4394 0.1371
vt 0.8625 0.7500
vt 0.7865 0.7831
vt 0.8625 0.7073
vt 0.2556 0.6565
vt 0.7928 0.6565
vt 0.7402 0.5956
vt 0.0094 0.6069
vt 0.0183 0.5795
vt 0.7399 0.6374
vt 0.8963 0.8135
vt 0.0383 0.7727
vt 0.0868 0.7998
vt 0.5496 0.7089
vt 0.2745 0.1828
vt 0.2737 0.1890
vt 0.2768 0.2467
vt 0.3503 0.3538
vt 0.3548 0.3397
vt 0.7212 0.3478
vt 0.0847 0.2717
vt 0.0896 0.2717
vt 0.0899 0.2278
vt 0.4621 0.2578
vt 0.0919 0.2355
vt 0.1098 0.2183
vt 0.4471 0.2366
vt 0.4473 0.2099
vt 0.4603 0.2175
vt 0.4841 0.1822
vt 0.4822 0.1834
vt 0.7212 0.3315
vt 0.3503 0.3255
vt 0.3675 0.3076
vt 0.7052 0.3110
vt 0.3675 0.3718
vt 0.7052 0.3684
vt 0.4037 0.2231
vt 0.4572 0.2178
vt 0.4424 0.2120
vt 0.4047 0.2223
vt 0.4675 0.2195
vt 0.4045 0.2241
vt 0.4078 0.2245
vt 0.4669 0.2205
vt 0.5016 0.2657
vt 0.5000 0.2634
vt 0.4895 0.2332
vt 0.4754 0.2259
vt 0.5022 0.2659
vt 0.5017 0.2646
vt 0.2111 0.2201
vt 0.2283 0.2021
vt 0.5661 0.2055
vt 0.2283 0.2663
vt 0.2111 0.2484
vt 0.5661 0.2629
vt 0.2133 0.8555
vt 0.1437 0.8046
vt 0.7504 0.8562
vt 0.6097 0.2971
vt 0.1848 0.2987
vt 0.1848 0.1697
vt 0.6097 0.1713
vt 0.9212 0.1807
vt 0.4980 0.1965
vt 0.5195 0.1347
vt 0.8545 0.1801
vt 0.9115 0.1908
vt 0.5822 0.2230
vt 0.9291 0.2638
vt 0.9115 0.2551
vt 0.5195 0.3112
vt 0.4980 0.2494
vt 0.9212 0.2652
vt 0.8545 0.2659
vt 0.7489 0.4026
vt 0.3240 0.4042
vt 0.3240 0.2752
vt 0.7489 0.2768
vt 0.4854 0.1814
vt 0.4656 0.2283
vt 0.5077 0.4784
vt 0.5095 0.4767
vt 0.5085 0.4801
vt 0.5076 0.4812
vt 0.5127 0.4394
vt 0.6732 0.6795
vt 0.0547 0.6509
vt 0.0797 0.6499
vt 0.6505 0.6929
vt 0.0843 0.6539
vt 0.0573 0.6506
vt 0.6740 0.6606
vt 0.6529 0.6459
vt 0.8297 0.7234
vt 0.0951 0.7240
vt 0.1240 0.7195
vt 0.8005 0.7234
vt 0.4527 0.7283
vt 0.4505 0.7921
vt 0.7313 0.6103
vt 0.6345 0.7283
vt 0.7453 0.3397
vt 0.3680 0.0183
vt 0.3646 0.0040
vt 0.3646 0.2400
vt 0.3646 0.2666
vt 0.3702 0.2717
vt 0.6374 0.1491
vt 0.6374 0.1757
vt 0.6429 0.1808
vt 0.5114 0.4805
vt 0.5110 0.4762
vt 0.0094 0.6984
vt 0.0365 0.6931
vt 0.4567 0.7044
vt 0.0364 0.7044
vt 0.6323 0.7998
vt 0.7314 0.4362
vt 0.6298 0.8172
vt 0.6348 0.8172
vt 0.4483 0.3626
vt 0.4533 0.3626
vt 0.4535 0.3187
vt 0.4564 0.0919
vt 0.4555 0.0919
vt 0.4555 0.0949
vt 0.0383 0.7086
vt 0.7404 0.6511
vt 0.0167 0.6655
vt 0.0094 0.6376
vt 0.7382 0.6929
vt 0.5117 0.4814
vt 0.6115 0.7726
vt 0.6050 0.7719
vt 0.6120 0.7713
vt 0.6054 0.7716
vt 0.3628 0.4484
vt 0.3348 0.4574
vt 0.9469 0.4656
vt 0.3351 0.4386
vt 0.8164 0.6374
vt 0.8141 0.7012
vt 0.0041 0.8830
vt 0.9073 0.0919
vt 0.1173 0.4330
vt 0.0642 0.4145
vt 0.1176 0.3969
vt 0.9278 0.4219
vt 0.6345 0.5465
vt 0.6323 0.6103
vt 0.0950 0.7012
vt 0.7255 0.1828
vt 0.6458 0.6688
vt 0.0618 0.6508
vt 0.2771 0.3820
vt 0.2737 0.3676
vt 0.8119 0.0899
vt 0.8169 0.0899
vt 0.8172 0.0460
vt 0.5389 0.0899
vt 0.5439 0.0899
vt 0.6228 0.7734
vt 0.6043 0.7700
vt 1.0081 0.6853
vt 0.0156 0.6525
vt 0.9050 0.1635
vt 0.6405 0.7998
vt 0.9219 0.5327
vt 0.9337 0.4334
vt 0.9374 0.5334
vt 0.9212 0.7723
vt 0.3595 0.7089
vt 0.6405 0.4362
vt 0.7255 0.2737
vt 0.3618 0.6374
vt 0.2691 0.4669
vt 0.0000 0.4431
vt 0.2694 0.4251
vt 0.9929 0.4701
vt 0.4587 0.1635
vt 0.4555 0.1491
vt 0.4555 0.1757
vt 0.3646 0.6824
vt 0.3646 0.7257
vt 0.3699 0.7263
vt 0.7255 0.3646
vt 0.6266 0.7718
vt 0.6045 0.7737
vt 0.6465 0.6140
vt 0.0625 0.5969
vt 0.1800 0.8192
vt 0.1778 0.8830
vt 0.8222 0.3376
vt 0.9073 0.3646
vt 0.1756 0.9081
vt 0.1805 0.9081
vt 0.0843 0.3626
vt 0.0893 0.3626
vt 0.0899 0.3309
vt 0.5473 0.1828
vt 0.5465 0.1858
vt 0.5496 0.2544
vt 0.1510 0.2223
vt 0.1164 0.1832
vt 0.8940 0.2017
vt 0.8589 0.2434
vt 0.9514 0.4656
vt 0.9243 0.4673
vt 0.3571 0.4251
vt 0.9291 0.4636
vt 0.9539 0.4660
vt 0.3566 0.4722
vt 0.2901 0.4376
vt 0.2930 0.4814
vt 0.2922 0.4803
vt 0.2900 0.4394
vt 0.8178 0.6343
vt 0.7843 0.6201
vt 0.0165 0.5924
vt 1.0092 0.6194
vt 0.8621 0.5690
vt 0.7857 0.6012
vt 0.2889 0.4814
vt 0.2893 0.4351
vt 1.0000 0.4555
vt 0.9911 0.4829
vt 0.9475 0.3187
vt 0.0571 0.2865
vt 0.9050 0.4362
vt 0.1859 0.8907
vt 0.6320 0.8365
vt 0.6354 0.8222
vt 0.6345 0.8192
vt 0.8192 0.5915
vt 0.8192 0.6348
vt 0.8244 0.6354
vt 0.6374 0.5915
vt 0.6374 0.6348
vt 0.6426 0.6354
vt 0.5024 0.2663
vt 0.4718 0.2224
vt 0.8164 0.8192
vt 0.8141 0.8830
vt 0.6404 0.8830
vt 0.9073 0.7283
vt 0.8119 0.9081
vt 0.8169 0.9081
vt 0.1752 0.6354
vt 0.1802 0.6354
vt 0.1808 0.6037
vt 0.9381 0.3908
vt 0.7237 0.7594
vt 0.7449 0.7671
vt 0.2561 0.6735
vt 0.6653 0.3697
vt 0.0497 0.3425
vt 0.0768 0.3410
vt 0.6433 0.3831
vt 0.0714 0.3444
vt 0.0466 0.3418
vt 0.6656 0.3509
vt 0.6438 0.3361
vt 0.3360 0.7487
vt 0.8911 0.7668
vt 0.8685 0.7669
vt 0.3562 0.7354
vt 0.8863 0.7643
vt 0.8865 0.7698
vt 0.3355 0.7665
vt 0.8668 0.7600
vt 0.9518 0.1789
vt 0.9237 0.7569
vt 0.9175 0.7607
vt 0.8659 0.7715
vt 0.2759 0.7735
vt 0.9301 0.7756
vt 0.2774 0.7354
vt 0.7313 0.3414
vt 0.0001 0.3528
vt 0.0103 0.3255
vt 0.7309 0.3831
vt 0.2069 0.6461
vt 0.7820 0.7601
vt 0.9050 0.7998
vt 0.8223 0.8907
vt 0.7291 0.4555
vt 0.7283 0.4618
vt 0.7313 0.5194
vt 0.6301 0.5445
vt 0.6351 0.5445
vt 0.2665 0.9990
vt 0.2714 0.9990
vt 0.2717 0.9551
vt 0.9764 0.4068
vt 0.9653 0.4024
vt 0.9715 0.3851
vt 0.9704 0.0354
vt 0.9755 0.4074
vt 0.9744 0.4183
vt 0.9688 0.0359
vt 0.9704 0.0522
vt 0.4199 0.2624
vt 0.0268 0.2473
vt 0.0454 0.2286
vt 0.4035 0.2402
vt 0.0474 0.2970
vt 0.0298 0.2773
vt 0.4232 0.2850
vt 0.4055 0.3062
vt 0.9318 0.1847
vt 0.0593 0.1512
vt 0.1008 0.1098
vt 0.8954 0.1355
vt 0.1051 0.2615
vt 0.0662 0.2177
vt 0.9391 0.2348
vt 0.9000 0.2818
vt 0.6601 0.1643
vt 0.0434 0.1441
vt 0.0686 0.1441
vt 0.6378 0.1790
vt 0.0488 0.1469
vt 0.0486 0.1408
vt 0.6608 0.1445
vt 0.0705 0.1517
vt 0.4055 0.2223
vt 0.4619 0.2181
vt 0.2662 0.8172
vt 0.2711 0.8172
vt 0.6030 0.1401
vt 0.5973 0.1562
vt 0.0903 0.1563
vt 0.5453 0.1150
vt 0.9518 0.2670
vt 0.5118 0.2394
vt 0.7291 0.7283
vt 0.7283 0.7345
vt 0.7313 0.7921
vt 0.0072 0.1552
vt 0.0141 0.1509
vt 0.0715 0.1389
vt 0.7269 0.1367
vt 0.0001 0.1344
vt 0.7253 0.1790
vt 0.9998 0.3658
vt 0.0001 0.3340
vt 0.0001 0.0313
vt 0.9999 0.0573
vt 0.4505 0.3440
vt 0.0001 0.3297
vt 0.0001 0.1932
vt 0.4506 0.2050
vt 0.9745 0.0137
vt 0.9859 0.4291
vt 0.5330 0.3352
vt 0.5389 0.3522
vt 0.5131 0.3621
vt 0.0911 0.3406
vt 0.9004 0.3507
vt 0.1532 0.3517
vt 0.3983 0.2456
vt 0.0271 0.2419
vt 0.0442 0.2238
vt 0.3822 0.2251
vt 0.0268 0.2701
vt 0.0317 0.2561
vt 0.3984 0.2619
vt 0.0482 0.2784
vt 0.1586 0.8429
vt 0.1545 0.8436
vt 0.1591 0.8441
vt 0.4458 0.8392
vt 0.6407 0.2002
vt 0.6374 0.1858
vt 0.8192 0.0582
vt 0.8192 0.0848
vt 0.8248 0.0899
vt 0.5465 0.7855
vt 0.5465 0.8121
vt 0.5520 0.8172
vt 0.8304 0.7018
vt 0.8238 0.7157
vt 0.8020 0.7061
vt 0.1035 0.7075
vt 0.0041 0.7012
vt 0.0010 0.6824
vt 0.0010 0.7257
vt 0.0063 0.7263
vt 0.9973 0.2206
vt 0.9868 0.2502
vt 0.0570 0.2503
vt 0.7207 0.1808
vt 0.7257 0.1808
vt 0.9382 0.6960
vt 0.8110 0.6916
vt 0.9996 0.4310
vt 0.7295 0.4386
vt 0.0063 0.3982
vt 0.7316 0.3969
vt 0.4587 0.9817
vt 0.4555 0.9673
vt 0.4555 0.9939
vt 0.0919 0.8642
vt 0.0919 0.9075
vt 0.0972 0.9081
vt 0.0919 0.8254
vt 0.0951 0.8442
vt 0.0051 0.3253
vt 0.0001 0.3120
vt 0.0476 0.2903
vt 0.4257 0.3174
vt 0.0004 0.1917
vt 0.4257 0.1907
vt 0.0574 0.2753
vt 0.9973 0.2799
vt 0.4483 0.7263
vt 0.4533 0.7263
vt 0.8822 0.5967
vt 0.8759 0.6134
vt 0.4342 0.5962
vt 0.8567 0.5861
vt 0.0035 0.1053
vt 0.0277 0.0974
vt 0.3942 0.1088
vt 0.0275 0.1137
vt 0.4527 0.9101
vt 0.4505 0.9739
vt 0.5495 0.9739
vt 0.9982 0.5465
vt 0.4224 0.2536
vt 0.7207 0.4535
vt 0.7257 0.4535
vt 0.9999 0.3653
vt 0.0078 0.3382
vt 0.8192 0.3620
vt 0.8992 0.7490
vt 0.9052 0.7659
vt 0.8795 0.7761
vt 0.4573 0.7584
vt 0.9053 0.7322
vt 0.4573 0.7387
vt 0.8796 0.7219
vt 0.4587 0.7089
vt 0.4555 0.6946
vt 0.4555 0.7211
vt 0.4611 0.7263
vt 0.9223 0.7696
vt 0.9187 0.7518
vt 0.9206 0.7726
vt 0.9242 0.7519
vt 0.2246 0.7843
vt 0.2245 0.7846
vt 0.2609 0.7964
vt 0.2249 0.7841
vt 0.9959 0.7089
vt 0.7314 0.9817
vt 0.9982 0.7283
vt 0.9982 0.6374
vt 0.0380 0.7846
vt 0.0378 0.7843
vt 0.0376 0.7841
vt 0.0016 0.7964
vt 0.2768 0.8907
vt 0.2737 0.8764
vt 0.2737 0.9030
vt 0.6374 0.5005
vt 0.6374 0.5439
vt 0.6426 0.5445
vt 0.6374 0.4618
vt 0.6405 0.4806
vt 0.9472 0.3341
vt 0.9570 0.3622
vt 0.8564 0.4053
vt 0.0658 0.3303
vt 0.5392 0.4535
vt 0.5442 0.4535
vt 0.8235 0.7933
vt 0.8297 0.8074
vt 0.1034 0.7762
vt 0.8014 0.8021
vt 0.6376 0.3598
vt 0.0538 0.3425
vt 0.9132 0.8830
vt 0.9101 0.8642
vt 0.9101 0.9075
vt 0.4480 0.5445
vt 0.4530 0.5445
vt 0.4535 0.5127
vt 0.9109 0.0010
vt 0.9101 0.0040
vt 0.9132 0.0726
vt 0.3991 0.1228
vt 0.3777 0.1311
vt 0.3819 0.0765
vt 0.3989 0.0947
vt 0.0438 0.0769
vt 0.0644 0.2899
vt 0.8850 0.3000
vt 0.8471 0.3399
vt 0.0998 0.3353
vt 0.5372 0.2406
vt 0.5309 0.2574
vt 0.0893 0.2402
vt 0.5117 0.2300
vt 0.4555 0.5127
vt 0.4555 0.5393
vt 0.4611 0.5445
vt 0.9931 0.2145
vt 1.0034 0.2442
vt 0.8973 0.2897
vt 0.0632 0.2105
vt 0.9436 0.4112
vt 0.0036 0.4112
vt 0.0004 0.0423
vt 0.4257 0.0445
vt 0.4257 0.1648
vt 0.4207 0.1781
vt 0.0001 0.1691
vt 0.3782 0.1430
vt 0.8672 0.3549
vt 0.9169 0.3662
vt 0.8668 0.3757
vt 0.0919 0.3510
vt 0.7283 0.8642
vt 0.7283 0.9075
vt 0.7335 0.9081
vt 0.7283 0.8254
vt 0.7315 0.8442
vt 0.9105 0.7886
vt 0.9372 0.8169
vt 0.8099 0.8169
vt 0.0515 0.7410
vt 0.9028 0.6354
vt 0.9078 0.6354
vt 0.2378 0.6735
vt 0.2625 0.6677
vt 0.8030 0.3919
vt 0.7582 0.4060
vt 0.0831 0.3759
vt 0.7589 0.3759
vt 0.0010 0.2711
vt 0.4423 0.8478
vt 0.4289 0.8429
vt 0.4463 0.8400
vt 0.4548 0.8408
vt 0.1717 0.8429
vt 0.4650 0.8710
vt 0.4639 0.8695
vt 0.1643 0.0705
vt 0.1331 0.0369
vt 0.8173 0.0369
vt 0.7873 0.0743
vt 0.7718 0.8441
vt 0.4761 0.8408
vt 0.4846 0.8400
vt 0.7592 0.8429
vt 0.4885 0.8478
vt 0.4850 0.8392
vt 0.7722 0.8429
vt 0.8192 0.6946
vt 0.8192 0.7211
vt 0.8248 0.7263
vt 0.0833 0.3262
vt 0.1718 0.2884
vt 0.4682 0.8316
vt 0.7889 0.8396
vt 0.8668 0.1386
vt 0.0831 0.1290
vt 0.4626 0.8316
vt 0.4657 0.8719
vt 0.1420 0.8396
vt 0.4567 0.8266
vt 0.4573 0.8355
vt 0.1420 0.8482
vt 0.4241 0.8266
vt 0.9694 0.7962
vt 0.9743 0.8098
vt 0.9790 0.7963
vt 0.9803 0.4457
vt 0.2056 0.6643
vt 0.2095 0.6487
vt 0.2676 0.6590
vt 0.7819 0.7828
vt 0.1896 0.3121
vt 0.0010 0.4529
vt 0.3770 0.4763
vt 0.3782 0.4756
vt 0.5127 0.4391
vt 0.0010 0.3575
vt 0.1828 0.1802
vt 0.1859 0.1558
vt 0.2687 0.2467
vt 0.4035 0.7563
vt 0.2534 0.5984
vt 0.7971 0.6120
vt 0.1021 0.7637
vt 0.4640 0.2276
vt 0.3618 0.2737
vt 0.4659 0.2217
vt 0.0149 0.0145
vt 0.0919 0.4484
vt 0.5099 0.4754
vt 0.4527 0.1828
vt 0.4555 0.0848
vt 0.6055 0.7724
vt 0.0467 0.7581
vt 0.4030 0.7753
vt 0.6058 0.7711
vt 0.6323 0.3376
vt 0.5465 0.5439
vt 0.5495 0.5194
vt 0.2903 0.4807
vt 0.3595 0.5271
vt 0.3646 0.5393
vt 0.3677 0.5271
vt 0.4555 0.2711
vt 0.4586 0.2467
vt 0.5414 0.3376
vt 0.1415 0.1133
vt 0.0408 0.1414
vt 0.7785 0.1853
vt 0.0036 0.1853
vt 0.5436 0.3646
vt 0.4555 0.2799
vt 0.0868 0.6180
vt 0.0919 0.6302
vt 0.0950 0.6180
vt 0.5465 0.0893
vt 0.5495 0.0649
vt 0.6323 0.1558
vt 0.3541 0.7793
vt 0.1800 0.5465
vt 0.2709 0.5465
vt 0.5465 0.0981
vt 0.1896 0.1564
vt 0.7283 0.0893
vt 0.4705 0.2177
vt 0.0207 0.0022
vt 0.9698 0.0498
vt 0.4535 0.5494
vt 0.4527 0.5465
vt 0.6374 0.0848
vt 0.6405 0.0726
vt 0.7232 0.2544
vt 0.0630 0.6974
vt 0.0732 0.6677
vt 0.8488 0.6974
vt 0.8164 0.2737
vt 0.8895 0.1454
vt 0.1149 0.1268
vt 0.7255 0.0919
vt 0.4527 0.6374
vt 0.9198 0.5618
vt 0.6374 0.4484
vt 0.1828 0.7257
vt 0.1859 0.7012
vt 0.7232 0.3376
vt 0.6382 0.6374
vt 0.6374 0.6403
vt 0.6405 0.7089
vt 0.4766 0.7140
vt 0.4555 0.6403
vt 0.6374 0.2799
vt 0.1334 0.7679
vt 0.7283 0.6348
vt 0.7959 0.8147
vt 0.1332 0.7168
vt 0.1777 0.7998
vt 0.1828 0.8121
vt 0.1859 0.7998
vt 0.7283 0.1802
vt 0.7313 0.1558
vt 0.8141 0.2467
vt 0.9374 0.5626
vt 0.6401 0.1303
vt 0.2709 0.7283
vt 0.2737 0.7312
vt 0.7283 0.1890
vt 0.0313 0.2624
vt 0.2745 0.7283
vt 0.2768 0.7998
vt 0.6030 0.1724
vt 0.0904 0.1699
vt 0.0055 0.1792
vt 0.6374 0.8121
vt 0.7969 0.6933
vt 0.2745 0.8192
vt 0.4766 0.7831
vt 0.9073 0.0010
vt 0.0052 0.1783
vt 0.1828 0.9030
vt 0.8891 0.7825
vt 0.8803 0.7904
vt 0.4210 0.0311
vt 0.7820 0.7697
vt 0.0103 0.3658
vt 0.4539 0.5717
vt 0.8577 0.5717
vt 0.8664 0.5798
vt 0.9959 0.1558
vt 0.9101 0.3620
vt 0.9132 0.3376
vt 0.0037 0.7915
vt 0.0098 0.7866
vt 0.1217 0.4432
vt 0.9050 0.5271
vt 0.5465 0.9030
vt 0.5496 0.8907
vt 0.3646 0.9075
vt 0.3677 0.8830
vt 0.5414 0.8830
vt 0.1698 0.8433
vt 0.9073 0.5465
vt 0.4555 0.8254
vt 0.0781 0.1849
vt 0.8192 0.9030
vt 0.6374 0.9075
vt 0.7255 0.7579
vt 0.2706 0.6669
vt 0.0693 0.1847
vt 0.9101 0.4484
vt 0.9132 0.4362
vt 0.9959 0.6180
vt 0.0047 0.3440
vt 0.0121 0.0001
vt 0.9982 0.1828
vt 0.1836 0.9101
vt 0.1828 0.9163
vt 0.1859 0.9739
vt 0.3825 0.2826
vt 0.4555 0.9131
vt 0.9990 0.4618
vt 0.9982 0.4555
vt 0.9959 0.5194
vt 0.6374 0.9984
vt 0.6404 0.9739
vt 0.9959 0.7921
vt 0.0434 0.1344
vt 0.0402 0.2837
vt 0.4654 0.8320
vt 0.3856 0.1365
vt 0.0916 0.1537
vt 0.0831 0.3757
vt 0.9050 0.9817
vt 0.1808 0.0460
vt 0.1778 0.0649
vt 0.1805 0.0899
vt 0.0927 0.0919
vt 0.0919 0.0919
vt 0.0919 0.0949
vt 0.3618 0.0010
vt 0.1808 0.0072
vt 0.4555 0.4096
vt 0.4555 0.4529
vt 0.4608 0.4535
vt 0.0010 0.0072
vt 0.0042 0.0261
vt 0.0010 0.0010
vt 0.1800 0.0010
vt 0.1752 0.1808
vt 0.1802 0.1808
vt 0.1808 0.1491
vt 0.5465 0.2400
vt 0.0927 0.2737
vt 0.1808 0.0019
vt 0.4504 0.0726
vt 0.1859 0.3453
vt 0.0036 0.1220
vt 0.0573 0.1051
vt 0.8671 0.1412
vt 0.0565 0.1412
vt 0.5436 0.2737
vt 0.3618 0.4555
vt 0.3626 0.0019
vt 0.1752 0.3626
vt 0.1802 0.3626
vt 0.1808 0.3309
vt 0.2508 0.6389
vt 0.2520 0.6461
vt 0.2068 0.6461
vt 0.0891 0.9101
vt 0.1884 0.9081
vt 0.2919 0.4797
vt 0.1828 0.1890
vt 0.1860 0.2079
vt 0.1828 0.1828
vt 0.0865 0.2911
vt 0.0899 0.2767
vt 0.0899 0.2739
vt 0.0919 0.2737
vt 0.0919 0.2767
vt 0.3646 0.0010
vt 0.5473 0.3646
vt 0.5465 0.3708
vt 0.5495 0.4285
vt 0.3646 0.3620
vt 0.0847 0.4535
vt 0.0896 0.4535
vt 0.1776 0.6624
vt 0.1808 0.6436
vt 0.1800 0.6374
vt 0.4283 0.7485
vt 0.4589 0.5638
vt 0.4564 0.5465
vt 0.4555 0.5494
vt 0.0010 0.6436
vt 0.2737 0.2278
vt 0.2737 0.1828
vt 0.3626 0.2739
vt 0.2737 0.3646
vt 0.2665 0.4535
vt 0.2714 0.4535
vt 0.2717 0.4096
vt 0.0018 0.6374
vt 0.0919 0.5439
vt 0.5413 0.6180
vt 0.2768 0.6180
vt 0.6345 0.2737
vt 0.5436 0.5465
vt 0.0577 0.1636
vt 0.2665 0.7263
vt 0.2714 0.7263
vt 0.2717 0.6824
vt 0.3646 0.3708
vt 0.3678 0.3897
vt 0.6382 0.1828
vt 0.1828 0.4096
vt 0.1828 0.3646
vt 0.4535 0.1830
vt 0.0899 0.5005
vt 0.0868 0.5194
vt 0.0896 0.5445
vt 0.1756 0.5445
vt 0.1805 0.5445
vt 0.1808 0.5005
vt 0.0899 0.4618
vt -0.0026 0.2636
vt 0.1568 0.2897
vt 0.5389 0.1808
vt 0.5439 0.1808
vt 0.5445 0.1491
vt 0.3646 0.3646
vt 0.0891 0.4555
vt 0.0571 0.1234
vt 0.8291 0.1234
vt 0.8291 0.1410
vt 0.5465 0.7211
vt 0.0899 0.4564
vt 0.9819 0.3817
vt 0.1828 0.3575
vt 0.5127 0.2141
vt 0.5122 0.2220
vt 0.1090 0.2158
vt 0.7764 0.8436
vt 0.5436 0.8192
vt 0.9073 0.4555
vt 0.0919 0.3309
vt 0.0919 0.3575
vt 0.4483 0.9081
vt 0.4533 0.9081
vt 0.4535 0.8642
vt 0.0302 0.7457
vt 0.9081 0.9673
vt 0.9075 0.9990
vt 0.5362 0.2745
vt 0.0889 0.2599
vt 0.4587 0.2988
vt 0.4564 0.2737
vt 0.8116 0.9990
vt 0.8166 0.9990
vt 0.8172 0.9673
vt 0.0865 0.1093
vt 0.0899 0.0949
vt 0.0899 0.0921
vt 0.8681 0.7632
vt 0.6312 0.1534
vt 0.8164 0.1828
vt 0.1800 0.7283
vt 0.0950 0.1635
vt 0.0919 0.1491
vt 0.0919 0.1757
vt 0.6298 0.2717
vt 0.6348 0.2717
vt 0.6354 0.2400
vt 0.2737 0.7855
vt 0.5448 0.1070
vt 0.8192 0.5127
vt 0.8192 0.5393
vt 0.8248 0.5445
vt 0.5496 0.1170
vt 0.5473 0.0919
vt 0.1775 0.5638
vt 0.1808 0.5494
vt 0.1017 0.7199
vt 0.1808 0.6824
vt 0.2737 0.2711
vt 0.7207 0.0899
vt 0.7257 0.0899
vt 0.7263 0.0582
vt 0.0919 0.7257
vt 0.0899 0.3655
vt 0.0690 0.1481
vt 0.3646 0.9551
vt 0.3646 0.9984
vt 0.3699 0.9990
vt 0.7283 0.4484
vt 0.9101 0.0582
vt 0.5465 0.4096
vt 0.6345 0.4555
vt 0.1828 0.4529
vt 0.9695 0.0299
vt 0.4504 0.2988
vt 0.4535 0.2799
vt 0.4535 0.2746
vt 0.0010 0.9075
vt 0.0847 0.9081
vt 0.0896 0.9081
vt 0.4564 0.6374
vt 0.6301 0.9990
vt 0.6351 0.9990
vt 0.6354 0.9551
vt 0.5498 0.7456
vt 0.5445 0.0012
vt 0.9228 0.7531
vt 0.9081 0.2278
vt 0.9050 0.2467
vt 0.9078 0.2717
vt 0.6374 0.6946
vt 0.5389 0.7263
vt 0.5439 0.7263
vt 0.5445 0.6946
vt 0.0036 0.1970
vt 0.0636 0.1855
vt 0.0661 0.3149
vt 0.9028 0.3626
vt 0.9078 0.3626
vt 0.9081 0.3187
vt 0.9081 0.0012
vt 0.6405 0.2988
vt 0.6382 0.2737
vt 0.8225 0.1093
vt 0.8192 0.0949
vt 0.0925 0.1412
vt 0.7954 0.1830
vt 0.0571 0.1830
vt 0.7210 0.9990
vt 0.7260 0.9990
vt 0.0909 0.1491
vt 0.0909 0.0949
vt 0.7263 0.5527
vt 0.7207 0.7263
vt 0.7257 0.7263
vt 0.7263 0.6946
vt 0.6374 0.4555
vt 0.7255 0.5465
vt 0.6354 0.6375
vt 0.7263 0.5473
vt 0.2737 0.6302
vt 0.5465 0.4529
vt 0.5465 0.2666
vt 0.9101 0.1369
vt 0.9101 0.1802
vt 0.9153 0.1808
vt 0.9101 0.2400
vt 0.9101 0.2666
vt 0.9157 0.2717
vt 0.7315 0.2079
vt 0.7291 0.1828
vt 0.5465 0.7312
vt 0.5465 0.7283
vt 0.8119 0.5445
vt 0.8169 0.5445
vt 0.8172 0.5005
vt 0.4564 0.9101
vt 0.2737 0.8121
vt 0.1756 0.7263
vt 0.1805 0.7263
vt 0.9982 0.0919
vt 0.3618 0.9101
vt 0.6354 0.8764
vt 0.3778 0.4350
vt 0.7283 0.5005
vt 0.7283 0.4555
vt 0.8192 0.0919
vt 0.8119 0.8172
vt 0.8169 0.8172
vt 0.8172 0.7733
vt 0.4555 0.9101
vt 0.8800 0.7140
vt 0.3595 0.9817
vt 0.0950 0.9817
vt 0.1315 0.8439
vt 0.2662 0.9081
vt 0.2711 0.9081
vt 0.2717 0.8764
vt 0.3646 0.9163
vt 0.3678 0.9351
vt 0.7283 0.7733
vt 0.7283 0.7283
vt 0.4668 0.2212
vt 0.9081 0.1890
vt 0.9167 0.1487
vt 0.8669 0.1594
vt 0.7892 0.2888
vt 0.3571 0.9081
vt 0.3621 0.9081
vt 0.3626 0.8764
vt 0.0919 0.8192
vt 0.9073 0.1828
vt 0.4654 0.8417
vt 0.4658 0.8710
vt 0.9101 0.6403
vt 0.9135 0.6547
vt 0.6374 0.6374
vt 0.9081 0.1837
vt 0.4262 0.8348
vt 0.1726 0.2762
vt 0.6298 0.9081
vt 0.6348 0.9081
vt 0.1828 0.9551
vt 0.1828 0.9984
vt 0.6374 0.7211
vt 0.9937 0.3626
vt 0.9987 0.3626
vt 0.9999 0.1676
vt 0.9101 0.0848
vt 0.2056 0.6389
vt 0.4587 0.8442
vt 0.4564 0.8192
vt 0.0899 0.9109
vt 0.9934 0.0899
vt 0.9984 0.0899
vt 0.9990 0.0582
vt 0.9990 0.3648
vt 0.7283 0.8192
vt 0.9081 0.8193
vt 0.9101 0.0010
vt 0.9982 0.2737
vt 0.7283 0.5439
vt 0.9934 0.4535
vt 0.9984 0.4535
vt 0.0919 0.9939
vt 0.2771 0.9274
vt 0.2745 0.9101
vt 0.2737 0.9131
vt 0.8172 0.5473
vt 0.9025 0.9081
vt 0.9075 0.9081
vt 0.0352 0.2625
vt 0.0634 0.6675
vt 0.0630 0.6498
vt 0.8392 0.6498
vt 0.2737 0.8192
vt 0.2737 0.8222
vt 0.7283 0.8166
vt 0.1545 0.4053
vt 0.9990 0.5005
vt 0.0899 0.8200
vt 0.5389 0.9990
vt 0.5439 0.9990
vt 0.5445 0.9673
vt 0.3646 0.9101
vt 0.5465 0.9984
vt 0.9990 0.4564
vt 0.2717 0.8222
vt 0.2717 0.8193
vt 0.9937 0.9081
vt 0.9987 0.9081
vt 0.9990 0.8642
vt 0.6298 0.7263
vt 0.6348 0.7263
vt 0.7283 0.9939
vt 0.7263 0.9109
vt 0.9101 0.6374
vt 0.6345 0.0919
vt 0.0891 0.5465
vt 0.4743 0.2237
vt 0.4852 0.1827
vt 0.1437 0.8889
vt 0.7263 0.8889
vt 0.7643 0.9027
vt 0.7258 0.9148
vt 0.3772 0.4369
vt 0.2737 0.0460
vt 0.2737 0.0893
vt 0.2790 0.0899
vt 0.2665 0.1808
vt 0.2714 0.1808
vt 0.2717 0.1369
vt 0.3620 0.7584
vt 0.2737 0.5127
vt 0.2737 0.5393
vt 0.2793 0.5445
vt 0.5389 0.5445
vt 0.5439 0.5445
vt 0.5445 0.5127
vt 0.5520 0.7263
vt 0.5465 0.3187
vt 0.5465 0.3620
vt 0.5517 0.3626
vt 0.6301 0.4535
vt 0.6351 0.4535
vt 0.6354 0.4096
vt 0.7283 0.3187
vt 0.7283 0.3620
vt 0.7335 0.3626
vt 0.8119 0.1808
vt 0.8169 0.1808
vt 0.8172 0.1369
vt 0.1828 0.5915
vt 0.1828 0.6348
vt 0.1881 0.6354
vt 0.6301 0.0899
vt 0.6351 0.0899
vt 0.6354 0.0460
vt 0.0919 0.7855
vt 0.0919 0.8121
vt 0.0975 0.8172
vt 0.3571 0.8172
vt 0.3621 0.8172
vt 0.3626 0.7855
vt 0.3646 0.6037
vt 0.3646 0.6302
vt 0.3702 0.6354
vt 0.3571 0.6354
vt 0.3621 0.6354
vt 0.3626 0.6037
vt 0.2737 0.3309
vt 0.2737 0.3575
vt 0.2793 0.3626
vt 0.2662 0.3626
vt 0.2711 0.3626
vt 0.2717 0.3309
vt 0.5465 0.5915
vt 0.5465 0.6348
vt 0.5517 0.6354
vt 0.0847 0.7263
vt 0.0896 0.7263
vt 0.0899 0.6824
vt 0.7335 0.6354
vt 0.1752 0.4535
vt 0.1802 0.4535
vt 0.1808 0.4218
vt 0.9025 0.7263
vt 0.9075 0.7263
vt 0.9081 0.6946
vt 0.8248 0.9081
vt 0.0010 0.9551
vt 0.0010 0.9984
vt 0.0063 0.9990
vt 0.7210 0.9081
vt 0.7260 0.9081
vt 0.7263 0.8642
vt 0.1752 0.9990
vt 0.1802 0.9990
vt 0.1808 0.9673
vt 0.4555 0.7855
vt 0.4555 0.8121
vt 0.4611 0.8172
vt 0.8116 0.4535
vt 0.8166 0.4535
vt 0.8172 0.4218
vt 0.8119 0.6354
vt 0.8169 0.6354
vt 0.9987 0.5445
vt 0.6644 0.4252
vt 0.6369 0.4146
vt 0.6652 0.4064
vt 0.0525 0.3965
vt 0.7207 0.8172
vt 0.7257 0.8172
vt 0.7263 0.7855
vt 0.4654 0.8712
vn -0.7473 0.2811 0.6020
vn -0.8488 0.3105 0.4281
vn -0.5873 0.1113 0.8017
vn 0.9401 -0.0417 0.3384
vn 0.6774 -0.4279 0.5984
vn 0.7449 0.2876 0.6020
vn -0.1340 0.7912 0.5967
vn -0.0039 0.8944 0.4472
vn -0.4363 0.7315 0.5240
vn -0.3779 0.4671 -0.7994
vn -0.3009 0.3276 -0.8956
vn -0.0249 0.4454 -0.8950
vn -0.4983 -0.6239 0.6020
vn -0.8296 -0.4032 0.3862
vn -0.5575 -0.7113 0.4281
vn 0.4904 0.2763 -0.8265
vn 0.8492 -0.2651 -0.4568
vn 0.4835 -0.2407 -0.8416
vn 0.1271 0.7923 0.5968
vn -0.0026 0.5926 0.8055
vn -0.1112 0.5518 -0.8265
vn 0.5145 0.7257 -0.4568
vn 0.3783 0.3855 -0.8416
vn -0.2874 -0.5241 0.8017
vn -0.9996 0.0108 -0.0257
vn -0.9948 -0.0785 0.0649
vn -0.8262 0.4638 -0.3198
vn -0.9584 0.1227 -0.2576
vn -0.8851 -0.3651 -0.2885
vn -0.5572 -0.4150 -0.7192
vn 0.7928 0.1239 0.5968
vn 0.8460 0.3178 0.4281
vn 0.5863 0.1164 0.8017
vn -0.2429 -0.9091 0.3385
vn -0.5125 -0.7819 -0.3549
vn -0.1404 -0.5950 -0.7914
vn -0.5609 -0.7983 -0.2195
vn 0.5634 0.4066 -0.7192
vn 0.8832 0.2198 -0.4143
vn 0.6186 0.7315 -0.2868
vn -0.5822 0.0072 -0.8130
vn -0.5464 -0.4951 -0.6755
vn -0.5831 0.1512 -0.7982
vn -0.1867 -0.5515 -0.8130
vn -0.3240 -0.5079 -0.7982
vn -0.8469 -0.2724 -0.4567
vn 0.4393 -0.6668 0.6020
vn 0.5376 -0.7333 0.4163
vn 0.3530 -0.4815 0.8022
vn 0.1683 0.5574 -0.8130
vn 0.6365 0.3722 -0.6756
vn 0.6201 0.6527 -0.4353
vn -0.9054 0.2375 -0.3520
vn -0.6092 -0.0503 -0.7914
vn 0.1340 -0.9889 0.0646
vn 0.4681 -0.7897 -0.3965
vn 0.1442 -0.9057 -0.3987
vn -0.5257 0.7170 -0.4577
vn -0.3567 -0.7188 0.5967
vn -0.0770 -0.8482 0.5240
vn -0.8569 -0.3980 0.3277
vn 0.3020 -0.6726 -0.6756
vn 0.4144 -0.3810 -0.8265
vn 0.0039 -0.8944 -0.4472
vn 0.0023 -0.5364 -0.8439
vn -0.8423 -0.2541 -0.4753
vn -0.7906 -0.6025 -0.1091
vn -0.6249 0.7261 -0.2868
vn -0.2457 0.9516 -0.1847
vn -0.4956 0.7473 -0.4426
vn 0.9725 -0.1970 0.1244
vn 0.5394 -0.7162 0.4428
vn 0.7645 -0.6438 -0.0331
vn -0.8173 0.5657 -0.1091
vn -0.5226 -0.7259 0.4471
vn -0.7589 -0.6503 -0.0330
vn 0.4839 0.8748 -0.0248
vn 0.3584 0.8148 -0.4557
vn 0.6073 0.3925 -0.6907
vn -0.1543 -0.4699 -0.8691
vn -0.8179 -0.1752 -0.5481
vn -0.4704 -0.8530 -0.2260
vn -0.5309 -0.8469 0.0283
vn 0.0906 -0.9453 -0.3133
vn -0.2160 -0.5588 -0.8007
vn 0.6989 0.6092 -0.3747
vn 0.5178 0.7370 -0.4344
vn 0.8124 0.5728 -0.1091
vn -0.3003 0.3016 0.9049
vn -0.8593 0.1135 0.4987
vn -0.6986 0.6973 0.1604
vn -0.1912 0.4801 0.8561
vn 0.2977 0.3041 0.9049
vn 0.1219 -0.0091 0.9925
vn -0.8736 -0.4678 0.1343
vn -0.9229 -0.3399 0.1810
vn -0.8524 0.2777 0.4430
vn 0.7954 -0.4764 -0.3747
vn 0.8445 -0.2469 -0.4753
vn 0.7958 -0.5957 -0.1091
vn -0.7148 0.6863 0.1343
vn -0.0042 0.8991 0.4377
vn -0.3077 0.9514 0.0091
vn 0.0737 -0.9546 -0.2886
vn 0.0040 -0.8731 -0.4876
vn 0.2689 -0.9604 -0.0733
vn 0.7089 0.6925 0.1343
vn 0.9674 0.2516 0.0283
vn 0.9028 0.1879 0.3868
vn -0.3196 -0.8955 -0.3096
vn -0.3157 -0.9220 0.2241
vn 0.1432 -0.9335 -0.3288
vn -0.6084 0.7727 0.1810
vn 0.6709 -0.7310 -0.1244
vn 0.4927 -0.6934 -0.5257
vn -0.5669 0.4016 -0.7193
vn -0.1821 -0.0148 -0.9832
vn 0.2649 -0.3155 -0.9112
vn -0.7443 -0.4146 -0.5236
vn -0.9384 -0.3274 -0.1104
vn -0.6724 -0.7308 0.1177
vn -0.4814 -0.2449 -0.8416
vn 0.0797 0.8074 -0.5846
vn -0.3162 0.4313 -0.8450
vn -0.6854 -0.2691 0.6766
vn -0.8390 -0.5226 0.1513
vn -0.5973 -0.2087 0.7744
vn -0.6737 -0.4337 0.5984
vn -0.3349 0.0419 0.9413
vn -0.0894 -0.9600 0.2655
vn -0.0854 0.4691 -0.8790
vn 0.6097 -0.0451 -0.7914
vn 0.8222 0.4709 -0.3199
vn -0.1131 0.9858 -0.1244
vn 0.0090 0.8506 -0.5257
vn -0.4128 -0.8736 -0.2576
vn 0.2226 -0.6581 -0.7193
vn 0.7529 -0.5807 -0.3097
vn 0.7793 -0.5852 0.2241
vn 0.9320 -0.1523 -0.3288
vn -0.0378 -0.7353 0.6766
vn -0.2140 -0.9484 0.2340
vn -0.5266 -0.7802 0.3375
vn -0.9695 0.2433 0.0283
vn -0.9307 -0.1603 -0.3288
vn -0.7559 0.1127 -0.6449
vn 0.4879 0.8640 0.1244
vn 0.8500 0.2850 0.4430
vn 0.8485 0.5282 -0.0330
vn -0.7912 -0.4833 -0.3747
vn -0.5839 -0.6687 -0.4604
vn 0.0041 -0.9509 0.3096
vn 0.3068 -0.9517 -0.0108
vn 0.0163 -0.9958 0.0897
vn 0.1113 -0.5518 0.8265
vn -0.0079 -0.8908 0.4543
vn 0.0108 0.0139 -0.9998
vn -0.4062 -0.2108 -0.8891
vn -0.2622 -0.3178 -0.9112
vn 0.1272 -0.5775 -0.8064
vn 0.1854 -0.0174 -0.9825
vn -0.0011 0.0005 1.0000
vn -0.8530 0.5208 -0.0330
vn -0.5459 0.4798 -0.6869
vn 0.3634 0.2445 -0.8990
vn -0.0753 0.1702 -0.9825
vn -0.2158 -0.2706 -0.9382
vn -0.0189 -0.9976 0.0670
vn 0.5911 -0.7085 -0.3855
vn -0.1223 -0.5786 -0.8064
vn 0.0458 0.9349 -0.3520
vn 0.2312 0.5659 -0.7914
vn 0.4131 0.7273 -0.5481
vn -0.5144 0.0788 0.8539
vn 0.1313 -0.1791 -0.9750
vn 0.4080 -0.2073 -0.8891
vn 0.9208 0.2011 -0.3341
vn 0.8435 -0.5154 0.1513
vn 0.7257 -0.0331 0.6872
vn 0.3016 -0.5662 -0.7671
vn -0.0000 -0.0000 -1.0000
vn 0.4492 -0.4582 -0.7670
vn -0.4152 0.5663 0.7120
vn -0.0022 0.5149 0.8572
vn -0.1297 -0.1802 -0.9750
vn 0.0020 -0.4554 -0.8903
vn 0.1870 0.4818 0.8561
vn 0.4797 0.6463 0.5935
vn 0.8776 -0.4602 0.1343
vn 0.5382 -0.8423 0.0283
vn 0.4577 -0.8006 0.3868
vn 0.4103 0.5698 0.7120
vn 0.5137 0.0833 0.8539
vn 0.0603 0.3325 0.9412
vn 0.9432 -0.2033 0.2629
vn -0.0000 0.0000 1.0000
vn -0.1433 -0.3055 0.9413
vn -0.2442 -0.2336 0.9412
vn 0.6366 0.7241 0.2654
vn 0.2463 -0.2307 0.9413
vn -0.6435 0.7189 0.2629
vn 0.1459 -0.3043 0.9413
vn -0.4920 0.8300 0.2629
vn 0.2962 0.1626 0.9412
vn -0.8821 -0.3893 0.2654
vn 0.3345 0.0448 0.9413
vn -0.9414 -0.2114 0.2629
vn -0.0631 0.3320 0.9412
vn 0.0976 -0.9592 0.2654
vn 0.3791 -0.6074 -0.6981
vn 0.2508 -0.9069 0.3385
vn 0.8331 -0.3961 0.3862
vn 0.4299 0.7352 0.5240
vn -0.4452 -0.4621 -0.7670
vn -0.6326 0.1064 -0.7671
vn -0.2967 -0.5688 -0.7671
vn -0.5770 0.2807 -0.7670
vn -0.0941 0.6347 -0.7670
vn 0.0888 0.6354 -0.7671
vn 0.5746 0.2856 -0.7670
vn 0.6317 0.1119 -0.7671
vn 0.8854 -0.3817 0.2654
vn 0.4848 0.8342 0.2629
vn 0.8193 -0.1682 -0.5481
vn 0.1583 -0.4687 -0.8691
vn -0.8305 -0.1889 0.5240
vn -0.9242 0.0741 0.3747
vn -0.6399 0.6644 0.3862
vn -0.6425 0.5175 0.5652
vn -0.1139 -0.6352 0.7639
vn -0.9574 -0.0098 0.2886
vn -0.8260 0.5219 0.2129
vn 0.2787 0.5832 0.7630
vn -0.9956 0.0189 0.0918
vn 0.1915 -0.5498 -0.8130
vn 0.5821 0.0122 -0.8130
vn 0.5818 0.1562 -0.7982
vn 0.5507 -0.4903 -0.6755
vn 0.2019 0.9040 0.3768
vn -0.6907 -0.4511 0.5652
vn 0.4764 -0.1742 0.8618
vn -0.3674 0.7163 -0.5932
vn -0.7938 0.1171 0.5967
vn -0.3738 -0.6108 -0.6980
vn -0.2976 0.1601 0.9412
vn 0.3284 -0.5051 -0.7982
vn 0.5072 -0.8262 -0.2454
vn -0.1180 -0.8926 -0.4352
vn 0.9026 0.4122 -0.1244
vn 0.9425 0.2270 -0.2454
vn 0.8960 -0.3830 0.2249
vn 0.8602 -0.3906 0.3277
vn 0.6949 0.1727 -0.6981
vn 0.6341 0.6699 0.3862
vn 0.2073 0.9037 0.3746
vn 0.6380 0.5230 0.5652
vn 0.5677 0.5708 -0.5932
vn -0.5726 0.5659 -0.5932
vn -0.9229 0.0793 0.3768
vn 0.0228 -0.5067 0.8618
vn 0.2375 0.9537 -0.1847
vn -0.4217 0.2225 -0.8790
vn -0.0042 0.9714 0.2374
vn 0.9741 -0.2245 0.0268
vn 0.0009 -0.2164 0.9763
vn -0.4611 0.8749 -0.1481
vn -0.9542 -0.1939 0.2278
vn 0.9222 0.0873 0.3768
vn -0.2151 0.9019 0.3747
vn 0.4198 0.2261 -0.8790
vn -0.0185 -0.5069 0.8618
vn -0.6964 0.1667 -0.6981
vn 0.5678 -0.7934 -0.2194
vn 0.0269 -0.9864 0.1620
vn -0.6646 -0.7368 -0.1244
vn -0.5000 -0.8305 -0.2454
vn -0.4110 -0.3846 -0.8265
vn 0.3612 0.7194 -0.5933
vn -0.2097 0.9022 0.3768
vn 0.9235 0.0821 0.3746
vn 0.6945 -0.4451 0.5652
vn -0.4749 -0.1783 0.8618
vn 0.9573 0.1309 -0.2576
vn 0.0812 0.4699 -0.8790
vn -0.2837 0.5808 0.7630
vn 0.8215 0.5290 0.2129
vn 0.9574 -0.0015 0.2886
vn 0.1194 -0.6342 0.7639
vn 0.1257 -0.8915 -0.4352
vn -0.4928 0.2721 -0.8265
vn -0.8139 0.2473 -0.5257
vn -0.9061 0.4044 -0.1243
vn -0.4867 -0.6977 -0.5257
vn -0.8926 -0.3907 0.2249
vn 0.5037 -0.6196 0.6020
vn 0.4654 -0.5442 -0.6981
vn 0.9270 -0.1823 -0.3279
vn -0.9444 0.2189 -0.2454
vn -0.1976 -0.7765 0.5984
vn 0.7999 -0.0451 0.5984
vn 0.1271 -0.9136 0.3862
vn 0.2156 -0.7963 0.5652
vn 0.4647 0.4493 0.7630
vn 0.7570 -0.6178 0.2129
vn 0.3613 -0.9076 0.2137
vn -0.5663 -0.3095 0.7639
vn 0.6951 -0.7035 0.1483
vn 0.8321 -0.1817 0.5240
vn -0.8090 -0.3950 -0.4352
vn -0.7041 0.6032 -0.3747
vn -0.4999 0.8363 0.2251
vn -0.6474 0.7282 0.2249
vn -0.0161 0.9958 -0.0898
vn 0.0753 0.9665 -0.2454
vn 0.9550 0.1920 -0.2260
vn 0.3129 0.3992 0.8618
vn 0.0312 0.6016 -0.7982
vn -0.3561 -0.8561 0.3746
vn -0.3256 -0.9411 0.0918
vn 0.4946 0.0058 -0.8691
vn 0.5689 -0.3046 0.7639
vn -0.2865 -0.9136 0.2886
vn -0.7516 -0.6243 0.2129
vn -0.4686 0.4453 0.7630
vn 0.1456 -0.5937 -0.7914
vn -0.7974 0.4714 0.3768
vn -0.4725 0.0639 -0.8790
vn -0.7948 -0.1281 -0.5932
vn 0.2043 -0.7747 0.5984
vn 0.8118 0.2543 -0.5257
vn 0.8124 -0.3880 -0.4352
vn -0.1938 0.9274 -0.3199
vn 0.6411 0.7338 0.2249
vn 0.6373 0.6974 0.3277
vn 0.6490 -0.6448 0.4038
vn -0.5734 0.5613 -0.5967
vn -0.7829 0.3354 -0.5240
vn -0.2718 0.9599 0.0686
vn -0.9546 -0.2903 0.0670
vn -0.2159 0.8612 -0.4602
vn -0.3172 0.5915 0.7413
vn 0.5192 -0.7775 -0.3549
vn 0.1238 0.7954 0.5932
vn -0.8857 0.0608 -0.4603
vn -0.6606 -0.1188 0.7413
vn 0.6947 0.6127 -0.3768
vn 0.2208 -0.5569 -0.8007
vn -0.8876 0.4360 0.1483
vn -0.8851 0.2122 -0.4143
vn 0.0933 -0.8312 -0.5481
vn 0.5984 -0.7962 -0.0898
vn 0.9258 -0.3319 0.1810
vn 0.5592 -0.0647 0.8265
vn 0.5963 -0.2744 0.7544
vn -0.0767 -0.6519 0.7544
vn -0.1785 -0.6152 0.7679
vn 0.7549 0.1192 -0.6449
vn 0.3463 0.4810 -0.8055
vn 0.5685 0.5663 -0.5967
vn 0.8838 0.4437 0.1483
vn -0.7000 0.6067 -0.3768
vn -0.1307 0.7944 0.5932
vn 0.8851 0.0684 -0.4602
vn 0.6616 -0.1132 0.7413
vn 0.1166 0.4222 -0.8990
vn -0.9225 0.1931 -0.3341
vn 0.7948 0.1280 0.5933
vn 0.3567 0.7188 -0.5967
vn 0.5148 -0.7927 -0.3264
vn -0.2162 0.7959 -0.5656
vn 0.1691 0.4484 -0.8777
vn 0.2635 0.9622 0.0686
vn -0.5915 -0.8013 -0.0898
vn -0.0861 -0.8320 -0.5481
vn -0.2986 -0.9543 -0.0108
vn -0.5981 0.0328 -0.8007
vn 0.3466 -0.6811 -0.6449
vn -0.0754 -0.9665 0.2452
vn -0.0085 -0.6326 0.7744
vn -0.5586 -0.0695 0.8265
vn -0.5940 -0.2795 0.7544
vn -0.9707 -0.2054 0.1244
vn 0.8882 -0.3575 -0.2886
vn 0.4820 -0.7721 -0.4143
vn 0.3607 0.8532 -0.3768
vn 0.7479 -0.4081 -0.5236
vn 0.5896 -0.6636 -0.4604
vn 0.3382 -0.8211 -0.4598
vn 0.6787 -0.7249 0.1177
vn 0.6416 -0.2707 -0.7176
vn 0.6372 -0.0443 -0.7694
vn -0.4953 0.8598 0.1244
vn -0.4853 0.6421 0.5935
vn 0.9947 -0.0872 -0.0549
vn -0.9449 0.3149 -0.0897
vn -0.4508 -0.8045 0.3868
vn -0.8038 -0.2784 0.5257
vn -0.3283 0.4860 0.8099
vn -0.1351 -0.9347 -0.3288
vn -0.2161 -0.9748 -0.0549
vn 0.3274 -0.8928 -0.3095
vn 0.3236 -0.9192 0.2242
vn -0.4493 0.4783 0.7546
vn -0.3407 -0.6841 -0.6449
vn -0.3311 -0.8240 -0.4598
vn 0.0964 -0.6661 0.7396
vn -0.0587 -0.6935 -0.7181
vn -0.9409 -0.3319 0.0679
vn 0.8062 -0.2714 0.5257
vn 0.4618 -0.8745 0.1483
vn 0.5913 -0.6919 -0.4143
vn 0.3741 0.9251 0.0649
vn -0.9044 0.1801 0.3868
vn 0.4451 0.4822 0.7546
vn 0.2973 0.4336 0.8507
vn 0.9437 -0.3238 0.0679
vn -0.0906 -0.6670 0.7396
vn 0.6017 0.7779 0.1810
vn -0.9939 -0.0957 -0.0549
vn -0.7479 -0.5872 -0.3096
vn -0.7743 -0.5918 0.2242
vn -0.6368 -0.0498 -0.7694
vn 0.9033 0.2454 -0.3520
vn -0.3680 0.8501 -0.3768
vn 0.5979 0.0379 -0.8007
vn -0.6890 -0.7094 0.1483
vn -0.4754 -0.7762 -0.4142
vn 0.9954 -0.0699 0.0649
vn 0.9421 0.3230 -0.0898
vn -0.1218 -0.0101 0.9925
vn 0.5042 -0.1490 0.8506
vn 0.3241 0.4888 0.8100
vn -0.6805 -0.1178 -0.7232
vn -0.5736 0.7823 -0.2430
vn 0.6926 0.7033 0.1604
vn 0.5668 0.7872 -0.2430
vn 0.0647 -0.6929 -0.7181
vn -0.6393 -0.2762 -0.7176
vn 0.6827 -0.2709 0.6786
vn 0.2227 -0.4683 0.8550
vn -0.3011 0.4310 0.8506
vn -0.5029 -0.1534 0.8506
vn -0.6434 -0.6504 0.4038
vn -0.3134 -0.4354 0.8439
vn -0.8571 -0.3974 -0.3278
vn 0.1129 -0.9380 -0.3278
vn 0.8605 -0.3899 -0.3279
vn -0.1048 -0.9389 -0.3279
vn 0.9995 0.0194 -0.0257
vn 0.6659 -0.7110 -0.2260
vn 0.4777 -0.8489 -0.2260
vn -0.6597 -0.7167 -0.2260
vn -0.3967 -0.2954 -0.8691
vn -0.0825 -0.9460 -0.3133
vn -0.3145 -0.3971 -0.8622
vn 0.4928 -0.3219 -0.8084
vn 0.7800 0.3421 -0.5240
vn -0.8710 -0.3783 -0.3133
vn 0.3390 -0.4178 0.8429
vn 0.8742 -0.3709 -0.3133
vn 0.0275 -0.9974 0.0670
vn -0.1587 -0.8654 -0.4752
vn 0.9412 -0.3192 -0.1104
vn 0.8583 0.1209 0.4987
vn -0.2961 -0.6752 -0.6755
vn -0.9397 -0.0499 0.3385
vn 0.2904 0.9566 -0.0257
vn 0.5608 -0.4103 -0.7192
vn 0.3992 -0.2919 -0.8691
vn 0.7895 -0.5120 0.3385
vn 0.9954 0.0274 0.0918
vn -0.5850 -0.7136 -0.3854
s 1
f 57/64/57 58/65/58 59/66/59
f 60/67/60 61/68/61 62/69/62
f 63/70/63 64/71/64 65/72/65
f 66/73/66 67/74/67 68/75/68
f 69/76/69 70/77/70 71/78/71
f 72/79/72 73/80/73 74/81/74
f 75/82/75 64/83/64 76/84/76
f 77/85/77 78/86/78 79/87/79
f 69/88/69 71/89/71 80/90/80
f 81/91/81 82/92/82 83/93/83
f 84/94/84 85/95/85 86/96/86
f 87/97/87 88/98/88 89/99/89
f 70/77/70 69/76/69 90/100/90
f 91/101/91 92/102/92 93/103/93
f 94/104/94 95/105/95 96/106/96
f 97/107/97 98/108/98 99/109/99
f 100/110/100 101/111/101 102/112/102
f 103/113/103 104/114/104 105/115/105
f 106/116/106 107/117/107 108/118/108
f 109/119/109 110/120/110 83/121/83
f 111/122/111 112/123/112 113/124/113
f 97/107/97 99/109/99 114/125/114
f 115/126/115 71/127/71 116/128/116
f 81/91/81 117/129/117 82/92/82
f 100/110/100 118/130/118 101/111/101
f 119/131/119 120/132/120 121/133/121
f 85/134/85 122/135/122 123/136/123
f 124/137/124 125/138/125 126/139/126
f 127/140/127 128/141/128 129/142/129
f 124/143/124 126/144/126 130/145/130
f 91/146/91 131/147/131 132/148/132
f 133/149/133 134/150/134 135/151/135
f 136/152/136 137/153/137 138/154/138
f 139/155/139 140/156/140 141/157/141
f 91/158/91 93/103/93 131/159/131
f 142/160/142 143/161/143 144/162/144
f 145/163/145 146/164/146 147/165/147
f 148/166/148 149/167/149 150/168/150
f 151/169/151 152/170/152 153/171/153
f 154/172/154 155/173/155 156/174/156
f 157/175/157 158/176/158 159/177/159
f 160/178/160 161/179/161 162/180/162
f 163/181/163 164/182/164 165/183/165
f 166/184/166 167/185/167 168/186/168
f 157/187/157 169/188/169 158/189/158
f 170/190/170 120/191/120 171/192/171
f 125/138/125 124/137/124 172/193/172
f 134/150/134 133/149/133 143/194/143
f 68/195/68 173/196/173 174/197/174
f 175/198/175 176/199/176 177/200/177
f 100/201/100 102/202/102 178/203/178
f 134/204/134 143/205/143 179/206/179
f 97/207/97 114/208/114 180/209/180
f 181/210/181 182/211/182 183/212/183
f 184/213/184 185/214/185 186/215/186
f 151/216/151 139/217/139 152/170/152
f 187/218/187 188/219/188 189/220/189
f 190/221/190 78/222/78 191/223/191
f 192/224/192 160/225/160 193/226/193
f 194/227/194 195/228/195 196/229/196
f 197/230/197 198/231/198 199/232/199
f 157/187/157 200/233/200 169/188/169
f 201/234/201 202/235/202 122/236/122
f 203/237/203 204/238/204 205/239/205
f 206/240/206 122/241/122 207/242/207
f 208/243/208 209/244/209 210/245/210
f 211/246/211 131/247/131 212/248/212
f 173/249/173 213/250/213 214/251/214
f 215/252/215 216/253/216 217/254/217
f 181/210/181 183/212/183 218/255/218
f 109/256/109 153/257/153 219/258/219
f 66/73/66 220/259/220 67/74/67
f 221/260/221 222/261/222 223/262/223
f 224/263/224 225/264/225 226/265/226
f 227/266/227 228/267/228 229/268/229
f 147/269/147 146/270/146 176/271/176
f 181/272/181 218/273/218 230/274/230
f 231/275/231 213/276/213 232/277/232
f 233/278/233 234/279/234 235/280/235
f 236/281/236 237/282/237 238/283/238
f 239/284/239 218/285/218 240/286/240
f 241/287/241 213/288/213 242/289/242
f 222/261/222 221/260/221 213/290/213
f 243/291/243 204/292/204 244/293/244
f 245/294/245 246/295/246 247/296/247
f 248/297/248 218/298/218 249/299/249
f 186/300/186 185/301/185 250/302/250 251/303/251
f 252/304/252 253/305/253 80/306/80 254/307/254
f 255/308/255 256/309/256 254/310/254 257/311/257
f 258/312/258 252/313/252 256/314/256 105/315/105
f 259/316/259 260/317/260 258/318/258 261/319/261
f 262/320/262 252/321/252 260/322/260 89/323/89
f 263/324/263 264/325/264 262/326/262 265/327/265
f 266/328/266 267/329/267 268/330/268
f 269/331/269 64/332/64 75/333/75
f 237/334/237 270/335/270 178/336/178 271/337/271
f 237/338/237 236/339/236 121/340/121 272/341/272
f 273/342/273 271/343/271 259/316/259 261/319/261
f 237/344/237 273/345/273 180/346/180 274/347/274
f 275/348/275 274/349/274 255/308/255 257/311/257
f 276/350/276 237/351/237 275/352/275 79/353/79
f 277/354/277 276/355/276 278/356/278 279/357/279
f 238/358/238 237/359/237 277/360/277 74/361/74
f 280/362/280 188/363/188 281/364/281
f 282/365/282 58/366/58 283/367/283
f 58/368/58 284/369/284 65/370/65 285/371/285
f 286/372/286 287/373/287 288/374/288 289/375/289
f 287/373/287 290/376/290 58/377/58
f 74/378/74 73/379/73 291/380/291
f 292/381/292 293/382/293 294/383/294
f 295/384/295 283/385/283 84/386/84 187/387/187
f 296/388/296 283/389/283 295/390/295 297/391/297
f 298/392/298 299/393/299 70/394/70 300/395/300
f 301/396/301 299/397/299 298/398/298 279/399/279
f 57/400/57 59/401/59 185/214/185 184/213/184
f 171/402/171 302/403/302 73/404/73 303/405/303
f 74/361/74 291/406/291 304/407/304 238/358/238
f 72/408/72 277/360/277 279/409/279 298/410/298
f 293/411/293 72/412/72 298/392/298 300/395/300
f 305/413/305 306/414/306 297/391/297 295/390/295
f 189/415/189 305/416/305 295/384/295 187/387/187
f 307/417/307 308/418/308 286/372/286 289/375/289
f 309/419/309 60/420/60 310/421/310
f 311/422/311 269/423/269 312/424/312
f 76/425/76 64/426/64 63/427/63
f 250/428/250 63/429/63 313/430/313 251/431/251
f 314/432/314 75/433/75 264/434/264 263/435/263
f 310/436/310 75/437/75 314/438/314 309/439/309
f 315/440/315 311/422/311 312/424/312 316/441/316
f 317/442/317 311/443/311 315/444/315 318/445/318
f 319/446/319 133/447/133 320/448/320 321/449/321
f 322/450/322 319/446/319 321/449/321 323/451/323
f 324/452/324 325/453/325 125/454/125 326/455/326
f 285/371/285 325/456/325 324/457/324 327/458/327
f 313/459/313 63/460/63 284/369/284 328/461/328
f 313/462/313 119/463/119 236/339/236 251/464/251
f 302/465/302 119/466/119 313/459/313 328/461/328
f 170/467/170 303/468/303 327/458/327 324/457/324
f 329/469/329 170/470/170 324/471/324 326/472/326
f 208/243/208 210/245/210 323/473/323 321/474/321
f 330/475/330 208/243/208 321/474/321 320/476/320
f 315/477/315 331/478/331 93/479/93 318/480/318
f 332/481/332 331/482/331 315/440/315 316/441/316
f 314/438/314 333/483/333 101/484/101 309/439/309
f 272/485/272 333/486/333 314/432/314 263/435/263
f 89/323/89 62/487/62 61/488/61 262/320/262
f 334/489/334 87/490/87 260/322/260 259/491/259
f 268/492/268 87/493/87 334/494/334 266/495/266
f 335/496/335 336/497/336 337/498/337 338/499/338
f 339/500/339 336/501/336 335/502/335 340/503/340
f 341/504/341 342/505/342 343/506/343 344/507/344
f 310/436/310 88/508/88 312/424/312 269/423/269
f 345/509/345 118/510/118 100/201/100
f 346/511/346 102/512/102 347/513/347
f 348/514/348 102/515/102 81/516/81
f 100/517/100 178/336/178 270/335/270 345/518/345
f 102/519/102 101/520/101 349/521/349 332/522/332
f 117/523/117 350/524/350 341/504/341 344/507/344
f 117/523/117 81/525/81 102/526/102
f 105/527/105 104/528/104 351/529/351
f 352/530/352 353/531/353 107/532/107
f 335/502/335 348/533/348 83/93/83 340/503/340
f 354/534/354 348/535/348 335/496/335 338/499/338
f 334/494/334 346/536/346 99/537/99 266/495/266
f 271/337/271 346/538/346 334/489/334 259/491/259
f 105/315/105 351/539/351 355/540/355 258/312/258
f 103/541/103 105/315/105 256/314/256 356/542/356
f 104/543/104 357/544/357 116/545/116 358/546/358
f 359/547/359 360/548/360 361/549/361 362/550/362
f 363/551/363 104/552/104 360/553/360 156/554/156
f 338/555/338 337/556/337 363/557/363 138/558/138
f 268/492/268 104/559/104 337/498/337 364/560/364
f 365/561/365 98/562/98 97/207/97
f 130/563/130 126/564/126 366/565/366
f 180/566/180 114/567/114 106/116/106
f 97/568/97 180/346/180 273/345/273 365/569/365
f 114/570/114 99/537/99 347/571/347 354/534/354
f 367/572/367 368/573/368 359/547/359 362/550/362
f 369/574/369 114/575/114 367/576/367 159/577/159
f 370/578/370 369/579/369 371/580/371 372/581/372
f 373/582/373 114/583/114 370/584/370 191/585/191
f 373/586/373 106/587/106 114/588/114
f 374/589/374 71/590/71 375/591/375
f 229/268/229 228/267/228 376/592/376
f 180/346/180 106/593/106 108/594/108 274/347/274
f 71/595/71 70/394/70 282/596/282 296/388/296
f 377/597/377 378/598/378 379/599/379 380/600/380
f 378/598/378 375/601/375 71/602/71
f 79/603/79 78/604/78 292/605/292
f 326/606/326 381/607/381 329/608/329
f 382/609/382 374/610/374 192/611/192 383/612/383
f 358/546/358 374/613/374 382/614/382 372/615/372
f 384/616/384 115/617/115 357/544/357 352/618/352
f 254/619/254 115/620/115 384/621/384 257/622/257
f 69/623/69 80/306/80 253/305/253 385/624/385
f 386/625/386 293/411/293 78/626/78 306/414/306
f 79/353/79 292/627/292 387/628/387 276/350/276
f 77/629/77 275/630/275 257/622/257 384/621/384
f 373/582/373 77/631/77 384/616/384 352/618/352
f 190/632/190 370/584/370 372/615/372 382/614/382
f 388/633/388 190/634/190 382/609/382 383/612/383
f 389/635/389 390/636/390 377/597/377 380/600/380
f 391/637/391 234/638/234 225/639/225
f 392/640/392 126/641/126 66/642/66
f 366/643/366 126/644/126 393/645/393
f 126/646/126 125/454/125 394/647/394 322/450/322
f 395/648/395 220/649/220 396/650/396 397/651/397
f 220/649/220 66/652/66 126/653/126
f 129/654/129 128/655/128 398/656/398
f 154/657/154 156/554/156 360/553/360
f 399/658/399 392/659/392 68/75/68 233/660/233
f 400/661/400 392/662/392 399/663/399 401/664/401
f 402/665/402 366/666/366 202/667/202 403/668/403
f 288/669/288 366/670/366 402/671/402 289/672/289
f 124/673/124 130/674/130 404/675/404 405/676/405
f 209/244/209 329/469/329 128/677/128 210/245/210
f 129/678/129 398/679/398 406/680/406 407/681/407
f 127/682/127 307/683/307 289/672/289 402/671/402
f 408/684/408 127/685/127 402/665/402 403/668/403
f 409/686/409 410/687/410 401/664/401 399/663/399
f 235/688/235 409/689/409 399/658/399 233/660/233
f 411/690/411 412/691/412 395/648/395 397/651/397
f 141/692/141 194/693/194 413/694/413
f 144/695/144 143/696/143 96/106/96
f 414/697/414 143/698/143 415/699/415
f 144/700/144 96/701/96 95/702/95 416/703/416
f 417/704/417 142/705/142 342/706/342 341/707/341
f 413/708/413 142/709/142 417/710/417 141/711/141
f 418/712/418 415/713/415 419/714/419 420/715/420
f 421/716/421 415/717/415 418/718/418 422/719/422
f 423/720/423 424/721/424 221/722/221 425/723/425
f 396/724/396 424/725/424 423/726/423 397/727/397
f 134/728/134 179/729/179 426/730/426 427/731/427
f 317/442/317 143/732/143 133/447/133 428/733/428
f 212/734/212 131/735/131 111/122/111
f 91/736/91 132/737/132 429/738/429 430/739/430
f 131/740/131 93/479/93 431/741/431 330/475/330
f 432/742/432 166/743/166 433/744/433
f 212/745/212 111/746/111 113/747/113 434/748/434
f 211/749/211 411/750/411 397/727/397 423/726/423
f 435/751/435 211/752/211 423/720/423 425/723/425
f 436/753/436 183/754/183 422/719/422 418/718/418
f 437/755/437 436/756/436 418/712/418 420/715/420
f 417/710/417 438/757/438 152/758/152 141/711/141
f 350/759/350 438/760/438 417/704/417 341/707/341
f 156/761/156 439/762/439 440/763/440 363/764/363
f 441/765/441 154/657/154 360/553/360 359/766/359
f 433/767/433 154/768/154 441/769/441 432/770/432
f 442/771/442 443/772/443 444/773/444 445/774/445
f 446/775/446 155/776/155 447/777/447 232/778/232
f 137/779/137 110/780/110 109/256/109
f 448/781/448 153/782/153 449/783/449
f 151/784/151 153/785/153 82/786/82
f 450/787/450 196/788/196 195/789/195 343/790/343
f 339/791/339 439/792/439 155/793/155 450/794/450
f 109/795/109 219/796/219 451/797/451 137/153/137
f 83/121/83 82/798/82 153/799/153 109/119/109
f 151/800/151 82/92/82 117/129/117 452/801/452
f 153/802/153 152/803/152 453/804/453 437/805/437
f 454/806/454 148/807/148 153/808/153
f 455/809/455 161/810/161 456/811/456
f 457/812/457 455/809/455 458/813/458
f 449/814/449 148/815/148 150/816/150 459/817/459
f 441/769/441 448/818/448 169/819/169 432/770/432
f 368/820/368 448/821/448 441/765/441 359/766/359
f 192/224/192 456/822/456 161/823/161 160/225/160
f 455/824/455 456/825/456 378/826/378 458/827/458
f 161/828/161 460/829/460 207/830/207 461/831/461
f 462/832/462 444/833/444 463/834/463 464/835/464
f 433/767/433 161/836/161 444/773/444 443/772/443
f 159/837/159 158/838/158 227/266/227
f 408/684/408 204/839/204 410/687/410 465/840/465
f 378/598/378 71/841/71 379/599/379
f 162/842/162 168/843/168 167/844/167 361/845/361
f 160/846/160 162/842/162 466/847/466 467/848/467
f 388/849/388 227/850/227 158/851/158 468/852/468
f 159/577/159 227/853/227 229/854/229 369/574/369
f 157/855/157 159/577/159 367/576/367 469/856/469
f 158/857/158 169/858/169 449/859/449 459/860/459
f 470/861/470 471/862/471 472/863/472 473/864/473
f 474/865/474 158/866/158 470/867/470 244/868/244
f 474/869/474 163/870/163 158/871/158
f 201/872/201 122/873/122 475/874/475
f 476/875/476 201/872/201 477/876/477
f 468/877/468 163/878/163 165/879/165 390/880/390
f 84/94/84 475/881/475 122/882/122 85/95/85
f 201/883/201 475/884/475 287/885/287 477/886/477
f 122/887/122 202/667/202 393/888/393 400/661/400
f 478/889/478 175/890/175 122/891/122
f 205/892/205 204/893/204 479/894/479
f 425/895/425 198/896/198 435/897/435
f 207/830/207 175/898/175 177/899/177 461/831/461
f 480/900/480 206/901/206 460/829/460 481/902/481
f 379/903/379 206/904/206 480/905/480 380/906/380
f 85/907/85 123/908/123 482/909/482 483/910/483
f 189/220/189 479/911/479 204/912/204 484/913/484
f 205/914/205 479/915/479 280/916/280 485/917/485
f 203/918/203 389/919/389 380/906/380 480/905/480
f 474/920/474 203/921/203 480/900/480 481/902/481
f 243/922/243 244/923/244 470/924/470 486/925/486
f 487/926/487 204/927/204 488/928/488 249/929/249
f 222/930/222 213/931/213 67/932/67
f 223/933/223 222/930/222 489/934/489
f 484/935/484 245/936/245 247/937/247 308/938/308
f 68/195/68 67/939/67 213/940/213 173/196/173
f 222/941/222 67/74/67 220/259/220 489/942/489
f 213/943/213 221/944/221 414/945/414 421/946/421
f 185/301/185 252/947/252 250/302/250
f 232/778/232 217/948/217 216/949/216 446/775/446
f 490/950/490 231/951/231 447/777/447 491/952/491
f 463/953/463 231/951/231 490/950/490 464/954/464
f 492/955/492 241/956/241 493/957/493 472/958/472
f 478/959/478 241/960/241 492/961/492 147/962/147
f 173/963/173 214/964/214 494/965/494 226/265/226
f 235/280/235 495/966/495 218/967/218 496/968/496
f 249/929/249 495/969/495 391/970/391 487/926/487
f 248/971/248 488/972/488 147/962/147 492/961/492
f 471/973/471 248/974/248 492/955/492 472/958/472
f 490/950/490 239/975/239 497/976/497 464/954/464
f 454/977/454 239/975/239 490/950/490 491/952/491
f 181/978/181 230/979/230 498/980/498 499/981/499
f 435/982/435 218/983/218 183/984/183 500/985/500
f 496/986/496 197/987/197 199/988/199 412/989/412
f 299/393/299 282/596/282 70/394/70
f 171/990/171 119/466/119 302/465/302
f 386/625/386 72/412/72 293/411/293
f 264/325/264 252/991/252 262/326/262
f 186/215/186 304/992/304 501/993/501 184/213/184
f 265/994/265 345/518/345 270/335/270
f 119/463/119 121/340/121 236/339/236
f 277/354/277 237/995/237 276/355/276
f 252/996/252 301/997/301 253/998/253
f 261/999/261 365/569/365 273/345/273
f 278/1000/278 385/624/385 253/305/253
f 278/1000/278 387/628/387 502/1001/502 385/624/385
f 269/423/269 75/437/75 310/436/310
f 72/408/72 74/361/74 277/360/277
f 283/385/283 290/1002/290 84/386/84
f 121/1003/121 333/486/333 272/485/272
f 61/488/61 265/994/265 262/320/262
f 118/130/118 309/1004/309 101/111/101
f 333/486/333 349/1005/349 101/1006/101
f 237/1007/237 271/343/271 273/342/273
f 61/488/61 503/1008/503 345/518/345 265/994/265
f 352/530/352 107/532/107 373/586/373
f 178/336/178 346/538/346 271/337/271
f 355/540/355 261/999/261 258/312/258
f 98/108/98 266/1009/266 99/109/99
f 346/536/346 347/571/347 99/537/99
f 237/1010/237 274/349/274 275/348/275
f 355/540/355 504/1011/504 365/569/365 261/999/261
f 115/617/115 116/545/116 357/544/357
f 191/585/191 77/631/77 373/582/373
f 505/1012/505 305/416/305 189/415/189
f 209/244/209 170/470/170 329/469/329
f 255/1013/255 108/594/108 353/1014/353 356/542/356
f 312/1015/312 88/1016/88 416/1017/416
f 77/629/77 79/1018/79 275/630/275
f 306/1019/306 78/1020/78 485/1021/485
f 71/1022/71 296/1023/296 482/1024/482
f 506/1025/506 430/739/430 429/738/429
f 507/1026/507 483/1027/483 482/1028/482
f 281/364/281 188/219/188 187/1029/187 86/1030/86
f 325/453/325 394/647/394 125/454/125
f 305/413/305 386/625/386 306/414/306
f 303/1031/303 73/1032/73 407/1033/407
f 58/1034/58 285/1035/285 404/1036/404
f 138/154/138 137/153/137 451/797/451
f 508/1037/508 405/676/405 404/675/404
f 509/1038/509 381/607/381 326/1039/326 172/1040/172
f 428/733/428 311/443/311 317/442/317
f 170/467/170 171/1041/171 303/468/303
f 287/373/287 58/1042/58 288/374/288
f 349/1005/349 331/1043/331 332/1044/332
f 95/702/95 506/1045/506 416/703/416
f 92/1046/92 318/1047/318 93/103/93
f 331/478/331 431/741/431 93/479/93
f 114/1048/114 354/1049/354 451/1050/451
f 374/1051/374 375/1052/375 192/1053/192
f 336/497/336 364/560/364 337/498/337
f 135/151/135 320/1054/320 133/149/133
f 347/571/347 348/535/348 354/534/354
f 440/1055/440 138/154/138 363/1056/363
f 110/120/110 340/1057/340 83/121/83
f 348/533/348 81/91/81 83/93/83
f 193/226/193 383/1058/383 192/224/192
f 229/854/229 371/1059/371 369/574/369
f 366/666/366 393/888/393 202/667/202
f 370/578/370 114/1060/114 369/579/369
f 104/1061/104 358/1062/358 466/1063/466
f 403/1064/403 246/1065/246 408/1066/408
f 371/1067/371 467/848/467 466/847/466
f 376/592/376 228/1068/228 383/1058/383 193/1069/193
f 247/937/247 286/1070/286 308/938/308
f 190/632/190 191/585/191 370/584/370
f 465/840/465 127/685/127 408/684/408
f 431/741/431 208/243/208 330/475/330
f 342/505/342 88/1071/88 343/506/343
f 286/1070/286 247/937/247 510/1072/510 477/886/477
f 344/1073/344 452/801/452 117/129/117
f 127/682/127 129/678/129 307/683/307
f 210/1074/210 128/1075/128 434/1076/434
f 126/1077/126 322/1078/322 426/1079/426
f 362/1080/362 469/856/469 367/576/367
f 511/1081/511 427/731/427 426/730/426
f 512/1082/512 112/1083/112 320/1054/320 135/1084/135
f 513/1085/513 142/709/142 413/708/413
f 320/1086/320 112/1083/112 330/1087/330
f 392/659/392 66/73/66 68/75/68
f 132/737/132 438/1088/438 350/1089/350
f 195/789/195 344/1073/344 343/790/343
f 139/155/139 141/157/141 152/170/152
f 438/757/438 453/1090/453 152/758/152
f 114/1091/114 368/573/368 367/572/367
f 195/789/195 140/1092/140 452/801/452 344/1073/344
f 481/1093/481 164/182/164 474/869/474
f 219/796/219 448/821/448 368/820/368
f 167/844/167 362/1094/362 361/845/361
f 200/233/200 432/1095/432 169/188/169
f 448/818/448 449/1096/449 169/819/169
f 78/1097/78 390/636/390 389/635/389
f 167/844/167 514/1098/514 469/1099/469 362/1094/362
f 206/901/206 207/830/207 460/829/460
f 244/1100/244 203/921/203 474/920/474
f 515/1101/515 409/689/409 235/688/235
f 500/1102/500 211/752/211 435/751/435
f 377/1103/377 165/1104/165 516/1105/516 458/827/458
f 419/1106/419 155/1107/155 446/1108/446
f 203/1109/203 205/1110/205 389/1111/389
f 410/1112/410 204/1113/204 487/1114/487
f 122/1115/122 400/1116/400 494/1117/494
f 517/1118/517 499/981/499 498/980/498
f 224/263/224 226/265/226 494/965/494
f 225/639/225 234/279/234 233/1119/233 174/1120/174
f 424/721/424 414/1121/414 221/722/221
f 409/686/409 465/840/465 410/687/410
f 411/690/411 128/1122/128 412/691/412
f 126/1123/126 396/650/396 220/649/220
f 395/1124/395 489/942/489 220/259/220
f 395/1124/395 199/988/199 518/1125/518 489/942/489
f 414/1126/414 415/717/415 421/716/421
f 211/749/211 212/745/212 411/750/411
f 158/1127/158 459/1128/459 497/1129/497
f 453/1130/453 436/756/436 437/755/437
f 216/949/216 517/1118/517 446/775/446
f 436/753/436 500/1131/500 183/754/183
f 182/211/182 422/1132/422 183/212/183
f 422/1133/422 215/1134/215 421/1135/421
f 462/1136/462 445/774/445 444/773/444
f 148/807/148 454/806/454 149/1137/149
f 519/1138/519 491/1139/491 447/1140/447
f 230/979/230 239/975/239 454/977/454
f 161/1141/161 461/1142/461 493/1143/493
f 473/1144/473 486/925/486 470/924/470
f 462/1136/462 150/816/150 520/1145/520 445/774/445
f 214/964/214 241/960/241 478/959/478
f 239/975/239 240/1146/240 497/976/497
f 177/899/177 146/1147/146 486/925/486 473/1144/473
f 240/1148/240 248/974/248 471/973/471
f 177/899/177 473/1144/473 461/831/461
f 248/1149/248 249/929/249 488/928/488
f 145/163/145 147/165/147 488/1150/488
f 87/490/87 89/323/89 260/322/260
f 57/1151/57 284/1152/284 58/1153/58
f 328/1154/328 501/1155/501 521/1156/521
f 90/100/90 300/1157/300 70/77/70
f 284/1152/284 57/1151/57 522/1158/522
f 290/1002/290 475/884/475 84/386/84
f 172/193/172 326/1039/326 125/138/125
f 283/1159/283 58/1160/58 290/1161/290
f 522/1162/522 184/1163/184 501/1164/501
f 522/1158/522 328/1165/328 284/1152/284
f 171/1166/171 120/1167/120 119/1168/119
f 398/1169/398 329/608/329 381/607/381
f 300/1170/300 294/383/294 293/382/293
f 522/1158/522 501/1171/501 328/1165/328
f 387/628/387 278/1000/278 276/350/276
f 270/1172/270 272/1173/272 263/324/263 265/327/265
f 522/1162/522 57/64/57 184/1163/184
f 364/560/364 87/493/87 268/492/268
f 71/1174/71 482/1175/482 123/1176/123 379/1177/379
f 507/1178/507 482/1024/482 296/1023/296 297/1179/297
f 90/100/90 502/1180/502 300/1157/300
f 386/1181/386 73/1182/73 72/1183/72
f 479/1184/479 189/1185/189 188/1186/188
f 223/262/223 425/1187/425 221/260/221
f 523/1188/523 390/636/390 78/1097/78
f 80/1189/80 115/620/115 254/619/254
f 90/1190/90 385/1191/385 502/1192/502
f 86/96/86 187/1029/187 84/94/84
f 59/401/59 299/397/299 301/396/301
f 387/1193/387 294/1194/294 502/1195/502
f 300/1170/300 502/1196/502 294/1197/294
f 406/680/406 508/1037/508 407/681/407
f 118/510/118 345/509/345 503/1198/503
f 236/281/236 238/283/238 186/300/186 251/303/251
f 318/1199/318 94/1200/94 317/1201/317
f 260/317/260 252/1202/252 258/318/258
f 89/1203/89 88/1204/88 62/69/62
f 108/594/108 255/1013/255 274/347/274
f 440/1205/440 524/1206/524 136/1207/136
f 104/1208/104 466/847/466 162/842/162 361/845/361
f 106/587/106 373/586/373 107/532/107
f 430/1209/430 525/1210/525 92/1211/92
f 524/1212/524 439/792/439 339/791/339
f 60/420/60 62/1213/62 310/421/310
f 309/419/309 503/1214/503 60/420/60
f 118/130/118 503/1215/503 309/1004/309
f 98/562/98 365/561/365 504/1216/504
f 364/1217/364 88/1218/88 87/1219/87
f 340/1220/340 524/1212/524 339/791/339
f 256/309/256 252/1221/252 254/310/254
f 429/1222/429 332/1223/332 316/1224/316 506/1225/506
f 102/1226/102 429/738/429 132/737/132 350/1089/350
f 116/1227/116 71/1228/71 374/1229/374
f 526/1230/526 103/113/103 356/1231/356
f 137/779/137 136/1232/136 110/780/110
f 451/1050/451 354/1049/354 338/555/338 138/558/138
f 267/329/267 351/1233/351 268/330/268
f 266/328/266 504/1234/504 267/329/267
f 98/108/98 504/1235/504 266/1009/266
f 371/580/371 466/1063/466 358/1062/358 372/581/372
f 103/1236/103 357/1237/357 104/1238/104
f 80/1239/80 71/1240/71 115/1241/115
f 357/1237/357 103/1236/103 526/1242/526
f 114/1243/114 451/797/451 219/796/219 368/820/368
f 280/916/280 507/1244/507 485/917/485
f 191/1245/191 78/1246/78 77/1247/77
f 526/1230/526 356/1231/356 353/1248/353
f 526/1242/526 352/1249/352 357/1237/357
f 90/1190/90 69/88/69 385/1191/385
f 227/850/227 388/849/388 228/1068/228
f 375/1250/375 456/1251/456 192/1252/192
f 73/1253/73 308/418/308 307/417/307
f 526/1242/526 353/1254/353 352/1249/352
f 525/1255/525 506/1045/506 95/702/95
f 237/1256/237 272/1173/272 270/1172/270
f 280/1257/280 281/1258/281 507/1259/507
f 122/1260/122 494/965/494 214/964/214 478/959/478
f 224/1261/224 494/1117/494 400/1116/400 401/1262/401
f 293/382/293 292/1263/292 78/1264/78
f 393/1265/393 126/1266/126 392/1267/392
f 407/681/407 73/1268/73 307/683/307 129/678/129
f 484/935/484 505/1012/505 189/415/189
f 243/1269/243 488/1150/488 204/1270/204
f 123/908/123 206/1271/206 379/1272/379
f 483/1273/483 281/1274/281 86/1030/86
f 174/197/174 233/1119/233 68/195/68
f 282/596/282 283/389/283 296/388/296
f 147/269/147 176/271/176 478/889/478
f 240/1275/240 218/1276/218 248/1277/248
f 304/1278/304 521/1279/521 501/1280/501
f 406/680/406 509/1281/509 508/1037/508
f 126/1282/126 426/730/426 179/729/179 396/724/396
f 511/1283/511 426/1079/426 322/1078/322 323/1284/323
f 302/1285/302 291/1286/291 73/1287/73
f 209/1288/209 120/1289/120 170/1290/170
f 111/1291/111 330/1087/330 112/1083/112
f 525/1292/525 430/739/430 506/1025/506
f 409/1293/409 128/1294/128 465/1295/465
f 130/674/130 366/670/366 288/669/288
f 405/1296/405 509/1297/509 172/1040/172
f 319/446/319 428/733/428 133/447/133
f 65/370/65 325/456/325 285/371/285
f 406/1298/406 381/1299/381 509/1038/509
f 527/1300/527 336/501/336 339/500/339
f 524/1206/524 440/1205/440 439/1301/439
f 310/421/310 62/1213/62 88/1302/88
f 347/1303/347 102/1304/102 348/1305/348
f 113/124/113 112/123/112 512/1082/512
f 337/556/337 104/1306/104 363/557/363
f 61/68/61 60/67/60 503/1307/503
f 511/1081/511 512/1308/512 427/731/427
f 442/1309/442 155/1310/155 443/1311/443
f 136/152/136 138/154/138 440/1055/440
f 102/1312/102 350/524/350 117/523/117
f 197/1313/197 435/897/435 198/896/198
f 94/1200/94 96/1314/96 317/1201/317
f 318/1047/318 92/1211/92 525/1315/525 94/1200/94
f 268/330/268 351/1233/351 104/1316/104
f 306/1019/306 485/1021/485 507/1178/507 297/1179/297
f 416/703/416 88/1317/88 342/706/342 144/700/144
f 450/787/450 527/1300/527 339/500/339
f 355/1318/355 267/1319/267 504/1320/504
f 360/548/360 104/1321/104 361/549/361
f 162/1322/162 161/1323/161 168/186/168
f 383/1324/383 228/1068/228 388/849/388
f 242/1325/242 213/1326/213 231/1327/231
f 452/1328/452 139/217/139 151/216/151
f 340/1057/340 110/780/110 136/1207/136 524/1212/524
f 108/118/108 107/117/107 353/1329/353
f 229/854/229 376/1330/376 371/1059/371
f 472/863/472 493/1143/493 461/1142/461 473/864/473
f 455/1331/455 460/1332/460 161/1333/161
f 245/1334/245 408/1066/408 246/1065/246
f 523/1335/523 78/1336/78 190/1337/190
f 485/917/485 78/1338/78 389/1339/389 205/914/205
f 468/877/468 523/1340/523 388/633/388
f 123/1341/123 122/1342/122 206/1343/206
f 200/233/200 514/1344/514 432/1095/432
f 467/1345/467 376/1346/376 193/1069/193
f 469/1347/469 200/1348/200 157/175/157
f 116/545/116 374/613/374 358/546/358
f 377/1349/377 458/1350/458 378/1351/378
f 286/1070/286 477/886/477 287/885/287
f 207/1352/207 122/1353/122 175/198/175
f 291/1354/291 521/1355/521 304/1278/304
f 202/235/202 201/234/201 476/1356/476
f 410/1112/410 487/1114/487 224/1261/224 401/1262/401
f 113/747/113 511/1081/511 434/748/434
f 465/1357/465 128/1358/128 127/1359/127
f 476/875/476 477/876/477 510/1360/510
f 476/1356/476 403/1361/403 202/235/202
f 172/1040/172 124/143/124 405/1296/405
f 247/296/247 246/295/246 510/1362/510
f 495/966/495 235/280/235 234/279/234
f 199/988/199 395/1124/395 412/989/412
f 476/1356/476 510/1363/510 403/1361/403
f 443/772/443 154/768/154 433/767/433
f 102/1364/102 332/1223/332 429/1222/429
f 113/747/113 512/1308/512 511/1081/511
f 430/1209/430 92/102/92 91/101/91
f 317/1201/317 96/1314/96 143/1365/143
f 329/608/329 398/1169/398 128/1366/128
f 415/1367/415 143/1368/143 513/1369/513
f 95/105/95 94/104/94 525/1315/525
f 142/705/142 144/700/144 342/706/342
f 436/1370/436 131/1371/131 500/1372/500
f 427/1373/427 512/1374/512 135/1084/135
f 394/647/394 319/446/319 322/450/322
f 139/1375/139 452/1328/452 140/1376/140
f 513/1377/513 143/1378/143 142/1379/142
f 491/1380/491 149/1137/149 454/806/454
f 523/1340/523 190/634/190 388/633/388
f 330/1087/330 111/1291/111 131/1381/131
f 156/1382/156 155/1383/155 439/1301/439
f 267/1319/267 355/1318/355 351/529/351
f 255/1013/255 356/542/356 256/314/256
f 420/1384/420 419/1106/419 446/1108/446 517/1385/517
f 163/181/163 474/869/474 164/182/164
f 495/1386/495 234/638/234 391/637/391
f 304/992/304 186/215/186 238/1387/238
f 194/693/194 196/1388/196 413/694/413
f 141/692/141 140/1389/140 194/693/194
f 200/1348/200 469/1347/469 514/1390/514
f 443/1391/443 155/1392/155 154/1393/154
f 491/1380/491 520/1394/520 149/1137/149
f 371/1067/371 376/1395/376 467/848/467
f 498/1396/498 437/1397/437 420/1384/420 517/1385/517
f 153/1398/153 498/980/498 230/979/230 454/977/454
f 390/880/390 523/1340/523 468/877/468
f 468/1399/468 158/1400/158 163/1401/163
f 343/790/343 527/1300/527 450/787/450
f 519/1402/519 442/1309/442 445/1403/445
f 166/743/166 168/1404/168 433/744/433
f 432/742/432 514/1405/514 166/743/166
f 292/381/292 294/383/294 387/1193/387
f 75/433/75 76/1406/76 264/434/264
f 193/1069/193 160/178/160 467/1345/467
f 460/1332/460 455/1331/455 457/1407/457
f 158/1408/158 497/1409/497 240/1148/240 471/973/471
f 391/970/391 224/1410/224 487/926/487
f 244/1411/244 204/1412/204 203/1413/203
f 457/812/457 458/813/458 516/1414/516
f 457/1407/457 481/1415/481 460/1332/460
f 86/1030/86 85/134/85 483/1273/483
f 241/960/241 242/1416/242 493/1417/493
f 145/1418/145 243/291/243 486/1419/486
f 290/1002/290 287/885/287 475/884/475
f 403/1064/403 510/1420/510 246/1065/246
f 457/1407/457 516/1421/516 481/1415/481
f 528/1422/528 517/1118/517 216/949/216
f 391/970/391 225/1423/225 224/1410/224
f 249/1424/249 218/1425/218 495/1386/495
f 421/1135/421 217/1426/217 213/1427/213
f 408/1066/408 245/1334/245 204/1428/204
f 232/1429/232 213/1430/213 217/254/217
f 434/748/434 128/1431/128 411/750/411 212/745/212
f 496/986/496 515/1101/515 235/688/235
f 435/897/435 197/1313/197 218/1432/218
f 479/1184/479 188/1186/188 280/1433/280
f 507/1259/507 281/1258/281 483/910/483
f 226/1434/226 225/1435/225 174/1120/174
f 393/888/393 392/662/392 400/661/400
f 528/1422/528 499/981/499 517/1118/517
f 135/1084/135 134/204/134 427/1373/427
f 150/816/150 462/1136/462 459/817/459
f 398/656/398 381/1299/381 406/1298/406
f 508/1037/508 509/1281/509 405/676/405
f 223/262/223 518/1436/518 425/1187/425
f 500/1437/500 131/1438/131 211/1439/211
f 215/1134/215 217/1426/217 421/1135/421
f 291/1354/291 302/1285/302 521/1355/521
f 150/168/150 149/167/149 520/1440/520
f 223/933/223 489/934/489 518/1441/518
f 179/729/179 424/725/424 396/724/396
f 199/232/199 198/231/198 518/1442/518
f 425/895/425 518/1443/518 198/896/198
f 216/253/216 215/252/215 528/1444/528
f 413/694/413 196/1388/196 155/1445/155
f 449/1446/449 153/1447/153 148/166/148
f 153/1448/153 437/1397/437 498/1396/498
f 499/1449/499 528/1450/528 182/1451/182
f 195/228/195 194/227/194 140/1452/140
f 412/989/412 515/1101/515 496/986/496
f 496/1453/496 218/1454/218 197/230/197
f 415/713/415 513/1455/513 419/714/419
f 422/1132/422 182/1451/182 528/1444/528 215/1134/215
f 375/1456/375 378/1457/378 456/1458/456
f 481/1093/481 516/1459/516 164/1460/164
f 433/744/433 168/1404/168 161/1461/161
f 497/1129/497 459/1128/459 462/832/462 464/835/464
f 165/879/165 377/1462/377 390/880/390
f 447/1140/447 442/1463/442 519/1138/519
f 167/185/167 166/184/166 514/1464/514
f 230/1465/230 218/1466/218 239/1467/239
f 519/1402/519 445/1403/445 520/1468/520
f 231/951/231 232/778/232 447/777/447
f 63/460/63 65/370/65 284/369/284
f 499/1449/499 182/1451/182 181/272/181
f 444/833/444 161/1469/161 463/834/463
f 519/1138/519 520/1470/520 491/1139/491
f 242/1416/242 231/951/231 463/953/463
f 488/1150/488 243/1269/243 145/163/145
f 165/183/165 164/1471/164 516/1472/516
f 328/1154/328 521/1355/521 302/1285/302
f 214/1473/214 213/1474/213 241/1475/241
f 308/938/308 505/1012/505 484/935/484
f 484/1476/484 204/1477/204 245/294/245
f 174/1120/174 173/249/173 226/1434/226
f 470/861/470 158/1478/158 471/862/471
f 175/890/175 478/889/478 176/271/176
f 177/200/177 176/199/176 146/1479/146
f 145/1418/145 486/1419/486 146/1480/146
f 508/1481/508 404/1036/404 285/1035/285 327/1482/327
f 76/1406/76 63/1483/63 250/1484/250
f 76/1485/76 250/1486/250 252/1487/252 264/1488/264
f 252/1489/252 185/214/185 59/401/59 301/396/301
f 278/356/278 253/998/253 301/997/301 279/357/279
f 299/1490/299 58/1491/58 282/1492/282
f 59/1493/59 58/1494/58 299/1495/299
f 58/1496/58 404/675/404 130/674/130 288/669/288
f 305/1497/305 73/1498/73 386/1499/386
f 505/1500/505 73/1501/73 305/1502/305
f 505/1503/505 308/418/308 73/1253/73
f 303/1031/303 407/1033/407 508/1481/508 327/1482/327
f 311/1504/311 64/1505/64 269/1506/269
f 428/1507/428 64/1508/64 311/1509/311
f 319/1510/319 64/1511/64 428/1512/428
f 394/1513/394 64/1514/64 319/1515/319
f 325/1516/325 64/1517/64 394/1518/394
f 65/1519/65 64/1520/64 325/1521/325
f 208/1522/208 120/1523/120 209/1524/209
f 431/1525/431 120/1526/120 208/1527/208
f 331/1528/331 120/1529/120 431/1530/431
f 349/1531/349 120/1532/120 331/1533/331
f 333/1534/333 120/1535/120 349/1536/349
f 121/1537/121 120/1538/120 333/1539/333
f 336/1540/336 88/1541/88 364/1542/364
f 527/1543/527 88/1544/88 336/1545/336
f 527/1546/527 343/506/343 88/1071/88
f 316/1224/316 312/1015/312 416/1017/416 506/1225/506
f 178/1547/178 102/1548/102 346/1549/346
f 515/1550/515 128/1551/128 409/1552/409
f 515/1553/515 412/691/412 128/1122/128
f 210/1074/210 434/1076/434 511/1283/511 323/1284/323
f 424/1554/424 143/1555/143 414/1556/414
f 179/1557/179 143/1558/143 424/1559/424
f 453/1560/453 131/1561/131 436/1562/436
f 438/1563/438 131/1564/131 453/1565/453
f 132/1566/132 131/1567/131 438/1568/438
f 450/1569/450 155/1570/155 196/229/196
f 442/1463/442 447/1140/447 155/1571/155
f 413/1572/413 155/1573/155 419/1574/419 513/1575/513
f 219/1576/219 153/1577/153 448/1578/448
f 463/953/463 161/1579/161 493/1417/493 242/1416/242
