# Blender v2.78 (sub 0) OBJ File: 'Lamp-Tortiglioni.blend'
#
# Model by nulus on BlendSwap: http://www.blendswap.com/blends/view/87779
# Model modified and simplified by Tomas Ohberg
# CC-0
#
# www.blender.org
v -0.037115 -0.011144 -2.910711
v -0.012234 0.038212 -2.910711
v 0.037122 0.013331 -2.910711
v 0.012241 -0.036025 -2.910711
v 0.000003 0.001093 -3.098991
v 0.027399 -0.081999 -3.021802
v 0.083096 0.028489 -3.021802
v -0.027392 0.084186 -3.021802
v -0.083089 -0.026302 -3.021802
v 0.020575 -0.061303 -2.929455
v 0.062400 0.021665 -2.929455
v -0.020569 0.063490 -2.929455
v -0.062394 -0.019479 -2.929455
v -0.058400 -0.018162 -3.078181
v -0.018081 -0.034781 -2.910702
v -0.080275 0.041562 -3.020844
v -0.019252 0.059497 -3.078181
v 0.040472 0.081372 -3.020844
v 0.058407 0.020349 -3.078181
v 0.080282 -0.039375 -3.020844
v 0.019259 -0.057310 -3.078181
v -0.040465 -0.079185 -3.020844
v -0.060321 0.031503 -2.929447
v 0.030413 0.061418 -2.929447
v 0.060328 -0.029317 -2.929447
v 0.026188 -0.078327 -2.960786
v 0.079424 0.027278 -2.960786
v -0.026181 0.080514 -2.960786
v -0.079417 -0.025091 -2.960786
v -0.030407 -0.059231 -2.929447
v -0.035872 0.019178 -2.910702
v 0.018088 0.036968 -2.910702
v 0.035878 -0.016991 -2.910702
v 0.014864 -0.043982 -2.918871
v 0.045078 0.015954 -2.918871
v -0.014858 0.046168 -2.918871
v -0.045072 -0.013768 -2.918871
v -0.032088 -0.062567 -3.068222
v -0.063657 0.033185 -3.068222
v 0.063664 -0.030998 -3.068222
v 0.032095 0.064754 -3.068222
v -0.038707 -0.075696 -2.960779
v -0.076786 0.039803 -2.960779
v 0.038713 0.077883 -2.960779
v 0.076793 -0.037617 -2.960779
v -0.021964 -0.042483 -2.918867
v -0.043573 0.023060 -2.918867
v 0.021970 0.044669 -2.918867
v 0.043579 -0.020873 -2.918867
vt 0.3129 0.9561
vt 0.3457 0.9995
vt 0.2939 1.0026
vt 0.2501 0.9599
vt 0.5040 1.0068
vt 0.6511 1.0056
vt 0.6839 0.9635
vt 0.5052 0.9650
vt 0.3228 0.9637
vt 0.3539 1.0058
vt 0.7029 1.0024
vt 0.6430 0.9994
vt 0.6741 0.9559
vt 0.7468 0.9597
vt 0.1547 0.9046
vt 0.2553 0.9099
vt 0.1890 0.7474
vt 0.0609 0.7407
vt 0.8422 0.9042
vt 0.7552 0.9096
vt 0.4928 0.9982
vt 0.4916 0.9546
vt 0.4984 0.0172
vt 0.8202 0.1259
vt 0.7550 0.1725
vt 0.4896 0.1194
vt 0.4890 0.8972
vt 0.2417 0.8994
vt 0.0406 0.4214
vt 0.1749 0.4333
vt 0.2419 0.1839
vt 0.1767 0.1263
vt 0.2275 0.1728
vt 0.5109 0.4308
vt 0.5104 0.7496
vt 0.8253 0.7470
vt 0.8401 0.4330
vt 0.7416 0.8991
vt 0.5072 0.1329
vt 0.4859 0.4115
vt 0.4865 0.7313
vt 0.1716 0.7340
vt 0.1567 0.4194
vt 0.7694 0.1836
vt 0.8220 0.4190
vt 0.8079 0.7336
vt 0.9562 0.4209
vt 0.5078 0.9116
vt 0.9360 0.7402
vn -0.2574 -0.5107 0.8203
vn -0.3095 -0.6140 0.7261
vn -0.6625 -0.2184 0.7165
vn -0.5565 -0.1835 0.8103
vn -0.2184 0.6626 0.7164
vn 0.3095 0.6140 0.7261
vn 0.2574 0.5107 0.8203
vn -0.1835 0.5565 0.8103
vn -0.5107 0.2574 0.8203
vn -0.6140 0.3095 0.7261
vn 0.6626 0.2184 0.7164
vn 0.6140 -0.3095 0.7261
vn 0.5107 -0.2574 0.8203
vn 0.5565 0.1835 0.8103
vn -0.6991 -0.2305 0.6768
vn -0.6543 0.3298 0.6805
vn -0.8577 0.4324 0.2782
vn -0.9133 -0.3011 0.2743
vn 0.6991 0.2305 0.6768
vn 0.3298 0.6543 0.6805
vn 0.2184 -0.6626 0.7164
vn 0.1835 -0.5565 0.8103
vn 0.0000 0.0000 -1.0000
vn 0.6412 0.2114 -0.7377
vn 0.6969 -0.3513 -0.6253
vn 0.2114 -0.6412 -0.7377
vn 0.2305 -0.6991 0.6768
vn -0.3298 -0.6543 0.6805
vn -0.9373 -0.3090 -0.1613
vn -0.8810 0.4441 -0.1628
vn -0.6969 0.3513 -0.6253
vn -0.6412 -0.2114 -0.7377
vn -0.3513 -0.6969 -0.6253
vn -0.3090 0.9373 -0.1613
vn -0.3011 0.9133 0.2743
vn 0.4324 0.8577 0.2782
vn 0.4441 0.8810 -0.1628
vn 0.6543 -0.3298 0.6805
vn -0.2114 0.6412 -0.7377
vn 0.3090 -0.9373 -0.1613
vn 0.3011 -0.9133 0.2743
vn -0.4324 -0.8577 0.2782
vn -0.4441 -0.8810 -0.1628
vn 0.3513 0.6969 -0.6253
vn 0.8810 -0.4441 -0.1628
vn 0.8577 -0.4324 0.2782
vn 0.9373 0.3090 -0.1613
vn -0.2305 0.6991 0.6768
vn 0.9133 0.3011 0.2743
s 1
f 46/1/1 15/2/2 1/3/3 37/4/4
f 2/5/5 32/6/6 48/7/7 36/8/8
f 47/9/9 31/10/10 2/5/5 36/8/8
f 3/11/11 33/12/12 49/13/13 35/14/14
f 13/15/15 23/16/16 43/17/17 29/18/18
f 48/7/7 32/6/6 3/11/11 35/14/14
f 11/19/19 24/20/20 48/7/7 35/14/14
f 4/21/21 15/2/2 46/1/1 34/22/22
f 5/23/23 19/24/24 40/25/25 21/26/26
f 10/27/27 34/22/22 46/1/1 30/28/28
f 49/13/13 33/12/12 4/21/21 34/22/22
f 9/29/29 16/30/30 39/31/31 14/32/32
f 5/23/23 21/26/26 38/33/33 14/32/32
f 8/34/34 28/35/35 44/36/36 18/37/37
f 11/19/19 35/14/14 49/13/13 25/38/38
f 39/31/31 17/39/39 5/23/23 14/32/32
f 6/40/40 26/41/41 42/42/42 22/43/43
f 8/34/34 18/37/37 41/44/44 17/39/39
f 6/40/40 20/45/45 45/46/46 26/41/41
f 9/29/29 29/18/18 43/17/17 16/30/30
f 7/47/47 20/45/45 40/25/25 19/24/24
f 12/48/48 36/8/8 48/7/7 24/20/20
f 8/34/34 16/30/30 43/17/17 28/35/35
f 7/47/47 27/49/49 45/46/46 20/45/45
f 7/47/47 18/37/37 44/36/36 27/49/49
f 6/40/40 22/43/43 38/33/33 21/26/26
f 10/27/27 30/28/28 42/42/42 26/41/41
f 12/48/48 23/16/16 47/9/9 36/8/8
f 9/29/29 22/43/43 42/42/42 29/18/18
f 40/25/25 20/45/45 6/40/40 21/26/26
f 12/48/48 24/20/20 44/36/36 28/35/35
f 41/44/44 18/37/37 7/47/47 19/24/24
f 13/15/15 37/4/4 47/9/9 23/16/16
f 39/31/31 16/30/30 8/34/34 17/39/39
f 38/33/33 22/43/43 9/29/29 14/32/32
f 10/27/27 25/38/38 49/13/13 34/22/22
f 11/19/19 25/38/38 45/46/46 27/49/49
f 13/15/15 30/28/28 46/1/1 37/4/4
f 45/46/46 25/38/38 10/27/27 26/41/41
f 44/36/36 24/20/20 11/19/19 27/49/49
f 43/17/17 23/16/16 12/48/48 28/35/35
f 42/42/42 30/28/28 13/15/15 29/18/18
f 5/23/23 17/39/39 41/44/44 19/24/24
f 1/3/3 31/10/10 47/9/9 37/4/4
