# Blender v2.78 (sub 0) OBJ File: ''
#
# Model by Tomas Ohberg and Daniel Ericsson
# CC-0
# Texture from learnopengl.com
#
# www.blender.org
v 0.500000 0.500000 0.000000
v 0.500000 -0.500000 0.000000
v -0.500000 -0.500000 0.000000
v -0.500000 0.500000 0.000000
v 0.500000 0.500000 1.000000
v -0.500000 0.500000 1.000000
v -0.500000 -0.500000 1.000000
v 0.500000 -0.500000 1.000000
vt 0.9994 1.9994
vt 0.0006 1.9994
vt 0.0006 1.0006
vt 0.9994 1.0006
vt 0.9994 0.9994
vt 0.0006 0.9994
vt 0.0006 0.0006
vt 0.9994 0.0006
vt 1.9994 0.0006
vt 1.9994 0.9994
vt 1.0006 0.9994
vt 1.0006 0.0006
vt 1.9994 1.0006
vt 1.9994 1.9994
vt 1.0006 1.9994
vt 1.0006 1.0006
vt 2.0006 0.9994
vt 2.0006 0.0006
vt 2.9994 0.0006
vt 2.9994 0.9994
vt 0.9994 2.0006
vt 0.9994 2.9994
vt 0.0006 2.9994
vt 0.0006 2.0006
vn 0.0000 0.0000 -1.0000
vn 0.0000 0.0000 1.0000
vn 1.0000 0.0000 0.0000
vn 0.0000 -1.0000 0.0000
vn -1.0000 0.0000 0.0000
vn 0.0000 1.0000 0.0000
s 1
f 1/1/1 2/2/1 3/3/1 4/4/1
f 5/5/2 6/6/2 7/7/2 8/8/2
f 1/9/3 5/10/3 8/11/3 2/12/3
f 2/13/4 8/14/4 7/15/4 3/16/4
f 3/17/5 7/18/5 6/19/5 4/20/5
f 5/21/6 1/22/6 4/23/6 6/24/6
